<?xml version="1.0" encoding="utf-8"  standalone="no"?>
<svg 
 viewBox="0 0 1280 720"
 xmlns="http://www.w3.org/2000/svg"
 xmlns:xlink="http://www.w3.org/1999/xlink"
>

<title>Gnuplot</title>
<desc>Produced by GNUPLOT 5.2 patchlevel 6 </desc>

<g id="gnuplot_canvas">

<rect x="0" y="0" width="1280" height="720" fill="none"/>
<defs>

	<circle id='gpDot' r='0.5' stroke-width='0.5' stroke='currentColor'/>
	<path id='gpPt0' stroke-width='0.222' stroke='currentColor' d='M-1,0 h2 M0,-1 v2'/>
	<path id='gpPt1' stroke-width='0.222' stroke='currentColor' d='M-1,-1 L1,1 M1,-1 L-1,1'/>
	<path id='gpPt2' stroke-width='0.222' stroke='currentColor' d='M-1,0 L1,0 M0,-1 L0,1 M-1,-1 L1,1 M-1,1 L1,-1'/>
	<rect id='gpPt3' stroke-width='0.222' stroke='currentColor' x='-1' y='-1' width='2' height='2'/>
	<rect id='gpPt4' stroke-width='0.222' stroke='currentColor' fill='currentColor' x='-1' y='-1' width='2' height='2'/>
	<circle id='gpPt5' stroke-width='0.222' stroke='currentColor' cx='0' cy='0' r='1'/>
	<use xlink:href='#gpPt5' id='gpPt6' fill='currentColor' stroke='none'/>
	<path id='gpPt7' stroke-width='0.222' stroke='currentColor' d='M0,-1.33 L-1.33,0.67 L1.33,0.67 z'/>
	<use xlink:href='#gpPt7' id='gpPt8' fill='currentColor' stroke='none'/>
	<use xlink:href='#gpPt7' id='gpPt9' stroke='currentColor' transform='rotate(180)'/>
	<use xlink:href='#gpPt9' id='gpPt10' fill='currentColor' stroke='none'/>
	<use xlink:href='#gpPt3' id='gpPt11' stroke='currentColor' transform='rotate(45)'/>
	<use xlink:href='#gpPt11' id='gpPt12' fill='currentColor' stroke='none'/>
	<path id='gpPt13' stroke-width='0.222' stroke='currentColor' d='M0,1.330 L1.265,0.411 L0.782,-1.067 L-0.782,-1.076 L-1.265,0.411 z'/>
	<use xlink:href='#gpPt13' id='gpPt14' fill='currentColor' stroke='none'/>
	<filter id='textbox' filterUnits='objectBoundingBox' x='0' y='0' height='1' width='1'>
	  <feFlood flood-color='white' flood-opacity='1' result='bgnd'/>
	  <feComposite in='SourceGraphic' in2='bgnd' operator='atop'/>
	</filter>
	<filter id='greybox' filterUnits='objectBoundingBox' x='0' y='0' height='1' width='1'>
	  <feFlood flood-color='lightgrey' flood-opacity='1' result='grey'/>
	  <feComposite in='SourceGraphic' in2='grey' operator='atop'/>
	</filter>
</defs>
<g fill="none" color="white" stroke="currentColor" stroke-width="1.00" stroke-linecap="butt" stroke-linejoin="miter">
</g>
<g fill="none" color="black" stroke="currentColor" stroke-width="1.00" stroke-linecap="butt" stroke-linejoin="miter">
	<path stroke='black'  d='M55.3,662.4 L64.3,662.4  '/>	<g transform="translate(47.0,666.3)" stroke="none" fill="black" font-family="Helvetica" font-size="12.00"  text-anchor="end">
		<text><tspan font-family="Helvetica" > 0</tspan></text>
	</g>
</g>
<g fill="none" color="black" stroke="currentColor" stroke-width="1.00" stroke-linecap="butt" stroke-linejoin="miter">
	<path stroke='black'  d='M55.3,561.0 L64.3,561.0  '/>	<g transform="translate(47.0,564.9)" stroke="none" fill="black" font-family="Helvetica" font-size="12.00"  text-anchor="end">
		<text><tspan font-family="Helvetica" > 1</tspan></text>
	</g>
</g>
<g fill="none" color="black" stroke="currentColor" stroke-width="1.00" stroke-linecap="butt" stroke-linejoin="miter">
	<path stroke='black'  d='M55.3,459.6 L64.3,459.6  '/>	<g transform="translate(47.0,463.5)" stroke="none" fill="black" font-family="Helvetica" font-size="12.00"  text-anchor="end">
		<text><tspan font-family="Helvetica" > 2</tspan></text>
	</g>
</g>
<g fill="none" color="black" stroke="currentColor" stroke-width="1.00" stroke-linecap="butt" stroke-linejoin="miter">
	<path stroke='black'  d='M55.3,358.2 L64.3,358.2  '/>	<g transform="translate(47.0,362.1)" stroke="none" fill="black" font-family="Helvetica" font-size="12.00"  text-anchor="end">
		<text><tspan font-family="Helvetica" > 3</tspan></text>
	</g>
</g>
<g fill="none" color="black" stroke="currentColor" stroke-width="1.00" stroke-linecap="butt" stroke-linejoin="miter">
	<path stroke='black'  d='M55.3,256.9 L64.3,256.9  '/>	<g transform="translate(47.0,260.8)" stroke="none" fill="black" font-family="Helvetica" font-size="12.00"  text-anchor="end">
		<text><tspan font-family="Helvetica" > 4</tspan></text>
	</g>
</g>
<g fill="none" color="black" stroke="currentColor" stroke-width="1.00" stroke-linecap="butt" stroke-linejoin="miter">
	<path stroke='black'  d='M55.3,155.5 L64.3,155.5  '/>	<g transform="translate(47.0,159.4)" stroke="none" fill="black" font-family="Helvetica" font-size="12.00"  text-anchor="end">
		<text><tspan font-family="Helvetica" > 5</tspan></text>
	</g>
</g>
<g fill="none" color="black" stroke="currentColor" stroke-width="1.00" stroke-linecap="butt" stroke-linejoin="miter">
	<path stroke='black'  d='M55.3,54.1 L64.3,54.1  '/>	<g transform="translate(47.0,58.0)" stroke="none" fill="black" font-family="Helvetica" font-size="12.00"  text-anchor="end">
		<text><tspan font-family="Helvetica" > 6</tspan></text>
	</g>
</g>
<g fill="none" color="black" stroke="currentColor" stroke-width="1.00" stroke-linecap="butt" stroke-linejoin="miter">
	<path stroke='black'  d='M188.6,662.4 L188.6,653.4  '/>	<g transform="translate(188.6,684.3)" stroke="none" fill="black" font-family="Helvetica" font-size="12.00"  text-anchor="middle">
		<text><tspan font-family="Helvetica" > 16.3</tspan></text>
	</g>
</g>
<g fill="none" color="black" stroke="currentColor" stroke-width="1.00" stroke-linecap="butt" stroke-linejoin="miter">
	<path stroke='black'  d='M329.9,662.4 L329.9,653.4  '/>	<g transform="translate(329.9,684.3)" stroke="none" fill="black" font-family="Helvetica" font-size="12.00"  text-anchor="middle">
		<text><tspan font-family="Helvetica" > 16.35</tspan></text>
	</g>
</g>
<g fill="none" color="black" stroke="currentColor" stroke-width="1.00" stroke-linecap="butt" stroke-linejoin="miter">
	<path stroke='black'  d='M471.1,662.4 L471.1,653.4  '/>	<g transform="translate(471.1,684.3)" stroke="none" fill="black" font-family="Helvetica" font-size="12.00"  text-anchor="middle">
		<text><tspan font-family="Helvetica" > 16.4</tspan></text>
	</g>
</g>
<g fill="none" color="black" stroke="currentColor" stroke-width="1.00" stroke-linecap="butt" stroke-linejoin="miter">
	<path stroke='black'  d='M612.4,662.4 L612.4,653.4  '/>	<g transform="translate(612.4,684.3)" stroke="none" fill="black" font-family="Helvetica" font-size="12.00"  text-anchor="middle">
		<text><tspan font-family="Helvetica" > 16.45</tspan></text>
	</g>
</g>
<g fill="none" color="black" stroke="currentColor" stroke-width="1.00" stroke-linecap="butt" stroke-linejoin="miter">
	<path stroke='black'  d='M753.6,662.4 L753.6,653.4  '/>	<g transform="translate(753.6,684.3)" stroke="none" fill="black" font-family="Helvetica" font-size="12.00"  text-anchor="middle">
		<text><tspan font-family="Helvetica" > 16.5</tspan></text>
	</g>
</g>
<g fill="none" color="black" stroke="currentColor" stroke-width="1.00" stroke-linecap="butt" stroke-linejoin="miter">
	<path stroke='black'  d='M894.9,662.4 L894.9,653.4  '/>	<g transform="translate(894.9,684.3)" stroke="none" fill="black" font-family="Helvetica" font-size="12.00"  text-anchor="middle">
		<text><tspan font-family="Helvetica" > 16.55</tspan></text>
	</g>
</g>
<g fill="none" color="black" stroke="currentColor" stroke-width="1.00" stroke-linecap="butt" stroke-linejoin="miter">
</g>
<g fill="none" color="black" stroke="currentColor" stroke-width="1.00" stroke-linecap="butt" stroke-linejoin="miter">
	<path stroke='black'  d='M55.3,54.1 L55.3,662.4 L1013.6,662.4 L1013.6,54.1 L55.3,54.1 Z  '/></g>
<g fill="none" color="black" stroke="currentColor" stroke-width="1.00" stroke-linecap="butt" stroke-linejoin="miter">
	<g transform="translate(16.3,358.3) rotate(270)" stroke="none" fill="black" font-family="Helvetica" font-size="12.00"  text-anchor="middle">
		<text><tspan font-family="Helvetica" >Density (a.u.)</tspan></text>
	</g>
</g>
<g fill="none" color="black" stroke="currentColor" stroke-width="1.00" stroke-linecap="butt" stroke-linejoin="miter">
	<g transform="translate(534.4,711.3)" stroke="none" fill="black" font-family="Helvetica" font-size="12.00"  text-anchor="middle">
		<text><tspan font-family="Helvetica" >Average time (ms)</tspan></text>
	</g>
</g>
<g fill="none" color="black" stroke="currentColor" stroke-width="1.00" stroke-linecap="butt" stroke-linejoin="miter">
	<g transform="translate(534.4,31.0)" stroke="none" fill="black" font-family="Helvetica" font-size="12.00"  text-anchor="middle">
		<text><tspan font-family="Helvetica" >set_bench/kvs: slope</tspan></text>
	</g>
</g>
	<g id="gnuplot_plot_1" ><title>Bootstrap distribution</title>
<g fill="none" color="white" stroke="black" stroke-width="2.00" stroke-linecap="butt" stroke-linejoin="miter">
</g>
<g fill="none" color="black" stroke="currentColor" stroke-width="2.00" stroke-linecap="butt" stroke-linejoin="miter">
	<g transform="translate(1089.0,67.0)" stroke="none" fill="black" font-family="Helvetica" font-size="12.00"  text-anchor="start">
		<text><tspan font-family="Helvetica" >Bootstrap distribution</tspan></text>
	</g>
</g>
<g fill="none" color="black" stroke="currentColor" stroke-width="2.00" stroke-linecap="butt" stroke-linejoin="miter">
	<path stroke='rgb( 31, 120, 180)'  d='M1038.5,63.1 L1080.7,63.1 M55.3,629.7 L57.2,629.1 L59.1,628.5 L61.1,627.8 L63.0,627.2 L64.9,626.5
		L66.8,625.8 L68.7,625.1 L70.7,624.4 L72.6,623.6 L74.5,622.8 L76.4,622.0 L78.3,621.2 L80.3,620.4
		L82.2,619.5 L84.1,618.6 L86.0,617.7 L87.9,616.7 L89.9,615.8 L91.8,614.8 L93.7,613.8 L95.6,612.8
		L97.5,611.8 L99.5,610.7 L101.4,609.7 L103.3,608.6 L105.2,607.5 L107.2,606.4 L109.1,605.3 L111.0,604.2
		L112.9,603.1 L114.8,602.0 L116.8,600.8 L118.7,599.7 L120.6,598.5 L122.5,597.3 L124.4,596.1 L126.4,594.9
		L128.3,593.7 L130.2,592.5 L132.1,591.2 L134.0,589.9 L136.0,588.7 L137.9,587.4 L139.8,586.1 L141.7,584.7
		L143.6,583.4 L145.6,582.1 L147.5,580.7 L149.4,579.4 L151.3,578.0 L153.2,576.6 L155.2,575.2 L157.1,573.8
		L159.0,572.4 L160.9,571.0 L162.8,569.6 L164.8,568.2 L166.7,566.7 L168.6,565.3 L170.5,563.9 L172.4,562.4
		L174.4,561.0 L176.3,559.5 L178.2,558.0 L180.1,556.5 L182.0,555.0 L184.0,553.5 L185.9,551.9 L187.8,550.3
		L189.7,548.7 L191.7,547.1 L193.6,545.4 L195.5,543.7 L197.4,541.9 L199.3,540.1 L201.3,538.3 L203.2,536.4
		L205.1,534.5 L207.0,532.5 L208.9,530.5 L210.9,528.4 L212.8,526.3 L214.7,524.1 L216.6,521.9 L218.5,519.6
		L220.5,517.3 L222.4,515.0 L224.3,512.6 L226.2,510.2 L228.1,507.8 L230.1,505.3 L232.0,502.8 L233.9,500.2
		L235.8,497.7 L237.7,495.1 L239.7,492.5 L241.6,489.9 L243.5,487.3 L245.4,484.6 L247.3,482.0 L249.3,479.3
		L251.2,476.7 L253.1,474.0 L255.0,471.4 L256.9,468.8 L258.9,466.1 L260.8,463.5 L262.7,460.8 L264.6,458.2
		L266.5,455.6 L268.5,453.0 L270.4,450.4 L272.3,447.8 L274.2,445.2 L276.2,442.6 L278.1,440.0 L280.0,437.4
		L281.9,434.8 L283.8,432.2 L285.8,429.7 L287.7,427.1 L289.6,424.5 L291.5,421.9 L293.4,419.3 L295.4,416.7
		L297.3,414.1 L299.2,411.5 L301.1,409.0 L303.0,406.4 L305.0,403.7 L306.9,401.1 L308.8,398.5 L310.7,395.9
		L312.6,393.2 L314.6,390.5 L316.5,387.8 L318.4,385.1 L320.3,382.4 L322.2,379.6 L324.2,376.8 L326.1,373.9
		L328.0,371.1 L329.9,368.2 L331.8,365.2 L333.8,362.2 L335.7,359.2 L337.6,356.1 L339.5,353.0 L341.4,349.9
		L343.4,346.7 L345.3,343.5 L347.2,340.3 L349.1,337.1 L351.0,333.8 L353.0,330.5 L354.9,327.2 L356.8,323.8
		L358.7,320.4 L360.7,317.0 L362.6,313.6 L364.5,310.2 L366.4,306.7 L368.3,303.3 L370.3,299.8 L372.2,296.3
		L374.1,292.8 L376.0,289.3 L377.9,285.8 L379.9,282.3 L381.8,278.8 L383.7,275.4 L385.6,272.0 L387.5,268.6
		L389.5,265.2 L391.4,261.9 L393.3,258.6 L395.2,255.4 L397.1,252.2 L399.1,249.1 L401.0,246.0 L402.9,243.0
		L404.8,240.0 L406.7,237.1 L408.7,234.2 L410.6,231.4 L412.5,228.6 L414.4,225.8 L416.3,223.1 L418.3,220.4
		L420.2,217.8 L422.1,215.2 L424.0,212.6 L425.9,210.0 L427.9,207.4 L429.8,204.9 L431.7,202.3 L433.6,199.8
		L435.5,197.2 L437.5,194.7 L439.4,192.1 L441.3,189.5 L443.2,187.0 L445.1,184.4 L447.1,181.8 L449.0,179.2
		L450.9,176.6 L452.8,174.1 L454.8,171.5 L456.7,168.9 L458.6,166.4 L460.5,163.9 L462.4,161.5 L464.4,159.0
		L466.3,156.6 L468.2,154.3 L470.1,152.0 L472.0,149.8 L474.0,147.7 L475.9,145.6 L477.8,143.6 L479.7,141.6
		L481.6,139.8 L483.6,138.0 L485.5,136.2 L487.4,134.6 L489.3,133.0 L491.2,131.4 L493.2,129.9 L495.1,128.5
		L497.0,127.1 L498.9,125.8 L500.8,124.5 L502.8,123.3 L504.7,122.1 L506.6,121.0 L508.5,119.8 L510.4,118.8
		L512.4,117.7 L514.3,116.7 L516.2,115.7 L518.1,114.7 L520.0,113.8 L522.0,112.9 L523.9,112.0 L525.8,111.1
		L527.7,110.2 L529.6,109.4 L531.6,108.6 L533.5,107.8 L535.4,107.0 L537.3,106.2 L539.3,105.4 L541.2,104.7
		L543.1,103.9 L545.0,103.2 L546.9,102.5 L548.9,101.8 L550.8,101.1 L552.7,100.4 L554.6,99.7 L556.5,99.1
		L558.5,98.5 L560.4,97.8 L562.3,97.2 L564.2,96.7 L566.1,96.1 L568.1,95.6 L570.0,95.1 L571.9,94.6
		L573.8,94.2 L575.7,93.8 L577.7,93.4 L579.6,93.1 L581.5,92.9 L583.4,92.6 L585.3,92.5 L587.3,92.4
		L589.2,92.4 L591.1,92.4 L593.0,92.6 L594.9,92.8 L596.9,93.1 L598.8,93.5 L600.7,94.0 L602.6,94.6
		L604.5,95.4 L606.5,96.2 L608.4,97.2 L610.3,98.3 L612.2,99.5 L614.1,100.8 L616.1,102.2 L618.0,103.7
		L619.9,105.3 L621.8,107.0 L623.8,108.8 L625.7,110.7 L627.6,112.6 L629.5,114.7 L631.4,116.8 L633.4,118.9
		L635.3,121.1 L637.2,123.4 L639.1,125.7 L641.0,128.0 L643.0,130.4 L644.9,132.7 L646.8,135.1 L648.7,137.6
		L650.6,140.0 L652.6,142.5 L654.5,144.9 L656.4,147.4 L658.3,149.8 L660.2,152.3 L662.2,154.8 L664.1,157.2
		L666.0,159.7 L667.9,162.2 L669.8,164.6 L671.8,167.1 L673.7,169.6 L675.6,172.1 L677.5,174.6 L679.4,177.1
		L681.4,179.7 L683.3,182.3 L685.2,184.9 L687.1,187.5 L689.0,190.2 L691.0,192.9 L692.9,195.7 L694.8,198.6
		L696.7,201.5 L698.6,204.4 L700.6,207.4 L702.5,210.5 L704.4,213.7 L706.3,216.9 L708.2,220.1 L710.2,223.5
		L712.1,226.9 L714.0,230.3 L715.9,233.8 L717.9,237.3 L719.8,240.9 L721.7,244.5 L723.6,248.2 L725.5,251.9
		L727.5,255.6 L729.4,259.3 L731.3,263.1 L733.2,266.9 L735.1,270.7 L737.1,274.4 L739.0,278.2 L740.9,282.0
		L742.8,285.8 L744.7,289.6 L746.7,293.4 L748.6,297.2 L750.5,301.0 L752.4,304.7 L754.3,308.5 L756.3,312.2
		L758.2,315.9 L760.1,319.6 L762.0,323.3 L763.9,327.0 L765.9,330.6 L767.8,334.2 L769.7,337.8 L771.6,341.4
		L773.5,345.0 L775.5,348.5 L777.4,352.1 L779.3,355.6 L781.2,359.1 L783.1,362.5 L785.1,365.9 L787.0,369.4
		L788.9,372.8 L790.8,376.1 L792.7,379.5 L794.7,382.8 L796.6,386.1 L798.5,389.4 L800.4,392.6 L802.4,395.8
		L804.3,399.0 L806.2,402.2 L808.1,405.4 L810.0,408.5 L812.0,411.7 L813.9,414.8 L815.8,417.9 L817.7,421.0
		L819.6,424.1 L821.6,427.2 L823.5,430.4 L825.4,433.5 L827.3,436.6 L829.2,439.8 L831.2,442.9 L833.1,446.1
		L835.0,449.2 L836.9,452.4 L838.8,455.6 L840.8,458.7 L842.7,461.9 L844.6,465.0 L846.5,468.2 L848.4,471.3
		L850.4,474.4 L852.3,477.5 L854.2,480.5 L856.1,483.5 L858.0,486.5 L860.0,489.4 L861.9,492.3 L863.8,495.1
		L865.7,497.9 L867.6,500.7 L869.6,503.3 L871.5,505.9 L873.4,508.5 L875.3,511.0 L877.2,513.4 L879.2,515.8
		L881.1,518.2 L883.0,520.5 L884.9,522.7 L886.9,524.9 L888.8,527.1 L890.7,529.2 L892.6,531.3 L894.5,533.3
		L896.5,535.4 L898.4,537.4 L900.3,539.4 L902.2,541.4 L904.1,543.4 L906.1,545.4 L908.0,547.4 L909.9,549.3
		L911.8,551.3 L913.7,553.3 L915.7,555.4 L917.6,557.4 L919.5,559.4 L921.4,561.5 L923.3,563.5 L925.3,565.5
		L927.2,567.6 L929.1,569.6 L931.0,571.7 L932.9,573.7 L934.9,575.7 L936.8,577.7 L938.7,579.7 L940.6,581.6
		L942.5,583.5 L944.5,585.3 L946.4,587.2 L948.3,588.9 L950.2,590.6 L952.1,592.3 L954.1,593.9 L956.0,595.5
		L957.9,597.0 L959.8,598.5 L961.7,599.9 L963.7,601.3 L965.6,602.6 L967.5,603.9 L969.4,605.1 L971.4,606.3
		L973.3,607.5 L975.2,608.6 L977.1,609.7 L979.0,610.8 L981.0,611.8 L982.9,612.8 L984.8,613.8 L986.7,614.8
		L988.6,615.7 L990.6,616.7 L992.5,617.6 L994.4,618.5 L996.3,619.5 L998.2,620.4 L1000.2,621.3 L1002.1,622.1
		L1004.0,623.0 L1005.9,623.9 L1007.8,624.8 L1009.8,625.7 L1011.7,626.5 L1013.6,627.4  '/></g>
	</g>
	<g id="gnuplot_plot_2" ><title>Confidence interval</title>
<g fill="none" color="white" stroke="rgb( 31, 120, 180)" stroke-width="1.00" stroke-linecap="butt" stroke-linejoin="miter">
</g>
<g fill="none" color="black" stroke="currentColor" stroke-width="1.00" stroke-linecap="butt" stroke-linejoin="miter">
	<g transform="translate(1089.0,85.0)" stroke="none" fill="black" font-family="Helvetica" font-size="12.00"  text-anchor="start">
		<text><tspan font-family="Helvetica" >Confidence interval</tspan></text>
	</g>
</g>
<g fill="none" color="black" stroke="currentColor" stroke-width="1.00" stroke-linecap="butt" stroke-linejoin="miter">
	<g stroke='none' shape-rendering='crispEdges'>
		<polygon fill = 'rgb( 31, 120, 180)' fill-opacity = '0.250000' points = '1038.5,85.6 1080.7,85.6 1080.7,76.6 1038.5,76.6 '/>
		<polygon fill = 'rgb( 31, 120, 180)' fill-opacity = '0.250000' points = '143.6,583.4 145.6,582.1 147.5,580.7 149.4,579.4 151.3,578.0 153.2,576.6 155.2,575.2 157.1,573.8 159.0,572.4 160.9,571.0 162.8,569.6 164.8,568.2 166.7,566.7 168.6,565.3 170.5,563.9 172.4,562.4
174.4,561.0 176.3,559.5 178.2,558.0 180.1,556.5 182.0,555.0 184.0,553.5 185.9,551.9 187.8,550.3 189.7,548.7 191.7,547.1 193.6,545.4 195.5,543.7 197.4,541.9 199.3,540.1 201.3,538.3 203.2,536.4
205.1,534.5 207.0,532.5 208.9,530.5 210.9,528.4 212.8,526.3 214.7,524.1 216.6,521.9 218.5,519.6 220.5,517.3 222.4,515.0 224.3,512.6 226.2,510.2 228.1,507.8 230.1,505.3 232.0,502.8 233.9,500.2
235.8,497.7 237.7,495.1 239.7,492.5 241.6,489.9 243.5,487.3 245.4,484.6 247.3,482.0 249.3,479.3 251.2,476.7 253.1,474.0 255.0,471.4 256.9,468.8 258.9,466.1 260.8,463.5 262.7,460.8 264.6,458.2
266.5,455.6 268.5,453.0 270.4,450.4 272.3,447.8 274.2,445.2 276.2,442.6 278.1,440.0 280.0,437.4 281.9,434.8 283.8,432.2 285.8,429.7 287.7,427.1 289.6,424.5 291.5,421.9 293.4,419.3 295.4,416.7
297.3,414.1 299.2,411.5 301.1,409.0 303.0,406.4 305.0,403.7 306.9,401.1 308.8,398.5 310.7,395.9 312.6,393.2 314.6,390.5 316.5,387.8 318.4,385.1 320.3,382.4 322.2,379.6 324.2,376.8 326.1,373.9
328.0,371.1 329.9,368.2 331.8,365.2 333.8,362.2 335.7,359.2 337.6,356.1 339.5,353.0 341.4,349.9 343.4,346.7 345.3,343.5 347.2,340.3 349.1,337.1 351.0,333.8 353.0,330.5 354.9,327.2 356.8,323.8
358.7,320.4 360.7,317.0 362.6,313.6 364.5,310.2 366.4,306.7 368.3,303.3 370.3,299.8 372.2,296.3 374.1,292.8 376.0,289.3 377.9,285.8 379.9,282.3 381.8,278.8 383.7,275.4 385.6,272.0 387.5,268.6
389.5,265.2 391.4,261.9 393.3,258.6 395.2,255.4 397.1,252.2 399.1,249.1 401.0,246.0 402.9,243.0 404.8,240.0 406.7,237.1 408.7,234.2 410.6,231.4 412.5,228.6 414.4,225.8 416.3,223.1 418.3,220.4
420.2,217.8 422.1,215.2 424.0,212.6 425.9,210.0 427.9,207.4 429.8,204.9 431.7,202.3 433.6,199.8 435.5,197.2 437.5,194.7 439.4,192.1 441.3,189.5 443.2,187.0 445.1,184.4 447.1,181.8 449.0,179.2
450.9,176.6 452.8,174.1 454.8,171.5 456.7,168.9 458.6,166.4 460.5,163.9 462.4,161.5 464.4,159.0 466.3,156.6 468.2,154.3 470.1,152.0 472.0,149.8 474.0,147.7 475.9,145.6 477.8,143.6 479.7,141.6
481.6,139.8 483.6,138.0 485.5,136.2 487.4,134.6 489.3,133.0 491.2,131.4 493.2,129.9 495.1,128.5 497.0,127.1 498.9,125.8 500.8,124.5 502.8,123.3 504.7,122.1 506.6,121.0 508.5,119.8 510.4,118.8
512.4,117.7 514.3,116.7 516.2,115.7 518.1,114.7 520.0,113.8 522.0,112.9 523.9,112.0 525.8,111.1 527.7,110.2 529.6,109.4 531.6,108.6 533.5,107.8 535.4,107.0 537.3,106.2 539.3,105.4 541.2,104.7
543.1,103.9 545.0,103.2 546.9,102.5 548.9,101.8 550.8,101.1 552.7,100.4 554.6,99.7 556.5,99.1 558.5,98.5 560.4,97.8 562.3,97.2 564.2,96.7 566.1,96.1 568.1,95.6 570.0,95.1 571.9,94.6
573.8,94.2 575.7,93.8 577.7,93.4 579.6,93.1 581.5,92.9 583.4,92.6 585.3,92.5 587.3,92.4 589.2,92.4 591.1,92.4 593.0,92.6 594.9,92.8 596.9,93.1 598.8,93.5 600.7,94.0 602.6,94.6
604.5,95.4 606.5,96.2 608.4,97.2 610.3,98.3 612.2,99.5 614.1,100.8 616.1,102.2 618.0,103.7 619.9,105.3 621.8,107.0 623.8,108.8 625.7,110.7 627.6,112.6 629.5,114.7 631.4,116.8 633.4,118.9
635.3,121.1 637.2,123.4 639.1,125.7 641.0,128.0 643.0,130.4 644.9,132.7 646.8,135.1 648.7,137.6 650.6,140.0 652.6,142.5 654.5,144.9 656.4,147.4 658.3,149.8 660.2,152.3 662.2,154.8 664.1,157.2
666.0,159.7 667.9,162.2 669.8,164.6 671.8,167.1 673.7,169.6 675.6,172.1 677.5,174.6 679.4,177.1 681.4,179.7 683.3,182.3 685.2,184.9 687.1,187.5 689.0,190.2 691.0,192.9 692.9,195.7 694.8,198.6
696.7,201.5 698.6,204.4 700.6,207.4 702.5,210.5 704.4,213.7 706.3,216.9 708.2,220.1 710.2,223.5 712.1,226.9 714.0,230.3 715.9,233.8 717.9,237.3 719.8,240.9 721.7,244.5 723.6,248.2 725.5,251.9
727.5,255.6 729.4,259.3 731.3,263.1 733.2,266.9 735.1,270.7 737.1,274.4 739.0,278.2 740.9,282.0 742.8,285.8 744.7,289.6 746.7,293.4 748.6,297.2 750.5,301.0 752.4,304.7 754.3,308.5 756.3,312.2
758.2,315.9 760.1,319.6 762.0,323.3 763.9,327.0 765.9,330.6 767.8,334.2 769.7,337.8 771.6,341.4 773.5,345.0 775.5,348.5 777.4,352.1 779.3,355.6 781.2,359.1 783.1,362.5 785.1,365.9 787.0,369.4
788.9,372.8 790.8,376.1 792.7,379.5 794.7,382.8 796.6,386.1 798.5,389.4 800.4,392.6 802.4,395.8 804.3,399.0 806.2,402.2 808.1,405.4 810.0,408.5 812.0,411.7 813.9,414.8 815.8,417.9 817.7,421.0
819.6,424.1 821.6,427.2 823.5,430.4 825.4,433.5 827.3,436.6 829.2,439.8 831.2,442.9 833.1,446.1 835.0,449.2 836.9,452.4 838.8,455.6 840.8,458.7 842.7,461.9 844.6,465.0 846.5,468.2 848.4,471.3
850.4,474.4 852.3,477.5 854.2,480.5 856.1,483.5 858.0,486.5 860.0,489.4 861.9,492.3 863.8,495.1 865.7,497.9 867.6,500.7 869.6,503.3 871.5,505.9 873.4,508.5 875.3,511.0 877.2,513.4 879.2,515.8
881.1,518.2 883.0,520.5 884.9,522.7 886.9,524.9 888.8,527.1 890.7,529.2 892.6,531.3 894.5,533.3 896.5,535.4 898.4,537.4 900.3,539.4 902.2,541.4 904.1,543.4 906.1,545.4 908.0,547.4 909.9,549.3
911.8,551.3 913.7,553.3 915.7,555.4 917.6,557.4 919.5,559.4 921.4,561.5 923.3,563.5 923.3,662.4 921.4,662.4 919.5,662.4 917.6,662.4 915.7,662.4 913.7,662.4 911.8,662.4 909.9,662.4 908.0,662.4
906.1,662.4 904.1,662.4 902.2,662.4 900.3,662.4 898.4,662.4 896.5,662.4 894.5,662.4 892.6,662.4 890.7,662.4 888.8,662.4 886.9,662.4 884.9,662.4 883.0,662.4 881.1,662.4 879.2,662.4 877.2,662.4
875.3,662.4 873.4,662.4 871.5,662.4 869.6,662.4 867.6,662.4 865.7,662.4 863.8,662.4 861.9,662.4 860.0,662.4 858.0,662.4 856.1,662.4 854.2,662.4 852.3,662.4 850.4,662.4 848.4,662.4 846.5,662.4
844.6,662.4 842.7,662.4 840.8,662.4 838.8,662.4 836.9,662.4 835.0,662.4 833.1,662.4 831.2,662.4 829.2,662.4 827.3,662.4 825.4,662.4 823.5,662.4 821.6,662.4 819.6,662.4 817.7,662.4 815.8,662.4
813.9,662.4 812.0,662.4 810.0,662.4 808.1,662.4 806.2,662.4 804.3,662.4 802.4,662.4 800.4,662.4 798.5,662.4 796.6,662.4 794.7,662.4 792.7,662.4 790.8,662.4 788.9,662.4 787.0,662.4 785.1,662.4
783.1,662.4 781.2,662.4 779.3,662.4 777.4,662.4 775.5,662.4 773.5,662.4 771.6,662.4 769.7,662.4 767.8,662.4 765.9,662.4 763.9,662.4 762.0,662.4 760.1,662.4 758.2,662.4 756.3,662.4 754.3,662.4
752.4,662.4 750.5,662.4 748.6,662.4 746.7,662.4 744.7,662.4 742.8,662.4 740.9,662.4 739.0,662.4 737.1,662.4 735.1,662.4 733.2,662.4 731.3,662.4 729.4,662.4 727.5,662.4 725.5,662.4 723.6,662.4
721.7,662.4 719.8,662.4 717.9,662.4 715.9,662.4 714.0,662.4 712.1,662.4 710.2,662.4 708.2,662.4 706.3,662.4 704.4,662.4 702.5,662.4 700.6,662.4 698.6,662.4 696.7,662.4 694.8,662.4 692.9,662.4
691.0,662.4 689.0,662.4 687.1,662.4 685.2,662.4 683.3,662.4 681.4,662.4 679.4,662.4 677.5,662.4 675.6,662.4 673.7,662.4 671.8,662.4 669.8,662.4 667.9,662.4 666.0,662.4 664.1,662.4 662.2,662.4
660.2,662.4 658.3,662.4 656.4,662.4 654.5,662.4 652.6,662.4 650.6,662.4 648.7,662.4 646.8,662.4 644.9,662.4 643.0,662.4 641.0,662.4 639.1,662.4 637.2,662.4 635.3,662.4 633.4,662.4 631.4,662.4
629.5,662.4 627.6,662.4 625.7,662.4 623.8,662.4 621.8,662.4 619.9,662.4 618.0,662.4 616.1,662.4 614.1,662.4 612.2,662.4 610.3,662.4 608.4,662.4 606.5,662.4 604.5,662.4 602.6,662.4 600.7,662.4
598.8,662.4 596.9,662.4 594.9,662.4 593.0,662.4 591.1,662.4 589.2,662.4 587.3,662.4 585.3,662.4 583.4,662.4 581.5,662.4 579.6,662.4 577.7,662.4 575.7,662.4 573.8,662.4 571.9,662.4 570.0,662.4
568.1,662.4 566.1,662.4 564.2,662.4 562.3,662.4 560.4,662.4 558.5,662.4 556.5,662.4 554.6,662.4 552.7,662.4 550.8,662.4 548.9,662.4 546.9,662.4 545.0,662.4 543.1,662.4 541.2,662.4 539.3,662.4
537.3,662.4 535.4,662.4 533.5,662.4 531.6,662.4 529.6,662.4 527.7,662.4 525.8,662.4 523.9,662.4 522.0,662.4 520.0,662.4 518.1,662.4 516.2,662.4 514.3,662.4 512.4,662.4 510.4,662.4 508.5,662.4
506.6,662.4 504.7,662.4 502.8,662.4 500.8,662.4 498.9,662.4 497.0,662.4 495.1,662.4 493.2,662.4 491.2,662.4 489.3,662.4 487.4,662.4 485.5,662.4 483.6,662.4 481.6,662.4 479.7,662.4 477.8,662.4
475.9,662.4 474.0,662.4 472.0,662.4 470.1,662.4 468.2,662.4 466.3,662.4 464.4,662.4 462.4,662.4 460.5,662.4 458.6,662.4 456.7,662.4 454.8,662.4 452.8,662.4 450.9,662.4 449.0,662.4 447.1,662.4
445.1,662.4 443.2,662.4 441.3,662.4 439.4,662.4 437.5,662.4 435.5,662.4 433.6,662.4 431.7,662.4 429.8,662.4 427.9,662.4 425.9,662.4 424.0,662.4 422.1,662.4 420.2,662.4 418.3,662.4 416.3,662.4
414.4,662.4 412.5,662.4 410.6,662.4 408.7,662.4 406.7,662.4 404.8,662.4 402.9,662.4 401.0,662.4 399.1,662.4 397.1,662.4 395.2,662.4 393.3,662.4 391.4,662.4 389.5,662.4 387.5,662.4 385.6,662.4
383.7,662.4 381.8,662.4 379.9,662.4 377.9,662.4 376.0,662.4 374.1,662.4 372.2,662.4 370.3,662.4 368.3,662.4 366.4,662.4 364.5,662.4 362.6,662.4 360.7,662.4 358.7,662.4 356.8,662.4 354.9,662.4
353.0,662.4 351.0,662.4 349.1,662.4 347.2,662.4 345.3,662.4 343.4,662.4 341.4,662.4 339.5,662.4 337.6,662.4 335.7,662.4 333.8,662.4 331.8,662.4 329.9,662.4 328.0,662.4 326.1,662.4 324.2,662.4
322.2,662.4 320.3,662.4 318.4,662.4 316.5,662.4 314.6,662.4 312.6,662.4 310.7,662.4 308.8,662.4 306.9,662.4 305.0,662.4 303.0,662.4 301.1,662.4 299.2,662.4 297.3,662.4 295.4,662.4 293.4,662.4
291.5,662.4 289.6,662.4 287.7,662.4 285.8,662.4 283.8,662.4 281.9,662.4 280.0,662.4 278.1,662.4 276.2,662.4 274.2,662.4 272.3,662.4 270.4,662.4 268.5,662.4 266.5,662.4 264.6,662.4 262.7,662.4
260.8,662.4 258.9,662.4 256.9,662.4 255.0,662.4 253.1,662.4 251.2,662.4 249.3,662.4 247.3,662.4 245.4,662.4 243.5,662.4 241.6,662.4 239.7,662.4 237.7,662.4 235.8,662.4 233.9,662.4 232.0,662.4
230.1,662.4 228.1,662.4 226.2,662.4 224.3,662.4 222.4,662.4 220.5,662.4 218.5,662.4 216.6,662.4 214.7,662.4 212.8,662.4 210.9,662.4 208.9,662.4 207.0,662.4 205.1,662.4 203.2,662.4 201.3,662.4
199.3,662.4 197.4,662.4 195.5,662.4 193.6,662.4 191.7,662.4 189.7,662.4 187.8,662.4 185.9,662.4 184.0,662.4 182.0,662.4 180.1,662.4 178.2,662.4 176.3,662.4 174.4,662.4 172.4,662.4 170.5,662.4
168.6,662.4 166.7,662.4 164.8,662.4 162.8,662.4 160.9,662.4 159.0,662.4 157.1,662.4 155.2,662.4 153.2,662.4 151.3,662.4 149.4,662.4 147.5,662.4 145.6,662.4 143.6,662.4 '/>
	</g>
</g>
	</g>
	<g id="gnuplot_plot_3" ><title>Point estimate</title>
<g fill="none" color="white" stroke="rgb( 31, 120, 180)" stroke-width="2.00" stroke-linecap="butt" stroke-linejoin="miter">
</g>
<g fill="none" color="black" stroke="currentColor" stroke-width="2.00" stroke-linecap="butt" stroke-linejoin="miter">
	<g transform="translate(1089.0,103.0)" stroke="none" fill="black" font-family="Helvetica" font-size="12.00"  text-anchor="start">
		<text><tspan font-family="Helvetica" >Point estimate</tspan></text>
	</g>
</g>
<g fill="none" color="black" stroke="currentColor" stroke-width="2.00" stroke-linecap="butt" stroke-linejoin="miter">
	<path stroke='rgb( 31, 120, 180)'  d='M1038.5,99.1 L1080.7,99.1 M556.6,662.4 L556.6,99.1  '/></g>
	</g>
<g fill="none" color="black" stroke="currentColor" stroke-width="2.00" stroke-linecap="butt" stroke-linejoin="miter">
</g>
<g fill="none" color="black" stroke="black" stroke-width="1.00" stroke-linecap="butt" stroke-linejoin="miter">
</g>
<g fill="none" color="black" stroke="currentColor" stroke-width="1.00" stroke-linecap="butt" stroke-linejoin="miter">
	<path stroke='black'  d='M55.3,54.1 L55.3,662.4 L1013.6,662.4 L1013.6,54.1 L55.3,54.1 Z  '/></g>
<g fill="none" color="black" stroke="currentColor" stroke-width="1.00" stroke-linecap="butt" stroke-linejoin="miter">
</g>
</g>
</svg>

