<?xml version="1.0" encoding="utf-8"  standalone="no"?>
<svg 
 viewBox="0 0 1280 720"
 xmlns="http://www.w3.org/2000/svg"
 xmlns:xlink="http://www.w3.org/1999/xlink"
>

<title>Gnuplot</title>
<desc>Produced by GNUPLOT 5.2 patchlevel 6 </desc>

<g id="gnuplot_canvas">

<rect x="0" y="0" width="1280" height="720" fill="none"/>
<defs>

	<circle id='gpDot' r='0.5' stroke-width='0.5' stroke='currentColor'/>
	<path id='gpPt0' stroke-width='0.222' stroke='currentColor' d='M-1,0 h2 M0,-1 v2'/>
	<path id='gpPt1' stroke-width='0.222' stroke='currentColor' d='M-1,-1 L1,1 M1,-1 L-1,1'/>
	<path id='gpPt2' stroke-width='0.222' stroke='currentColor' d='M-1,0 L1,0 M0,-1 L0,1 M-1,-1 L1,1 M-1,1 L1,-1'/>
	<rect id='gpPt3' stroke-width='0.222' stroke='currentColor' x='-1' y='-1' width='2' height='2'/>
	<rect id='gpPt4' stroke-width='0.222' stroke='currentColor' fill='currentColor' x='-1' y='-1' width='2' height='2'/>
	<circle id='gpPt5' stroke-width='0.222' stroke='currentColor' cx='0' cy='0' r='1'/>
	<use xlink:href='#gpPt5' id='gpPt6' fill='currentColor' stroke='none'/>
	<path id='gpPt7' stroke-width='0.222' stroke='currentColor' d='M0,-1.33 L-1.33,0.67 L1.33,0.67 z'/>
	<use xlink:href='#gpPt7' id='gpPt8' fill='currentColor' stroke='none'/>
	<use xlink:href='#gpPt7' id='gpPt9' stroke='currentColor' transform='rotate(180)'/>
	<use xlink:href='#gpPt9' id='gpPt10' fill='currentColor' stroke='none'/>
	<use xlink:href='#gpPt3' id='gpPt11' stroke='currentColor' transform='rotate(45)'/>
	<use xlink:href='#gpPt11' id='gpPt12' fill='currentColor' stroke='none'/>
	<path id='gpPt13' stroke-width='0.222' stroke='currentColor' d='M0,1.330 L1.265,0.411 L0.782,-1.067 L-0.782,-1.076 L-1.265,0.411 z'/>
	<use xlink:href='#gpPt13' id='gpPt14' fill='currentColor' stroke='none'/>
	<filter id='textbox' filterUnits='objectBoundingBox' x='0' y='0' height='1' width='1'>
	  <feFlood flood-color='white' flood-opacity='1' result='bgnd'/>
	  <feComposite in='SourceGraphic' in2='bgnd' operator='atop'/>
	</filter>
	<filter id='greybox' filterUnits='objectBoundingBox' x='0' y='0' height='1' width='1'>
	  <feFlood flood-color='lightgrey' flood-opacity='1' result='grey'/>
	  <feComposite in='SourceGraphic' in2='grey' operator='atop'/>
	</filter>
</defs>
<g fill="none" color="white" stroke="currentColor" stroke-width="1.00" stroke-linecap="butt" stroke-linejoin="miter">
</g>
<g fill="none" color="black" stroke="currentColor" stroke-width="1.00" stroke-linecap="butt" stroke-linejoin="miter">
	<path stroke='black'  d='M63.6,662.4 L72.6,662.4  '/>	<g transform="translate(55.3,666.3)" stroke="none" fill="black" font-family="Helvetica" font-size="12.00"  text-anchor="end">
		<text><tspan font-family="Helvetica" > 0</tspan></text>
	</g>
</g>
<g fill="none" color="black" stroke="currentColor" stroke-width="1.00" stroke-linecap="butt" stroke-linejoin="miter">
	<path stroke='black'  d='M63.6,561.0 L72.6,561.0  '/>	<g transform="translate(55.3,564.9)" stroke="none" fill="black" font-family="Helvetica" font-size="12.00"  text-anchor="end">
		<text><tspan font-family="Helvetica" > 2</tspan></text>
	</g>
</g>
<g fill="none" color="black" stroke="currentColor" stroke-width="1.00" stroke-linecap="butt" stroke-linejoin="miter">
	<path stroke='black'  d='M63.6,459.6 L72.6,459.6  '/>	<g transform="translate(55.3,463.5)" stroke="none" fill="black" font-family="Helvetica" font-size="12.00"  text-anchor="end">
		<text><tspan font-family="Helvetica" > 4</tspan></text>
	</g>
</g>
<g fill="none" color="black" stroke="currentColor" stroke-width="1.00" stroke-linecap="butt" stroke-linejoin="miter">
	<path stroke='black'  d='M63.6,358.2 L72.6,358.2  '/>	<g transform="translate(55.3,362.1)" stroke="none" fill="black" font-family="Helvetica" font-size="12.00"  text-anchor="end">
		<text><tspan font-family="Helvetica" > 6</tspan></text>
	</g>
</g>
<g fill="none" color="black" stroke="currentColor" stroke-width="1.00" stroke-linecap="butt" stroke-linejoin="miter">
	<path stroke='black'  d='M63.6,256.9 L72.6,256.9  '/>	<g transform="translate(55.3,260.8)" stroke="none" fill="black" font-family="Helvetica" font-size="12.00"  text-anchor="end">
		<text><tspan font-family="Helvetica" > 8</tspan></text>
	</g>
</g>
<g fill="none" color="black" stroke="currentColor" stroke-width="1.00" stroke-linecap="butt" stroke-linejoin="miter">
	<path stroke='black'  d='M63.6,155.5 L72.6,155.5  '/>	<g transform="translate(55.3,159.4)" stroke="none" fill="black" font-family="Helvetica" font-size="12.00"  text-anchor="end">
		<text><tspan font-family="Helvetica" > 10</tspan></text>
	</g>
</g>
<g fill="none" color="black" stroke="currentColor" stroke-width="1.00" stroke-linecap="butt" stroke-linejoin="miter">
	<path stroke='black'  d='M63.6,54.1 L72.6,54.1  '/>	<g transform="translate(55.3,58.0)" stroke="none" fill="black" font-family="Helvetica" font-size="12.00"  text-anchor="end">
		<text><tspan font-family="Helvetica" > 12</tspan></text>
	</g>
</g>
<g fill="none" color="black" stroke="currentColor" stroke-width="1.00" stroke-linecap="butt" stroke-linejoin="miter">
	<path stroke='black'  d='M131.6,662.4 L131.6,653.4  '/>	<g transform="translate(131.6,684.3)" stroke="none" fill="black" font-family="Helvetica" font-size="12.00"  text-anchor="middle">
		<text><tspan font-family="Helvetica" >-36</tspan></text>
	</g>
</g>
<g fill="none" color="black" stroke="currentColor" stroke-width="1.00" stroke-linecap="butt" stroke-linejoin="miter">
	<path stroke='black'  d='M253.0,662.4 L253.0,653.4  '/>	<g transform="translate(253.0,684.3)" stroke="none" fill="black" font-family="Helvetica" font-size="12.00"  text-anchor="middle">
		<text><tspan font-family="Helvetica" >-34</tspan></text>
	</g>
</g>
<g fill="none" color="black" stroke="currentColor" stroke-width="1.00" stroke-linecap="butt" stroke-linejoin="miter">
	<path stroke='black'  d='M374.5,662.4 L374.5,653.4  '/>	<g transform="translate(374.5,684.3)" stroke="none" fill="black" font-family="Helvetica" font-size="12.00"  text-anchor="middle">
		<text><tspan font-family="Helvetica" >-32</tspan></text>
	</g>
</g>
<g fill="none" color="black" stroke="currentColor" stroke-width="1.00" stroke-linecap="butt" stroke-linejoin="miter">
	<path stroke='black'  d='M496.0,662.4 L496.0,653.4  '/>	<g transform="translate(496.0,684.3)" stroke="none" fill="black" font-family="Helvetica" font-size="12.00"  text-anchor="middle">
		<text><tspan font-family="Helvetica" >-30</tspan></text>
	</g>
</g>
<g fill="none" color="black" stroke="currentColor" stroke-width="1.00" stroke-linecap="butt" stroke-linejoin="miter">
	<path stroke='black'  d='M617.4,662.4 L617.4,653.4  '/>	<g transform="translate(617.4,684.3)" stroke="none" fill="black" font-family="Helvetica" font-size="12.00"  text-anchor="middle">
		<text><tspan font-family="Helvetica" >-28</tspan></text>
	</g>
</g>
<g fill="none" color="black" stroke="currentColor" stroke-width="1.00" stroke-linecap="butt" stroke-linejoin="miter">
	<path stroke='black'  d='M738.9,662.4 L738.9,653.4  '/>	<g transform="translate(738.9,684.3)" stroke="none" fill="black" font-family="Helvetica" font-size="12.00"  text-anchor="middle">
		<text><tspan font-family="Helvetica" >-26</tspan></text>
	</g>
</g>
<g fill="none" color="black" stroke="currentColor" stroke-width="1.00" stroke-linecap="butt" stroke-linejoin="miter">
	<path stroke='black'  d='M860.4,662.4 L860.4,653.4  '/>	<g transform="translate(860.4,684.3)" stroke="none" fill="black" font-family="Helvetica" font-size="12.00"  text-anchor="middle">
		<text><tspan font-family="Helvetica" >-24</tspan></text>
	</g>
</g>
<g fill="none" color="black" stroke="currentColor" stroke-width="1.00" stroke-linecap="butt" stroke-linejoin="miter">
	<path stroke='black'  d='M981.8,662.4 L981.8,653.4  '/>	<g transform="translate(981.8,684.3)" stroke="none" fill="black" font-family="Helvetica" font-size="12.00"  text-anchor="middle">
		<text><tspan font-family="Helvetica" >-22</tspan></text>
	</g>
</g>
<g fill="none" color="black" stroke="currentColor" stroke-width="1.00" stroke-linecap="butt" stroke-linejoin="miter">
</g>
<g fill="none" color="black" stroke="currentColor" stroke-width="1.00" stroke-linecap="butt" stroke-linejoin="miter">
	<path stroke='black'  d='M63.6,54.1 L63.6,662.4 L1013.6,662.4 L1013.6,54.1 L63.6,54.1 Z  '/></g>
<g fill="none" color="black" stroke="currentColor" stroke-width="1.00" stroke-linecap="butt" stroke-linejoin="miter">
	<g transform="translate(16.3,358.3) rotate(270)" stroke="none" fill="black" font-family="Helvetica" font-size="12.00"  text-anchor="middle">
		<text><tspan font-family="Helvetica" >Density (a.u.)</tspan></text>
	</g>
</g>
<g fill="none" color="black" stroke="currentColor" stroke-width="1.00" stroke-linecap="butt" stroke-linejoin="miter">
	<g transform="translate(538.6,711.3)" stroke="none" fill="black" font-family="Helvetica" font-size="12.00"  text-anchor="middle">
		<text><tspan font-family="Helvetica" >Relative change (%)</tspan></text>
	</g>
</g>
<g fill="none" color="black" stroke="currentColor" stroke-width="1.00" stroke-linecap="butt" stroke-linejoin="miter">
	<g transform="translate(538.6,31.0)" stroke="none" fill="black" font-family="Helvetica" font-size="12.00"  text-anchor="middle">
		<text><tspan font-family="Helvetica" >set_bench/sled: mean</tspan></text>
	</g>
</g>
	<g id="gnuplot_plot_1" ><title>Bootstrap distribution</title>
<g fill="none" color="white" stroke="black" stroke-width="2.00" stroke-linecap="butt" stroke-linejoin="miter">
</g>
<g fill="none" color="black" stroke="currentColor" stroke-width="2.00" stroke-linecap="butt" stroke-linejoin="miter">
	<g transform="translate(1089.0,67.0)" stroke="none" fill="black" font-family="Helvetica" font-size="12.00"  text-anchor="start">
		<text><tspan font-family="Helvetica" >Bootstrap distribution</tspan></text>
	</g>
</g>
<g fill="none" color="black" stroke="currentColor" stroke-width="2.00" stroke-linecap="butt" stroke-linejoin="miter">
	<path stroke='rgb( 31, 120, 180)'  d='M1038.5,63.1 L1080.7,63.1 M63.6,627.7 L65.5,627.3 L67.4,626.9 L69.3,626.5 L71.2,626.0 L73.1,625.6
		L75.0,625.1 L76.9,624.7 L78.8,624.2 L80.7,623.7 L82.6,623.1 L84.5,622.6 L86.4,622.0 L88.3,621.4
		L90.3,620.8 L92.2,620.1 L94.1,619.4 L96.0,618.7 L97.9,618.0 L99.8,617.2 L101.7,616.4 L103.6,615.6
		L105.5,614.7 L107.4,613.8 L109.3,612.9 L111.2,611.9 L113.1,611.0 L115.0,610.0 L116.9,609.0 L118.8,607.9
		L120.7,606.9 L122.6,605.8 L124.5,604.7 L126.4,603.6 L128.3,602.4 L130.2,601.3 L132.1,600.1 L134.0,598.9
		L135.9,597.7 L137.8,596.5 L139.8,595.3 L141.7,594.0 L143.6,592.8 L145.5,591.5 L147.4,590.2 L149.3,588.9
		L151.2,587.5 L153.1,586.2 L155.0,584.8 L156.9,583.4 L158.8,582.0 L160.7,580.6 L162.6,579.2 L164.5,577.8
		L166.4,576.3 L168.3,574.9 L170.2,573.4 L172.1,571.9 L174.0,570.4 L175.9,568.9 L177.8,567.4 L179.7,565.9
		L181.6,564.4 L183.5,562.9 L185.4,561.4 L187.3,559.9 L189.3,558.4 L191.2,556.9 L193.1,555.4 L195.0,553.9
		L196.9,552.5 L198.8,551.1 L200.7,549.7 L202.6,548.3 L204.5,547.0 L206.4,545.6 L208.3,544.4 L210.2,543.2
		L212.1,542.0 L214.0,540.8 L215.9,539.8 L217.8,538.7 L219.7,537.7 L221.6,536.7 L223.5,535.8 L225.4,534.9
		L227.3,534.0 L229.2,533.2 L231.1,532.4 L233.0,531.6 L234.9,530.8 L236.8,530.0 L238.8,529.1 L240.7,528.3
		L242.6,527.5 L244.5,526.6 L246.4,525.7 L248.3,524.8 L250.2,523.8 L252.1,522.8 L254.0,521.7 L255.9,520.6
		L257.8,519.4 L259.7,518.1 L261.6,516.8 L263.5,515.5 L265.4,514.0 L267.3,512.5 L269.2,511.0 L271.1,509.4
		L273.0,507.7 L274.9,505.9 L276.8,504.1 L278.7,502.1 L280.6,500.2 L282.5,498.1 L284.4,496.0 L286.3,493.7
		L288.2,491.5 L290.2,489.1 L292.1,486.6 L294.0,484.1 L295.9,481.5 L297.8,478.8 L299.7,476.1 L301.6,473.2
		L303.5,470.3 L305.4,467.4 L307.3,464.3 L309.2,461.3 L311.1,458.1 L313.0,455.0 L314.9,451.8 L316.8,448.5
		L318.7,445.2 L320.6,441.9 L322.5,438.6 L324.4,435.3 L326.3,431.9 L328.2,428.6 L330.1,425.3 L332.0,421.9
		L333.9,418.6 L335.8,415.3 L337.7,412.0 L339.7,408.7 L341.6,405.5 L343.5,402.3 L345.4,399.1 L347.3,395.9
		L349.2,392.7 L351.1,389.6 L353.0,386.6 L354.9,383.5 L356.8,380.5 L358.7,377.6 L360.6,374.7 L362.5,371.8
		L364.4,369.0 L366.3,366.2 L368.2,363.4 L370.1,360.8 L372.0,358.1 L373.9,355.5 L375.8,353.0 L377.7,350.6
		L379.6,348.2 L381.5,345.8 L383.4,343.6 L385.3,341.4 L387.2,339.3 L389.2,337.3 L391.1,335.4 L393.0,333.6
		L394.9,331.9 L396.8,330.3 L398.7,328.8 L400.6,327.5 L402.5,326.3 L404.4,325.1 L406.3,324.1 L408.2,323.3
		L410.1,322.5 L412.0,321.9 L413.9,321.3 L415.8,320.8 L417.7,320.5 L419.6,320.2 L421.5,319.9 L423.4,319.7
		L425.3,319.6 L427.2,319.4 L429.1,319.2 L431.0,319.0 L432.9,318.8 L434.8,318.5 L436.7,318.1 L438.7,317.6
		L440.6,317.0 L442.5,316.3 L444.4,315.5 L446.3,314.5 L448.2,313.3 L450.1,312.0 L452.0,310.6 L453.9,309.0
		L455.8,307.2 L457.7,305.2 L459.6,303.1 L461.5,300.8 L463.4,298.4 L465.3,295.8 L467.2,293.1 L469.1,290.3
		L471.0,287.3 L472.9,284.2 L474.8,281.0 L476.7,277.7 L478.6,274.3 L480.5,270.8 L482.4,267.2 L484.3,263.5
		L486.2,259.8 L488.1,255.9 L490.1,252.0 L492.0,247.9 L493.9,243.8 L495.8,239.6 L497.7,235.4 L499.6,231.0
		L501.5,226.6 L503.4,222.0 L505.3,217.4 L507.2,212.7 L509.1,207.9 L511.0,203.1 L512.9,198.2 L514.8,193.2
		L516.7,188.2 L518.6,183.1 L520.5,178.0 L522.4,172.9 L524.3,167.7 L526.2,162.6 L528.1,157.5 L530.0,152.4
		L531.9,147.3 L533.8,142.4 L535.7,137.5 L537.6,132.7 L539.6,128.1 L541.5,123.5 L543.4,119.1 L545.3,114.9
		L547.2,110.8 L549.1,106.9 L551.0,103.2 L552.9,99.7 L554.8,96.3 L556.7,93.1 L558.6,90.1 L560.5,87.3
		L562.4,84.7 L564.3,82.2 L566.2,79.8 L568.1,77.7 L570.0,75.6 L571.9,73.7 L573.8,72.0 L575.7,70.4
		L577.6,68.9 L579.5,67.5 L581.4,66.3 L583.3,65.3 L585.2,64.3 L587.1,63.5 L589.1,62.9 L591.0,62.4
		L592.9,62.1 L594.8,61.9 L596.7,61.9 L598.6,62.1 L600.5,62.5 L602.4,63.0 L604.3,63.8 L606.2,64.7
		L608.1,65.8 L610.0,67.1 L611.9,68.6 L613.8,70.3 L615.7,72.1 L617.6,74.1 L619.5,76.3 L621.4,78.6
		L623.3,81.1 L625.2,83.7 L627.1,86.4 L629.0,89.2 L630.9,92.2 L632.8,95.2 L634.7,98.3 L636.6,101.5
		L638.5,104.8 L640.5,108.1 L642.4,111.4 L644.3,114.8 L646.2,118.1 L648.1,121.5 L650.0,124.8 L651.9,128.1
		L653.8,131.3 L655.7,134.5 L657.6,137.6 L659.5,140.6 L661.4,143.5 L663.3,146.2 L665.2,148.9 L667.1,151.3
		L669.0,153.7 L670.9,155.8 L672.8,157.9 L674.7,159.7 L676.6,161.4 L678.5,162.9 L680.4,164.2 L682.3,165.3
		L684.2,166.3 L686.1,167.2 L688.0,167.8 L690.0,168.3 L691.9,168.7 L693.8,168.9 L695.7,169.0 L697.6,168.9
		L699.5,168.7 L701.4,168.4 L703.3,167.9 L705.2,167.3 L707.1,166.6 L709.0,165.8 L710.9,164.9 L712.8,163.9
		L714.7,162.8 L716.6,161.5 L718.5,160.2 L720.4,158.8 L722.3,157.3 L724.2,155.7 L726.1,154.0 L728.0,152.3
		L729.9,150.5 L731.8,148.7 L733.7,146.8 L735.6,144.9 L737.5,143.0 L739.5,141.0 L741.4,139.1 L743.3,137.1
		L745.2,135.2 L747.1,133.2 L749.0,131.3 L750.9,129.5 L752.8,127.7 L754.7,125.9 L756.6,124.2 L758.5,122.6
		L760.4,121.0 L762.3,119.5 L764.2,118.1 L766.1,116.9 L768.0,115.7 L769.9,114.6 L771.8,113.7 L773.7,112.8
		L775.6,112.1 L777.5,111.6 L779.4,111.2 L781.3,111.0 L783.2,110.9 L785.1,111.0 L787.0,111.3 L789.0,111.7
		L790.9,112.3 L792.8,113.1 L794.7,114.1 L796.6,115.2 L798.5,116.6 L800.4,118.1 L802.3,119.8 L804.2,121.7
		L806.1,123.7 L808.0,125.9 L809.9,128.3 L811.8,130.9 L813.7,133.7 L815.6,136.6 L817.5,139.7 L819.4,143.0
		L821.3,146.5 L823.2,150.2 L825.1,154.0 L827.0,158.0 L828.9,162.2 L830.8,166.6 L832.7,171.2 L834.6,175.9
		L836.5,180.8 L838.4,185.9 L840.4,191.2 L842.3,196.6 L844.2,202.2 L846.1,208.0 L848.0,213.9 L849.9,219.9
		L851.8,226.1 L853.7,232.4 L855.6,238.9 L857.5,245.4 L859.4,252.1 L861.3,258.9 L863.2,265.8 L865.1,272.7
		L867.0,279.8 L868.9,286.9 L870.8,294.0 L872.7,301.2 L874.6,308.5 L876.5,315.7 L878.4,323.0 L880.3,330.3
		L882.2,337.6 L884.1,344.8 L886.0,352.1 L887.9,359.3 L889.9,366.4 L891.8,373.5 L893.7,380.6 L895.6,387.5
		L897.5,394.4 L899.4,401.2 L901.3,408.0 L903.2,414.6 L905.1,421.1 L907.0,427.6 L908.9,433.9 L910.8,440.1
		L912.7,446.3 L914.6,452.3 L916.5,458.2 L918.4,464.1 L920.3,469.8 L922.2,475.4 L924.1,481.0 L926.0,486.4
		L927.9,491.8 L929.8,497.1 L931.7,502.3 L933.6,507.4 L935.5,512.4 L937.4,517.3 L939.4,522.2 L941.3,526.9
		L943.2,531.6 L945.1,536.2 L947.0,540.7 L948.9,545.1 L950.8,549.3 L952.7,553.5 L954.6,557.6 L956.5,561.6
		L958.4,565.5 L960.3,569.2 L962.2,572.9 L964.1,576.4 L966.0,579.8 L967.9,583.1 L969.8,586.2 L971.7,589.3
		L973.6,592.2 L975.5,595.0 L977.4,597.7 L979.3,600.3 L981.2,602.8 L983.1,605.2 L985.0,607.5 L986.9,609.7
		L988.9,611.8 L990.8,613.8 L992.7,615.8 L994.6,617.6 L996.5,619.4 L998.4,621.1 L1000.3,622.8 L1002.2,624.4
		L1004.1,625.9 L1006.0,627.4 L1007.9,628.9 L1009.8,630.3 L1011.7,631.6 L1013.6,633.0  '/></g>
	</g>
	<g id="gnuplot_plot_2" ><title>Confidence interval</title>
<g fill="none" color="white" stroke="rgb( 31, 120, 180)" stroke-width="1.00" stroke-linecap="butt" stroke-linejoin="miter">
</g>
<g fill="none" color="black" stroke="currentColor" stroke-width="1.00" stroke-linecap="butt" stroke-linejoin="miter">
	<g transform="translate(1089.0,85.0)" stroke="none" fill="black" font-family="Helvetica" font-size="12.00"  text-anchor="start">
		<text><tspan font-family="Helvetica" >Confidence interval</tspan></text>
	</g>
</g>
<g fill="none" color="black" stroke="currentColor" stroke-width="1.00" stroke-linecap="butt" stroke-linejoin="miter">
	<g stroke='none' shape-rendering='crispEdges'>
		<polygon fill = 'rgb( 31, 120, 180)' fill-opacity = '0.250000' points = '1038.5,85.6 1080.7,85.6 1080.7,76.6 1038.5,76.6 '/>
		<polygon fill = 'rgb( 31, 120, 180)' fill-opacity = '0.250000' points = '151.2,587.5 153.1,586.2 155.0,584.8 156.9,583.4 158.8,582.0 160.7,580.6 162.6,579.2 164.5,577.8 166.4,576.3 168.3,574.9 170.2,573.4 172.1,571.9 174.0,570.4 175.9,568.9 177.8,567.4 179.7,565.9
181.6,564.4 183.5,562.9 185.4,561.4 187.3,559.9 189.3,558.4 191.2,556.9 193.1,555.4 195.0,553.9 196.9,552.5 198.8,551.1 200.7,549.7 202.6,548.3 204.5,547.0 206.4,545.6 208.3,544.4 210.2,543.2
212.1,542.0 214.0,540.8 215.9,539.8 217.8,538.7 219.7,537.7 221.6,536.7 223.5,535.8 225.4,534.9 227.3,534.0 229.2,533.2 231.1,532.4 233.0,531.6 234.9,530.8 236.8,530.0 238.8,529.1 240.7,528.3
242.6,527.5 244.5,526.6 246.4,525.7 248.3,524.8 250.2,523.8 252.1,522.8 254.0,521.7 255.9,520.6 257.8,519.4 259.7,518.1 261.6,516.8 263.5,515.5 265.4,514.0 267.3,512.5 269.2,511.0 271.1,509.4
273.0,507.7 274.9,505.9 276.8,504.1 278.7,502.1 280.6,500.2 282.5,498.1 284.4,496.0 286.3,493.7 288.2,491.5 290.2,489.1 292.1,486.6 294.0,484.1 295.9,481.5 297.8,478.8 299.7,476.1 301.6,473.2
303.5,470.3 305.4,467.4 307.3,464.3 309.2,461.3 311.1,458.1 313.0,455.0 314.9,451.8 316.8,448.5 318.7,445.2 320.6,441.9 322.5,438.6 324.4,435.3 326.3,431.9 328.2,428.6 330.1,425.3 332.0,421.9
333.9,418.6 335.8,415.3 337.7,412.0 339.7,408.7 341.6,405.5 343.5,402.3 345.4,399.1 347.3,395.9 349.2,392.7 351.1,389.6 353.0,386.6 354.9,383.5 356.8,380.5 358.7,377.6 360.6,374.7 362.5,371.8
364.4,369.0 366.3,366.2 368.2,363.4 370.1,360.8 372.0,358.1 373.9,355.5 375.8,353.0 377.7,350.6 379.6,348.2 381.5,345.8 383.4,343.6 385.3,341.4 387.2,339.3 389.2,337.3 391.1,335.4 393.0,333.6
394.9,331.9 396.8,330.3 398.7,328.8 400.6,327.5 402.5,326.3 404.4,325.1 406.3,324.1 408.2,323.3 410.1,322.5 412.0,321.9 413.9,321.3 415.8,320.8 417.7,320.5 419.6,320.2 421.5,319.9 423.4,319.7
425.3,319.6 427.2,319.4 429.1,319.2 431.0,319.0 432.9,318.8 434.8,318.5 436.7,318.1 438.7,317.6 440.6,317.0 442.5,316.3 444.4,315.5 446.3,314.5 448.2,313.3 450.1,312.0 452.0,310.6 453.9,309.0
455.8,307.2 457.7,305.2 459.6,303.1 461.5,300.8 463.4,298.4 465.3,295.8 467.2,293.1 469.1,290.3 471.0,287.3 472.9,284.2 474.8,281.0 476.7,277.7 478.6,274.3 480.5,270.8 482.4,267.2 484.3,263.5
486.2,259.8 488.1,255.9 490.1,252.0 492.0,247.9 493.9,243.8 495.8,239.6 497.7,235.4 499.6,231.0 501.5,226.6 503.4,222.0 505.3,217.4 507.2,212.7 509.1,207.9 511.0,203.1 512.9,198.2 514.8,193.2
516.7,188.2 518.6,183.1 520.5,178.0 522.4,172.9 524.3,167.7 526.2,162.6 528.1,157.5 530.0,152.4 531.9,147.3 533.8,142.4 535.7,137.5 537.6,132.7 539.6,128.1 541.5,123.5 543.4,119.1 545.3,114.9
547.2,110.8 549.1,106.9 551.0,103.2 552.9,99.7 554.8,96.3 556.7,93.1 558.6,90.1 560.5,87.3 562.4,84.7 564.3,82.2 566.2,79.8 568.1,77.7 570.0,75.6 571.9,73.7 573.8,72.0 575.7,70.4
577.6,68.9 579.5,67.5 581.4,66.3 583.3,65.3 585.2,64.3 587.1,63.5 589.1,62.9 591.0,62.4 592.9,62.1 594.8,61.9 596.7,61.9 598.6,62.1 600.5,62.5 602.4,63.0 604.3,63.8 606.2,64.7
608.1,65.8 610.0,67.1 611.9,68.6 613.8,70.3 615.7,72.1 617.6,74.1 619.5,76.3 621.4,78.6 623.3,81.1 625.2,83.7 627.1,86.4 629.0,89.2 630.9,92.2 632.8,95.2 634.7,98.3 636.6,101.5
638.5,104.8 640.5,108.1 642.4,111.4 644.3,114.8 646.2,118.1 648.1,121.5 650.0,124.8 651.9,128.1 653.8,131.3 655.7,134.5 657.6,137.6 659.5,140.6 661.4,143.5 663.3,146.2 665.2,148.9 667.1,151.3
669.0,153.7 670.9,155.8 672.8,157.9 674.7,159.7 676.6,161.4 678.5,162.9 680.4,164.2 682.3,165.3 684.2,166.3 686.1,167.2 688.0,167.8 690.0,168.3 691.9,168.7 693.8,168.9 695.7,169.0 697.6,168.9
699.5,168.7 701.4,168.4 703.3,167.9 705.2,167.3 707.1,166.6 709.0,165.8 710.9,164.9 712.8,163.9 714.7,162.8 716.6,161.5 718.5,160.2 720.4,158.8 722.3,157.3 724.2,155.7 726.1,154.0 728.0,152.3
729.9,150.5 731.8,148.7 733.7,146.8 735.6,144.9 737.5,143.0 739.5,141.0 741.4,139.1 743.3,137.1 745.2,135.2 747.1,133.2 749.0,131.3 750.9,129.5 752.8,127.7 754.7,125.9 756.6,124.2 758.5,122.6
760.4,121.0 762.3,119.5 764.2,118.1 766.1,116.9 768.0,115.7 769.9,114.6 771.8,113.7 773.7,112.8 775.6,112.1 777.5,111.6 779.4,111.2 781.3,111.0 783.2,110.9 785.1,111.0 787.0,111.3 789.0,111.7
790.9,112.3 792.8,113.1 794.7,114.1 796.6,115.2 798.5,116.6 800.4,118.1 802.3,119.8 804.2,121.7 806.1,123.7 808.0,125.9 809.9,128.3 811.8,130.9 813.7,133.7 815.6,136.6 817.5,139.7 819.4,143.0
821.3,146.5 823.2,150.2 825.1,154.0 827.0,158.0 828.9,162.2 830.8,166.6 832.7,171.2 834.6,175.9 836.5,180.8 838.4,185.9 840.4,191.2 842.3,196.6 844.2,202.2 846.1,208.0 848.0,213.9 849.9,219.9
851.8,226.1 853.7,232.4 855.6,238.9 857.5,245.4 859.4,252.1 861.3,258.9 863.2,265.8 865.1,272.7 867.0,279.8 868.9,286.9 870.8,294.0 872.7,301.2 874.6,308.5 876.5,315.7 878.4,323.0 880.3,330.3
882.2,337.6 884.1,344.8 886.0,352.1 887.9,359.3 889.9,366.4 891.8,373.5 893.7,380.6 895.6,387.5 897.5,394.4 899.4,401.2 901.3,408.0 903.2,414.6 905.1,421.1 907.0,427.6 908.9,433.9 910.8,440.1
912.7,446.3 914.6,452.3 916.5,458.2 918.4,464.1 920.3,469.8 922.2,475.4 924.1,481.0 924.1,662.4 922.2,662.4 920.3,662.4 918.4,662.4 916.5,662.4 914.6,662.4 912.7,662.4 910.8,662.4 908.9,662.4
907.0,662.4 905.1,662.4 903.2,662.4 901.3,662.4 899.4,662.4 897.5,662.4 895.6,662.4 893.7,662.4 891.8,662.4 889.9,662.4 887.9,662.4 886.0,662.4 884.1,662.4 882.2,662.4 880.3,662.4 878.4,662.4
876.5,662.4 874.6,662.4 872.7,662.4 870.8,662.4 868.9,662.4 867.0,662.4 865.1,662.4 863.2,662.4 861.3,662.4 859.4,662.4 857.5,662.4 855.6,662.4 853.7,662.4 851.8,662.4 849.9,662.4 848.0,662.4
846.1,662.4 844.2,662.4 842.3,662.4 840.4,662.4 838.4,662.4 836.5,662.4 834.6,662.4 832.7,662.4 830.8,662.4 828.9,662.4 827.0,662.4 825.1,662.4 823.2,662.4 821.3,662.4 819.4,662.4 817.5,662.4
815.6,662.4 813.7,662.4 811.8,662.4 809.9,662.4 808.0,662.4 806.1,662.4 804.2,662.4 802.3,662.4 800.4,662.4 798.5,662.4 796.6,662.4 794.7,662.4 792.8,662.4 790.9,662.4 789.0,662.4 787.0,662.4
785.1,662.4 783.2,662.4 781.3,662.4 779.4,662.4 777.5,662.4 775.6,662.4 773.7,662.4 771.8,662.4 769.9,662.4 768.0,662.4 766.1,662.4 764.2,662.4 762.3,662.4 760.4,662.4 758.5,662.4 756.6,662.4
754.7,662.4 752.8,662.4 750.9,662.4 749.0,662.4 747.1,662.4 745.2,662.4 743.3,662.4 741.4,662.4 739.5,662.4 737.5,662.4 735.6,662.4 733.7,662.4 731.8,662.4 729.9,662.4 728.0,662.4 726.1,662.4
724.2,662.4 722.3,662.4 720.4,662.4 718.5,662.4 716.6,662.4 714.7,662.4 712.8,662.4 710.9,662.4 709.0,662.4 707.1,662.4 705.2,662.4 703.3,662.4 701.4,662.4 699.5,662.4 697.6,662.4 695.7,662.4
693.8,662.4 691.9,662.4 690.0,662.4 688.0,662.4 686.1,662.4 684.2,662.4 682.3,662.4 680.4,662.4 678.5,662.4 676.6,662.4 674.7,662.4 672.8,662.4 670.9,662.4 669.0,662.4 667.1,662.4 665.2,662.4
663.3,662.4 661.4,662.4 659.5,662.4 657.6,662.4 655.7,662.4 653.8,662.4 651.9,662.4 650.0,662.4 648.1,662.4 646.2,662.4 644.3,662.4 642.4,662.4 640.5,662.4 638.5,662.4 636.6,662.4 634.7,662.4
632.8,662.4 630.9,662.4 629.0,662.4 627.1,662.4 625.2,662.4 623.3,662.4 621.4,662.4 619.5,662.4 617.6,662.4 615.7,662.4 613.8,662.4 611.9,662.4 610.0,662.4 608.1,662.4 606.2,662.4 604.3,662.4
602.4,662.4 600.5,662.4 598.6,662.4 596.7,662.4 594.8,662.4 592.9,662.4 591.0,662.4 589.1,662.4 587.1,662.4 585.2,662.4 583.3,662.4 581.4,662.4 579.5,662.4 577.6,662.4 575.7,662.4 573.8,662.4
571.9,662.4 570.0,662.4 568.1,662.4 566.2,662.4 564.3,662.4 562.4,662.4 560.5,662.4 558.6,662.4 556.7,662.4 554.8,662.4 552.9,662.4 551.0,662.4 549.1,662.4 547.2,662.4 545.3,662.4 543.4,662.4
541.5,662.4 539.6,662.4 537.6,662.4 535.7,662.4 533.8,662.4 531.9,662.4 530.0,662.4 528.1,662.4 526.2,662.4 524.3,662.4 522.4,662.4 520.5,662.4 518.6,662.4 516.7,662.4 514.8,662.4 512.9,662.4
511.0,662.4 509.1,662.4 507.2,662.4 505.3,662.4 503.4,662.4 501.5,662.4 499.6,662.4 497.7,662.4 495.8,662.4 493.9,662.4 492.0,662.4 490.1,662.4 488.1,662.4 486.2,662.4 484.3,662.4 482.4,662.4
480.5,662.4 478.6,662.4 476.7,662.4 474.8,662.4 472.9,662.4 471.0,662.4 469.1,662.4 467.2,662.4 465.3,662.4 463.4,662.4 461.5,662.4 459.6,662.4 457.7,662.4 455.8,662.4 453.9,662.4 452.0,662.4
450.1,662.4 448.2,662.4 446.3,662.4 444.4,662.4 442.5,662.4 440.6,662.4 438.7,662.4 436.7,662.4 434.8,662.4 432.9,662.4 431.0,662.4 429.1,662.4 427.2,662.4 425.3,662.4 423.4,662.4 421.5,662.4
419.6,662.4 417.7,662.4 415.8,662.4 413.9,662.4 412.0,662.4 410.1,662.4 408.2,662.4 406.3,662.4 404.4,662.4 402.5,662.4 400.6,662.4 398.7,662.4 396.8,662.4 394.9,662.4 393.0,662.4 391.1,662.4
389.2,662.4 387.2,662.4 385.3,662.4 383.4,662.4 381.5,662.4 379.6,662.4 377.7,662.4 375.8,662.4 373.9,662.4 372.0,662.4 370.1,662.4 368.2,662.4 366.3,662.4 364.4,662.4 362.5,662.4 360.6,662.4
358.7,662.4 356.8,662.4 354.9,662.4 353.0,662.4 351.1,662.4 349.2,662.4 347.3,662.4 345.4,662.4 343.5,662.4 341.6,662.4 339.7,662.4 337.7,662.4 335.8,662.4 333.9,662.4 332.0,662.4 330.1,662.4
328.2,662.4 326.3,662.4 324.4,662.4 322.5,662.4 320.6,662.4 318.7,662.4 316.8,662.4 314.9,662.4 313.0,662.4 311.1,662.4 309.2,662.4 307.3,662.4 305.4,662.4 303.5,662.4 301.6,662.4 299.7,662.4
297.8,662.4 295.9,662.4 294.0,662.4 292.1,662.4 290.2,662.4 288.2,662.4 286.3,662.4 284.4,662.4 282.5,662.4 280.6,662.4 278.7,662.4 276.8,662.4 274.9,662.4 273.0,662.4 271.1,662.4 269.2,662.4
267.3,662.4 265.4,662.4 263.5,662.4 261.6,662.4 259.7,662.4 257.8,662.4 255.9,662.4 254.0,662.4 252.1,662.4 250.2,662.4 248.3,662.4 246.4,662.4 244.5,662.4 242.6,662.4 240.7,662.4 238.8,662.4
236.8,662.4 234.9,662.4 233.0,662.4 231.1,662.4 229.2,662.4 227.3,662.4 225.4,662.4 223.5,662.4 221.6,662.4 219.7,662.4 217.8,662.4 215.9,662.4 214.0,662.4 212.1,662.4 210.2,662.4 208.3,662.4
206.4,662.4 204.5,662.4 202.6,662.4 200.7,662.4 198.8,662.4 196.9,662.4 195.0,662.4 193.1,662.4 191.2,662.4 189.3,662.4 187.3,662.4 185.4,662.4 183.5,662.4 181.6,662.4 179.7,662.4 177.8,662.4
175.9,662.4 174.0,662.4 172.1,662.4 170.2,662.4 168.3,662.4 166.4,662.4 164.5,662.4 162.6,662.4 160.7,662.4 158.8,662.4 156.9,662.4 155.0,662.4 153.1,662.4 151.2,662.4 '/>
	</g>
</g>
	</g>
	<g id="gnuplot_plot_3" ><title>Point estimate</title>
<g fill="none" color="white" stroke="rgb( 31, 120, 180)" stroke-width="2.00" stroke-linecap="butt" stroke-linejoin="miter">
</g>
<g fill="none" color="black" stroke="currentColor" stroke-width="2.00" stroke-linecap="butt" stroke-linejoin="miter">
	<g transform="translate(1089.0,103.0)" stroke="none" fill="black" font-family="Helvetica" font-size="12.00"  text-anchor="start">
		<text><tspan font-family="Helvetica" >Point estimate</tspan></text>
	</g>
</g>
<g fill="none" color="black" stroke="currentColor" stroke-width="2.00" stroke-linecap="butt" stroke-linejoin="miter">
	<path stroke='rgb( 31, 120, 180)'  d='M1038.5,99.1 L1080.7,99.1 M593.0,662.4 L593.0,62.1  '/></g>
	</g>
	<g id="gnuplot_plot_4" ><title>Noise threshold</title>
<g fill="none" color="white" stroke="rgb( 31, 120, 180)" stroke-width="1.00" stroke-linecap="butt" stroke-linejoin="miter">
</g>
<g fill="none" color="black" stroke="currentColor" stroke-width="1.00" stroke-linecap="butt" stroke-linejoin="miter">
	<g transform="translate(1089.0,121.0)" stroke="none" fill="black" font-family="Helvetica" font-size="12.00"  text-anchor="start">
		<text><tspan font-family="Helvetica" >Noise threshold</tspan></text>
	</g>
</g>
<g fill="none" color="black" stroke="currentColor" stroke-width="1.00" stroke-linecap="butt" stroke-linejoin="miter">
	<g stroke='none' shape-rendering='crispEdges'>
		<polygon fill = 'rgb(227,  26,  28)' fill-opacity = '0.100000' points = '1038.5,121.6 1080.7,121.6 1080.7,112.6 1038.5,112.6 '/>
		<polygon fill = 'rgb(227,  26,  28)' fill-opacity = '0.100000' points = '538.6,54.1 538.6,54.1 538.6,662.4 538.6,662.4 '/>
	</g>
</g>
	</g>
<g fill="none" color="white" stroke="rgb(227,  26,  28)" stroke-width="2.00" stroke-linecap="butt" stroke-linejoin="miter">
</g>
<g fill="none" color="black" stroke="currentColor" stroke-width="2.00" stroke-linecap="butt" stroke-linejoin="miter">
</g>
<g fill="none" color="black" stroke="black" stroke-width="1.00" stroke-linecap="butt" stroke-linejoin="miter">
</g>
<g fill="none" color="black" stroke="currentColor" stroke-width="1.00" stroke-linecap="butt" stroke-linejoin="miter">
	<path stroke='black'  d='M63.6,54.1 L63.6,662.4 L1013.6,662.4 L1013.6,54.1 L63.6,54.1 Z  '/></g>
<g fill="none" color="black" stroke="currentColor" stroke-width="1.00" stroke-linecap="butt" stroke-linejoin="miter">
</g>
</g>
</svg>

