<?xml version="1.0" encoding="utf-8"  standalone="no"?>
<svg 
 viewBox="0 0 1280 720"
 xmlns="http://www.w3.org/2000/svg"
 xmlns:xlink="http://www.w3.org/1999/xlink"
>

<title>Gnuplot</title>
<desc>Produced by GNUPLOT 5.2 patchlevel 6 </desc>

<g id="gnuplot_canvas">

<rect x="0" y="0" width="1280" height="720" fill="none"/>
<defs>

	<circle id='gpDot' r='0.5' stroke-width='0.5' stroke='currentColor'/>
	<path id='gpPt0' stroke-width='0.222' stroke='currentColor' d='M-1,0 h2 M0,-1 v2'/>
	<path id='gpPt1' stroke-width='0.222' stroke='currentColor' d='M-1,-1 L1,1 M1,-1 L-1,1'/>
	<path id='gpPt2' stroke-width='0.222' stroke='currentColor' d='M-1,0 L1,0 M0,-1 L0,1 M-1,-1 L1,1 M-1,1 L1,-1'/>
	<rect id='gpPt3' stroke-width='0.222' stroke='currentColor' x='-1' y='-1' width='2' height='2'/>
	<rect id='gpPt4' stroke-width='0.222' stroke='currentColor' fill='currentColor' x='-1' y='-1' width='2' height='2'/>
	<circle id='gpPt5' stroke-width='0.222' stroke='currentColor' cx='0' cy='0' r='1'/>
	<use xlink:href='#gpPt5' id='gpPt6' fill='currentColor' stroke='none'/>
	<path id='gpPt7' stroke-width='0.222' stroke='currentColor' d='M0,-1.33 L-1.33,0.67 L1.33,0.67 z'/>
	<use xlink:href='#gpPt7' id='gpPt8' fill='currentColor' stroke='none'/>
	<use xlink:href='#gpPt7' id='gpPt9' stroke='currentColor' transform='rotate(180)'/>
	<use xlink:href='#gpPt9' id='gpPt10' fill='currentColor' stroke='none'/>
	<use xlink:href='#gpPt3' id='gpPt11' stroke='currentColor' transform='rotate(45)'/>
	<use xlink:href='#gpPt11' id='gpPt12' fill='currentColor' stroke='none'/>
	<path id='gpPt13' stroke-width='0.222' stroke='currentColor' d='M0,1.330 L1.265,0.411 L0.782,-1.067 L-0.782,-1.076 L-1.265,0.411 z'/>
	<use xlink:href='#gpPt13' id='gpPt14' fill='currentColor' stroke='none'/>
	<filter id='textbox' filterUnits='objectBoundingBox' x='0' y='0' height='1' width='1'>
	  <feFlood flood-color='white' flood-opacity='1' result='bgnd'/>
	  <feComposite in='SourceGraphic' in2='bgnd' operator='atop'/>
	</filter>
	<filter id='greybox' filterUnits='objectBoundingBox' x='0' y='0' height='1' width='1'>
	  <feFlood flood-color='lightgrey' flood-opacity='1' result='grey'/>
	  <feComposite in='SourceGraphic' in2='grey' operator='atop'/>
	</filter>
</defs>
<g fill="none" color="white" stroke="currentColor" stroke-width="1.00" stroke-linecap="butt" stroke-linejoin="miter">
</g>
<g fill="none" color="black" stroke="currentColor" stroke-width="1.00" stroke-linecap="butt" stroke-linejoin="miter">
	<path stroke='black'  d='M105.1,662.4 L114.1,662.4  '/>	<g transform="translate(96.8,666.3)" stroke="none" fill="black" font-family="Helvetica" font-size="12.00"  text-anchor="end">
		<text><tspan font-family="Helvetica" > 0</tspan></text>
	</g>
</g>
<g fill="none" color="black" stroke="currentColor" stroke-width="1.00" stroke-linecap="butt" stroke-linejoin="miter">
	<path stroke='black'  d='M105.1,601.6 L114.1,601.6  '/>	<g transform="translate(96.8,605.5)" stroke="none" fill="black" font-family="Helvetica" font-size="12.00"  text-anchor="end">
		<text><tspan font-family="Helvetica" > 2x10</tspan><tspan font-family="Helvetica"  font-size="9.6" dy="-6.00px">-8</tspan><tspan font-size="12.0" dy="6.00"></tspan></text>
	</g>
</g>
<g fill="none" color="black" stroke="currentColor" stroke-width="1.00" stroke-linecap="butt" stroke-linejoin="miter">
	<path stroke='black'  d='M105.1,540.7 L114.1,540.7  '/>	<g transform="translate(96.8,544.6)" stroke="none" fill="black" font-family="Helvetica" font-size="12.00"  text-anchor="end">
		<text><tspan font-family="Helvetica" > 4x10</tspan><tspan font-family="Helvetica"  font-size="9.6" dy="-6.00px">-8</tspan><tspan font-size="12.0" dy="6.00"></tspan></text>
	</g>
</g>
<g fill="none" color="black" stroke="currentColor" stroke-width="1.00" stroke-linecap="butt" stroke-linejoin="miter">
	<path stroke='black'  d='M105.1,479.9 L114.1,479.9  '/>	<g transform="translate(96.8,483.8)" stroke="none" fill="black" font-family="Helvetica" font-size="12.00"  text-anchor="end">
		<text><tspan font-family="Helvetica" > 6x10</tspan><tspan font-family="Helvetica"  font-size="9.6" dy="-6.00px">-8</tspan><tspan font-size="12.0" dy="6.00"></tspan></text>
	</g>
</g>
<g fill="none" color="black" stroke="currentColor" stroke-width="1.00" stroke-linecap="butt" stroke-linejoin="miter">
	<path stroke='black'  d='M105.1,419.1 L114.1,419.1  '/>	<g transform="translate(96.8,423.0)" stroke="none" fill="black" font-family="Helvetica" font-size="12.00"  text-anchor="end">
		<text><tspan font-family="Helvetica" > 8x10</tspan><tspan font-family="Helvetica"  font-size="9.6" dy="-6.00px">-8</tspan><tspan font-size="12.0" dy="6.00"></tspan></text>
	</g>
</g>
<g fill="none" color="black" stroke="currentColor" stroke-width="1.00" stroke-linecap="butt" stroke-linejoin="miter">
	<path stroke='black'  d='M105.1,358.2 L114.1,358.2  '/>	<g transform="translate(96.8,362.1)" stroke="none" fill="black" font-family="Helvetica" font-size="12.00"  text-anchor="end">
		<text><tspan font-family="Helvetica" > 1x10</tspan><tspan font-family="Helvetica"  font-size="9.6" dy="-6.00px">-7</tspan><tspan font-size="12.0" dy="6.00"></tspan></text>
	</g>
</g>
<g fill="none" color="black" stroke="currentColor" stroke-width="1.00" stroke-linecap="butt" stroke-linejoin="miter">
	<path stroke='black'  d='M105.1,297.4 L114.1,297.4  '/>	<g transform="translate(96.8,301.3)" stroke="none" fill="black" font-family="Helvetica" font-size="12.00"  text-anchor="end">
		<text><tspan font-family="Helvetica" > 1.2x10</tspan><tspan font-family="Helvetica"  font-size="9.6" dy="-6.00px">-7</tspan><tspan font-size="12.0" dy="6.00"></tspan></text>
	</g>
</g>
<g fill="none" color="black" stroke="currentColor" stroke-width="1.00" stroke-linecap="butt" stroke-linejoin="miter">
	<path stroke='black'  d='M105.1,236.6 L114.1,236.6  '/>	<g transform="translate(96.8,240.5)" stroke="none" fill="black" font-family="Helvetica" font-size="12.00"  text-anchor="end">
		<text><tspan font-family="Helvetica" > 1.4x10</tspan><tspan font-family="Helvetica"  font-size="9.6" dy="-6.00px">-7</tspan><tspan font-size="12.0" dy="6.00"></tspan></text>
	</g>
</g>
<g fill="none" color="black" stroke="currentColor" stroke-width="1.00" stroke-linecap="butt" stroke-linejoin="miter">
	<path stroke='black'  d='M105.1,175.8 L114.1,175.8  '/>	<g transform="translate(96.8,179.7)" stroke="none" fill="black" font-family="Helvetica" font-size="12.00"  text-anchor="end">
		<text><tspan font-family="Helvetica" > 1.6x10</tspan><tspan font-family="Helvetica"  font-size="9.6" dy="-6.00px">-7</tspan><tspan font-size="12.0" dy="6.00"></tspan></text>
	</g>
</g>
<g fill="none" color="black" stroke="currentColor" stroke-width="1.00" stroke-linecap="butt" stroke-linejoin="miter">
	<path stroke='black'  d='M105.1,114.9 L114.1,114.9  '/>	<g transform="translate(96.8,118.8)" stroke="none" fill="black" font-family="Helvetica" font-size="12.00"  text-anchor="end">
		<text><tspan font-family="Helvetica" > 1.8x10</tspan><tspan font-family="Helvetica"  font-size="9.6" dy="-6.00px">-7</tspan><tspan font-size="12.0" dy="6.00"></tspan></text>
	</g>
</g>
<g fill="none" color="black" stroke="currentColor" stroke-width="1.00" stroke-linecap="butt" stroke-linejoin="miter">
	<path stroke='black'  d='M105.1,54.1 L114.1,54.1  '/>	<g transform="translate(96.8,58.0)" stroke="none" fill="black" font-family="Helvetica" font-size="12.00"  text-anchor="end">
		<text><tspan font-family="Helvetica" > 2x10</tspan><tspan font-family="Helvetica"  font-size="9.6" dy="-6.00px">-7</tspan><tspan font-size="12.0" dy="6.00"></tspan></text>
	</g>
</g>
<g fill="none" color="black" stroke="currentColor" stroke-width="1.00" stroke-linecap="butt" stroke-linejoin="miter">
	<path stroke='black'  d='M105.1,662.4 L105.1,653.4  '/>	<g transform="translate(105.1,684.3)" stroke="none" fill="black" font-family="Helvetica" font-size="12.00"  text-anchor="middle">
		<text><tspan font-family="Helvetica" > 40</tspan></text>
	</g>
</g>
<g fill="none" color="black" stroke="currentColor" stroke-width="1.00" stroke-linecap="butt" stroke-linejoin="miter">
	<path stroke='black'  d='M250.3,662.4 L250.3,653.4  '/>	<g transform="translate(250.3,684.3)" stroke="none" fill="black" font-family="Helvetica" font-size="12.00"  text-anchor="middle">
		<text><tspan font-family="Helvetica" > 60</tspan></text>
	</g>
</g>
<g fill="none" color="black" stroke="currentColor" stroke-width="1.00" stroke-linecap="butt" stroke-linejoin="miter">
	<path stroke='black'  d='M395.5,662.4 L395.5,653.4  '/>	<g transform="translate(395.5,684.3)" stroke="none" fill="black" font-family="Helvetica" font-size="12.00"  text-anchor="middle">
		<text><tspan font-family="Helvetica" > 80</tspan></text>
	</g>
</g>
<g fill="none" color="black" stroke="currentColor" stroke-width="1.00" stroke-linecap="butt" stroke-linejoin="miter">
	<path stroke='black'  d='M540.7,662.4 L540.7,653.4  '/>	<g transform="translate(540.7,684.3)" stroke="none" fill="black" font-family="Helvetica" font-size="12.00"  text-anchor="middle">
		<text><tspan font-family="Helvetica" > 100</tspan></text>
	</g>
</g>
<g fill="none" color="black" stroke="currentColor" stroke-width="1.00" stroke-linecap="butt" stroke-linejoin="miter">
	<path stroke='black'  d='M685.9,662.4 L685.9,653.4  '/>	<g transform="translate(685.9,684.3)" stroke="none" fill="black" font-family="Helvetica" font-size="12.00"  text-anchor="middle">
		<text><tspan font-family="Helvetica" > 120</tspan></text>
	</g>
</g>
<g fill="none" color="black" stroke="currentColor" stroke-width="1.00" stroke-linecap="butt" stroke-linejoin="miter">
	<path stroke='black'  d='M831.1,662.4 L831.1,653.4  '/>	<g transform="translate(831.1,684.3)" stroke="none" fill="black" font-family="Helvetica" font-size="12.00"  text-anchor="middle">
		<text><tspan font-family="Helvetica" > 140</tspan></text>
	</g>
</g>
<g fill="none" color="black" stroke="currentColor" stroke-width="1.00" stroke-linecap="butt" stroke-linejoin="miter">
	<path stroke='black'  d='M976.3,662.4 L976.3,653.4  '/>	<g transform="translate(976.3,684.3)" stroke="none" fill="black" font-family="Helvetica" font-size="12.00"  text-anchor="middle">
		<text><tspan font-family="Helvetica" > 160</tspan></text>
	</g>
</g>
<g fill="none" color="black" stroke="currentColor" stroke-width="1.00" stroke-linecap="butt" stroke-linejoin="miter">
	<path stroke='black'  d='M1121.5,662.4 L1121.5,653.4  '/>	<g transform="translate(1121.5,684.3)" stroke="none" fill="black" font-family="Helvetica" font-size="12.00"  text-anchor="middle">
		<text><tspan font-family="Helvetica" > 180</tspan></text>
	</g>
</g>
<g fill="none" color="black" stroke="currentColor" stroke-width="1.00" stroke-linecap="butt" stroke-linejoin="miter">
</g>
<g fill="none" color="black" stroke="currentColor" stroke-width="1.00" stroke-linecap="butt" stroke-linejoin="miter">
	<path stroke='black'  d='M105.1,54.1 L105.1,662.4 L1121.5,662.4 L1121.5,54.1 L105.1,54.1 Z  '/></g>
<g fill="none" color="black" stroke="currentColor" stroke-width="1.00" stroke-linecap="butt" stroke-linejoin="miter">
	<g transform="translate(16.3,358.3) rotate(270)" stroke="none" fill="black" font-family="Helvetica" font-size="12.00"  text-anchor="middle">
		<text><tspan font-family="Helvetica" >Density (a.u.)</tspan></text>
	</g>
</g>
<g fill="none" color="black" stroke="currentColor" stroke-width="1.00" stroke-linecap="butt" stroke-linejoin="miter">
	<g transform="translate(613.3,711.3)" stroke="none" fill="black" font-family="Helvetica" font-size="12.00"  text-anchor="middle">
		<text><tspan font-family="Helvetica" >Average time (ms)</tspan></text>
	</g>
</g>
<g fill="none" color="black" stroke="currentColor" stroke-width="1.00" stroke-linecap="butt" stroke-linejoin="miter">
	<g transform="translate(613.3,31.0)" stroke="none" fill="black" font-family="Helvetica" font-size="12.00"  text-anchor="middle">
		<text><tspan font-family="Helvetica" >get_bench/kvs</tspan></text>
	</g>
</g>
	<g id="gnuplot_plot_1" ><title>Base PDF</title>
<g fill="none" color="black" stroke="currentColor" stroke-width="1.00" stroke-linecap="butt" stroke-linejoin="miter">
	<g transform="translate(1196.9,67.0)" stroke="none" fill="black" font-family="Helvetica" font-size="12.00"  text-anchor="start">
		<text><tspan font-family="Helvetica" >Base PDF</tspan></text>
	</g>
</g>
<g fill="none" color="black" stroke="currentColor" stroke-width="1.00" stroke-linecap="butt" stroke-linejoin="miter">
	<g stroke='none' shape-rendering='crispEdges'>
		<polygon fill = 'rgb(227,  26,  28)' fill-opacity = '0.500000' points = '1146.4,67.6 1188.6,67.6 1188.6,58.6 1146.4,58.6 '/>
		<polygon fill = 'rgb(227,  26,  28)' fill-opacity = '0.500000' points = '163.8,662.1 164.1,662.1 164.4,662.0 164.7,662.0 165.0,661.9 165.3,661.8 165.6,661.8 165.9,661.7 166.2,661.6 166.5,661.5 166.8,661.4 167.2,661.2 167.5,661.1 167.8,660.9 168.1,660.8 168.4,660.6
168.7,660.4 169.0,660.1 169.3,659.9 169.6,659.6 169.9,659.3 170.2,659.0 170.5,658.6 170.8,658.2 171.1,657.8 171.4,657.3 171.8,656.8 172.1,656.2 172.4,655.6 172.7,655.0 173.0,654.3 173.3,653.5
173.6,652.7 173.9,651.9 174.2,650.9 174.5,649.9 174.8,648.9 175.1,647.7 175.4,646.5 175.7,645.2 176.0,643.8 176.3,642.3 176.7,640.8 177.0,639.1 177.3,637.4 177.6,635.6 177.9,633.6 178.2,631.6
178.5,629.4 178.8,627.1 179.1,624.8 179.4,622.3 179.7,619.7 180.0,616.9 180.3,614.1 180.6,611.1 180.9,608.0 181.3,604.8 181.6,601.5 181.9,598.0 182.2,594.4 182.5,590.7 182.8,586.8 183.1,582.9
183.4,578.8 183.7,574.6 184.0,570.3 184.3,565.8 184.6,561.3 184.9,556.6 185.2,551.8 185.5,546.9 185.8,542.0 186.2,536.9 186.5,531.7 186.8,526.5 187.1,521.2 187.4,515.8 187.7,510.4 188.0,504.9
188.3,499.4 188.6,493.8 188.9,488.2 189.2,482.6 189.5,476.9 189.8,471.3 190.1,465.7 190.4,460.1 190.8,454.5 191.1,449.0 191.4,443.5 191.7,438.1 192.0,432.7 192.3,427.5 192.6,422.3 192.9,417.3
193.2,412.3 193.5,407.5 193.8,402.8 194.1,398.3 194.4,394.0 194.7,389.8 195.0,385.7 195.4,381.9 195.7,378.2 196.0,374.8 196.3,371.5 196.6,368.5 196.9,365.7 197.2,363.1 197.5,360.7 197.8,358.5
198.1,356.6 198.4,354.9 198.7,353.4 199.0,352.2 199.3,351.2 199.6,350.4 199.9,349.8 200.3,349.5 200.6,349.3 200.9,349.4 201.2,349.7 201.5,350.1 201.8,350.7 202.1,351.5 202.4,352.5 202.7,353.6
203.0,354.9 203.3,356.3 203.6,357.8 203.9,359.4 204.2,361.1 204.5,362.9 204.9,364.7 205.2,366.6 205.5,368.5 205.8,370.4 206.1,372.4 206.4,374.3 206.7,376.1 207.0,377.9 207.3,379.7 207.6,381.3
207.9,382.8 208.2,384.3 208.5,385.6 208.8,386.7 209.1,387.6 209.5,388.4 209.8,389.0 210.1,389.4 210.4,389.5 210.7,389.4 211.0,389.0 211.3,388.4 211.6,387.5 211.9,386.3 212.2,384.8 212.5,382.9
212.8,380.8 213.1,378.4 213.4,375.6 213.7,372.6 214.0,369.2 214.4,365.4 214.7,361.4 215.0,357.0 215.3,352.3 215.6,347.3 215.9,341.9 216.2,336.3 216.5,330.4 216.8,324.3 217.1,317.8 217.4,311.2
217.7,304.3 218.0,297.2 218.3,289.9 218.6,282.5 219.0,274.9 219.3,267.2 219.6,259.3 219.9,251.5 220.2,243.6 220.5,235.6 220.8,227.7 221.1,219.8 221.4,212.0 221.7,204.3 222.0,196.8 222.3,189.3
222.6,182.1 222.9,175.1 223.2,168.3 223.5,161.8 223.9,155.6 224.2,149.6 224.5,144.1 224.8,138.9 225.1,134.0 225.4,129.6 225.7,125.6 226.0,122.0 226.3,118.9 226.6,116.2 226.9,114.0 227.2,112.3
227.5,111.1 227.8,110.4 228.1,110.1 228.5,110.4 228.8,111.1 229.1,112.4 229.4,114.1 229.7,116.3 230.0,119.0 230.3,122.2 230.6,125.8 230.9,129.9 231.2,134.3 231.5,139.2 231.8,144.5 232.1,150.2
232.4,156.2 232.7,162.6 233.1,169.3 233.4,176.3 233.7,183.6 234.0,191.2 234.3,199.0 234.6,207.0 234.9,215.2 235.2,223.6 235.5,232.2 235.8,241.0 236.1,249.8 236.4,258.8 236.7,267.8 237.0,277.0
237.3,286.1 237.6,295.4 238.0,304.6 238.3,313.8 238.6,323.1 238.9,332.3 239.2,341.5 239.5,350.6 239.8,359.7 240.1,368.7 240.4,377.6 240.7,386.5 241.0,395.2 241.3,403.8 241.6,412.3 241.9,420.7
242.2,429.0 242.6,437.1 242.9,445.1 243.2,453.0 243.5,460.7 243.8,468.2 244.1,475.6 244.4,482.8 244.7,489.8 245.0,496.7 245.3,503.4 245.6,510.0 245.9,516.4 246.2,522.6 246.5,528.6 246.8,534.4
247.1,540.1 247.5,545.6 247.8,550.9 248.1,556.0 248.4,561.0 248.7,565.8 249.0,570.4 249.3,574.8 249.6,579.1 249.9,583.1 250.2,587.1 250.5,590.8 250.8,594.4 251.1,597.8 251.4,601.1 251.7,604.2
252.1,607.1 252.4,609.9 252.7,612.6 253.0,615.1 253.3,617.5 253.6,619.7 253.9,621.9 254.2,623.8 254.5,625.7 254.8,627.5 255.1,629.1 255.4,630.6 255.7,632.1 256.0,633.4 256.3,634.7 256.7,635.8
257.0,636.9 257.3,637.9 257.6,638.9 257.9,639.7 258.2,640.5 258.5,641.3 258.8,642.0 259.1,642.6 259.4,643.2 259.7,643.8 260.0,644.3 260.3,644.8 260.6,645.3 260.9,645.7 261.2,646.1 261.6,646.5
261.9,646.9 262.2,647.3 262.5,647.7 262.8,648.0 263.1,648.3 263.4,648.7 263.7,649.0 264.0,649.3 264.3,649.7 264.6,650.0 264.9,650.3 265.2,650.6 265.5,650.9 265.8,651.3 266.2,651.6 266.5,651.9
266.8,652.2 267.1,652.6 267.4,652.9 267.7,653.2 268.0,653.5 268.3,653.8 268.6,654.2 268.9,654.5 269.2,654.8 269.5,655.1 269.8,655.4 270.1,655.7 270.4,656.0 270.7,656.3 271.1,656.6 271.4,656.9
271.7,657.1 272.0,657.4 272.3,657.6 272.6,657.9 272.9,658.1 273.2,658.3 273.5,658.5 273.8,658.7 274.1,658.9 274.4,659.1 274.7,659.2 275.0,659.3 275.3,659.5 275.7,659.6 276.0,659.7 276.3,659.8
276.6,659.9 276.9,659.9 277.2,660.0 277.5,660.0 277.8,660.0 278.1,660.0 278.4,660.0 278.7,660.0 279.0,660.0 279.3,659.9 279.6,659.8 279.9,659.8 280.3,659.7 280.6,659.6 280.9,659.4 281.2,659.3
281.5,659.2 281.8,659.0 282.1,658.8 282.4,658.6 282.7,658.5 283.0,658.2 283.3,658.0 283.6,657.8 283.9,657.6 284.2,657.3 284.5,657.1 284.8,656.8 285.2,656.6 285.5,656.3 285.8,656.0 286.1,655.7
286.4,655.5 286.7,655.2 287.0,654.9 287.3,654.6 287.6,654.3 287.9,654.1 288.2,653.8 288.5,653.5 288.8,653.3 289.1,653.0 289.4,652.8 289.8,652.5 290.1,652.3 290.4,652.1 290.7,651.9 291.0,651.7
291.3,651.5 291.6,651.3 291.9,651.2 292.2,651.1 292.5,651.0 292.8,650.9 293.1,650.8 293.4,650.7 293.7,650.7 294.0,650.7 294.3,650.7 294.7,650.7 295.0,650.8 295.3,650.8 295.6,650.9 295.9,651.0
296.2,651.1 296.5,651.3 296.8,651.4 297.1,651.6 297.4,651.8 297.7,651.9 298.0,652.2 298.3,652.4 298.6,652.6 298.9,652.9 299.3,653.1 299.6,653.4 299.9,653.6 300.2,653.9 300.5,654.2 300.8,654.5
301.1,654.8 301.4,655.0 301.7,655.3 302.0,655.6 302.3,655.9 302.6,656.2 302.9,656.5 303.2,656.8 303.5,657.0 303.9,657.3 304.2,657.6 304.5,657.8 304.8,658.1 305.1,658.3 305.4,658.6 305.7,658.8
306.0,659.0 306.3,659.2 306.6,659.4 306.9,659.6 307.2,659.8 307.5,660.0 307.8,660.2 308.1,660.3 308.4,660.5 308.8,660.6 309.1,660.8 309.4,660.9 309.7,661.0 310.0,661.1 310.3,661.2 310.6,661.3
310.9,661.4 311.2,661.5 311.5,661.6 311.8,661.7 312.1,661.7 312.4,661.8 312.7,661.8 313.0,661.9 313.4,661.9 313.7,662.0 314.0,662.0 314.3,662.1 314.6,662.1 314.9,662.1 315.2,662.2 315.5,662.2
315.8,662.2 316.1,662.2 316.4,662.3 316.7,662.3 316.7,662.4 316.4,662.4 316.1,662.4 315.8,662.4 315.5,662.4 315.2,662.4 314.9,662.4 314.6,662.4 314.3,662.4 314.0,662.4 313.7,662.4 313.4,662.4
313.0,662.4 312.7,662.4 312.4,662.4 312.1,662.4 311.8,662.4 311.5,662.4 311.2,662.4 310.9,662.4 310.6,662.4 310.3,662.4 310.0,662.4 309.7,662.4 309.4,662.4 309.1,662.4 308.8,662.4 308.4,662.4
308.1,662.4 307.8,662.4 307.5,662.4 307.2,662.4 306.9,662.4 306.6,662.4 306.3,662.4 306.0,662.4 305.7,662.4 305.4,662.4 305.1,662.4 304.8,662.4 304.5,662.4 304.2,662.4 303.9,662.4 303.5,662.4
303.2,662.4 302.9,662.4 302.6,662.4 302.3,662.4 302.0,662.4 301.7,662.4 301.4,662.4 301.1,662.4 300.8,662.4 300.5,662.4 300.2,662.4 299.9,662.4 299.6,662.4 299.3,662.4 298.9,662.4 298.6,662.4
298.3,662.4 298.0,662.4 297.7,662.4 297.4,662.4 297.1,662.4 296.8,662.4 296.5,662.4 296.2,662.4 295.9,662.4 295.6,662.4 295.3,662.4 295.0,662.4 294.7,662.4 294.3,662.4 294.0,662.4 293.7,662.4
293.4,662.4 293.1,662.4 292.8,662.4 292.5,662.4 292.2,662.4 291.9,662.4 291.6,662.4 291.3,662.4 291.0,662.4 290.7,662.4 290.4,662.4 290.1,662.4 289.8,662.4 289.4,662.4 289.1,662.4 288.8,662.4
288.5,662.4 288.2,662.4 287.9,662.4 287.6,662.4 287.3,662.4 287.0,662.4 286.7,662.4 286.4,662.4 286.1,662.4 285.8,662.4 285.5,662.4 285.2,662.4 284.8,662.4 284.5,662.4 284.2,662.4 283.9,662.4
283.6,662.4 283.3,662.4 283.0,662.4 282.7,662.4 282.4,662.4 282.1,662.4 281.8,662.4 281.5,662.4 281.2,662.4 280.9,662.4 280.6,662.4 280.3,662.4 279.9,662.4 279.6,662.4 279.3,662.4 279.0,662.4
278.7,662.4 278.4,662.4 278.1,662.4 277.8,662.4 277.5,662.4 277.2,662.4 276.9,662.4 276.6,662.4 276.3,662.4 276.0,662.4 275.7,662.4 275.3,662.4 275.0,662.4 274.7,662.4 274.4,662.4 274.1,662.4
273.8,662.4 273.5,662.4 273.2,662.4 272.9,662.4 272.6,662.4 272.3,662.4 272.0,662.4 271.7,662.4 271.4,662.4 271.1,662.4 270.7,662.4 270.4,662.4 270.1,662.4 269.8,662.4 269.5,662.4 269.2,662.4
268.9,662.4 268.6,662.4 268.3,662.4 268.0,662.4 267.7,662.4 267.4,662.4 267.1,662.4 266.8,662.4 266.5,662.4 266.2,662.4 265.8,662.4 265.5,662.4 265.2,662.4 264.9,662.4 264.6,662.4 264.3,662.4
264.0,662.4 263.7,662.4 263.4,662.4 263.1,662.4 262.8,662.4 262.5,662.4 262.2,662.4 261.9,662.4 261.6,662.4 261.2,662.4 260.9,662.4 260.6,662.4 260.3,662.4 260.0,662.4 259.7,662.4 259.4,662.4
259.1,662.4 258.8,662.4 258.5,662.4 258.2,662.4 257.9,662.4 257.6,662.4 257.3,662.4 257.0,662.4 256.7,662.4 256.3,662.4 256.0,662.4 255.7,662.4 255.4,662.4 255.1,662.4 254.8,662.4 254.5,662.4
254.2,662.4 253.9,662.4 253.6,662.4 253.3,662.4 253.0,662.4 252.7,662.4 252.4,662.4 252.1,662.4 251.7,662.4 251.4,662.4 251.1,662.4 250.8,662.4 250.5,662.4 250.2,662.4 249.9,662.4 249.6,662.4
249.3,662.4 249.0,662.4 248.7,662.4 248.4,662.4 248.1,662.4 247.8,662.4 247.5,662.4 247.1,662.4 246.8,662.4 246.5,662.4 246.2,662.4 245.9,662.4 245.6,662.4 245.3,662.4 245.0,662.4 244.7,662.4
244.4,662.4 244.1,662.4 243.8,662.4 243.5,662.4 243.2,662.4 242.9,662.4 242.6,662.4 242.2,662.4 241.9,662.4 241.6,662.4 241.3,662.4 241.0,662.4 240.7,662.4 240.4,662.4 240.1,662.4 239.8,662.4
239.5,662.4 239.2,662.4 238.9,662.4 238.6,662.4 238.3,662.4 238.0,662.4 237.6,662.4 237.3,662.4 237.0,662.4 236.7,662.4 236.4,662.4 236.1,662.4 235.8,662.4 235.5,662.4 235.2,662.4 234.9,662.4
234.6,662.4 234.3,662.4 234.0,662.4 233.7,662.4 233.4,662.4 233.1,662.4 232.7,662.4 232.4,662.4 232.1,662.4 231.8,662.4 231.5,662.4 231.2,662.4 230.9,662.4 230.6,662.4 230.3,662.4 230.0,662.4
229.7,662.4 229.4,662.4 229.1,662.4 228.8,662.4 228.5,662.4 228.1,662.4 227.8,662.4 227.5,662.4 227.2,662.4 226.9,662.4 226.6,662.4 226.3,662.4 226.0,662.4 225.7,662.4 225.4,662.4 225.1,662.4
224.8,662.4 224.5,662.4 224.2,662.4 223.9,662.4 223.5,662.4 223.2,662.4 222.9,662.4 222.6,662.4 222.3,662.4 222.0,662.4 221.7,662.4 221.4,662.4 221.1,662.4 220.8,662.4 220.5,662.4 220.2,662.4
219.9,662.4 219.6,662.4 219.3,662.4 219.0,662.4 218.6,662.4 218.3,662.4 218.0,662.4 217.7,662.4 217.4,662.4 217.1,662.4 216.8,662.4 216.5,662.4 216.2,662.4 215.9,662.4 215.6,662.4 215.3,662.4
215.0,662.4 214.7,662.4 214.4,662.4 214.0,662.4 213.7,662.4 213.4,662.4 213.1,662.4 212.8,662.4 212.5,662.4 212.2,662.4 211.9,662.4 211.6,662.4 211.3,662.4 211.0,662.4 210.7,662.4 210.4,662.4
210.1,662.4 209.8,662.4 209.5,662.4 209.1,662.4 208.8,662.4 208.5,662.4 208.2,662.4 207.9,662.4 207.6,662.4 207.3,662.4 207.0,662.4 206.7,662.4 206.4,662.4 206.1,662.4 205.8,662.4 205.5,662.4
205.2,662.4 204.9,662.4 204.5,662.4 204.2,662.4 203.9,662.4 203.6,662.4 203.3,662.4 203.0,662.4 202.7,662.4 202.4,662.4 202.1,662.4 201.8,662.4 201.5,662.4 201.2,662.4 200.9,662.4 200.6,662.4
200.3,662.4 199.9,662.4 199.6,662.4 199.3,662.4 199.0,662.4 198.7,662.4 198.4,662.4 198.1,662.4 197.8,662.4 197.5,662.4 197.2,662.4 196.9,662.4 196.6,662.4 196.3,662.4 196.0,662.4 195.7,662.4
195.4,662.4 195.0,662.4 194.7,662.4 194.4,662.4 194.1,662.4 193.8,662.4 193.5,662.4 193.2,662.4 192.9,662.4 192.6,662.4 192.3,662.4 192.0,662.4 191.7,662.4 191.4,662.4 191.1,662.4 190.8,662.4
190.4,662.4 190.1,662.4 189.8,662.4 189.5,662.4 189.2,662.4 188.9,662.4 188.6,662.4 188.3,662.4 188.0,662.4 187.7,662.4 187.4,662.4 187.1,662.4 186.8,662.4 186.5,662.4 186.2,662.4 185.8,662.4
185.5,662.4 185.2,662.4 184.9,662.4 184.6,662.4 184.3,662.4 184.0,662.4 183.7,662.4 183.4,662.4 183.1,662.4 182.8,662.4 182.5,662.4 182.2,662.4 181.9,662.4 181.6,662.4 181.3,662.4 180.9,662.4
180.6,662.4 180.3,662.4 180.0,662.4 179.7,662.4 179.4,662.4 179.1,662.4 178.8,662.4 178.5,662.4 178.2,662.4 177.9,662.4 177.6,662.4 177.3,662.4 177.0,662.4 176.7,662.4 176.3,662.4 176.0,662.4
175.7,662.4 175.4,662.4 175.1,662.4 174.8,662.4 174.5,662.4 174.2,662.4 173.9,662.4 173.6,662.4 173.3,662.4 173.0,662.4 172.7,662.4 172.4,662.4 172.1,662.4 171.8,662.4 171.4,662.4 171.1,662.4
170.8,662.4 170.5,662.4 170.2,662.4 169.9,662.4 169.6,662.4 169.3,662.4 169.0,662.4 168.7,662.4 168.4,662.4 168.1,662.4 167.8,662.4 167.5,662.4 167.2,662.4 166.8,662.4 166.5,662.4 166.2,662.4
165.9,662.4 165.6,662.4 165.3,662.4 165.0,662.4 164.7,662.4 164.4,662.4 164.1,662.4 163.8,662.4 '/>
	</g>
</g>
	</g>
	<g id="gnuplot_plot_2" ><title>Base Mean</title>
<g fill="none" color="white" stroke="rgb(227,  26,  28)" stroke-width="2.00" stroke-linecap="butt" stroke-linejoin="miter">
</g>
<g fill="none" color="black" stroke="currentColor" stroke-width="2.00" stroke-linecap="butt" stroke-linejoin="miter">
	<g transform="translate(1196.9,85.0)" stroke="none" fill="black" font-family="Helvetica" font-size="12.00"  text-anchor="start">
		<text><tspan font-family="Helvetica" >Base Mean</tspan></text>
	</g>
</g>
<g fill="none" color="black" stroke="currentColor" stroke-width="2.00" stroke-linecap="butt" stroke-linejoin="miter">
	<path stroke='rgb(227,  26,  28)'  d='M1146.4,81.1 L1188.6,81.1 M219.8,662.4 L219.8,252.1  '/></g>
	</g>
	<g id="gnuplot_plot_3" ><title>New PDF</title>
<g fill="none" color="white" stroke="rgb(227,  26,  28)" stroke-width="1.00" stroke-linecap="butt" stroke-linejoin="miter">
</g>
<g fill="none" color="black" stroke="currentColor" stroke-width="1.00" stroke-linecap="butt" stroke-linejoin="miter">
	<g transform="translate(1196.9,103.0)" stroke="none" fill="black" font-family="Helvetica" font-size="12.00"  text-anchor="start">
		<text><tspan font-family="Helvetica" >New PDF</tspan></text>
	</g>
</g>
<g fill="none" color="black" stroke="currentColor" stroke-width="1.00" stroke-linecap="butt" stroke-linejoin="miter">
	<g stroke='none' shape-rendering='crispEdges'>
		<polygon fill = 'rgb( 31, 120, 180)' fill-opacity = '0.500000' points = '1146.4,103.6 1188.6,103.6 1188.6,94.6 1146.4,94.6 '/>
		<polygon fill = 'rgb( 31, 120, 180)' fill-opacity = '0.500000' points = '172.0,662.1 173.7,662.0 175.4,662.0 177.0,661.9 178.7,661.8 180.4,661.6 182.0,661.5 183.7,661.3 185.4,661.1 187.0,660.9 188.7,660.6 190.3,660.3 192.0,659.9 193.7,659.5 195.3,659.0 197.0,658.5
198.7,657.8 200.3,657.1 202.0,656.3 203.7,655.4 205.3,654.4 207.0,653.3 208.7,652.0 210.3,650.6 212.0,649.1 213.7,647.3 215.3,645.4 217.0,643.3 218.7,641.1 220.3,638.6 222.0,635.8 223.6,632.9
225.3,629.7 227.0,626.2 228.6,622.5 230.3,618.5 232.0,614.2 233.6,609.7 235.3,604.9 237.0,599.8 238.6,594.4 240.3,588.7 242.0,582.8 243.6,576.6 245.3,570.2 247.0,563.5 248.6,556.6 250.3,549.5
252.0,542.2 253.6,534.7 255.3,527.2 257.0,519.5 258.6,511.8 260.3,504.0 261.9,496.2 263.6,488.5 265.3,480.9 266.9,473.4 268.6,466.1 270.3,459.0 271.9,452.1 273.6,445.6 275.3,439.4 276.9,433.6
278.6,428.3 280.3,423.4 281.9,419.0 283.6,415.2 285.3,411.9 286.9,409.2 288.6,407.2 290.3,405.8 291.9,405.0 293.6,404.9 295.2,405.5 296.9,406.7 298.6,408.5 300.2,411.0 301.9,414.1 303.6,417.8
305.2,422.1 306.9,426.9 308.6,432.2 310.2,437.9 311.9,444.1 313.6,450.7 315.2,457.6 316.9,464.8 318.6,472.3 320.2,479.9 321.9,487.6 323.6,495.5 325.2,503.4 326.9,511.4 328.5,519.2 330.2,527.1
331.9,534.8 333.5,542.3 335.2,549.7 336.9,556.9 338.5,563.9 340.2,570.6 341.9,577.1 343.5,583.3 345.2,589.2 346.9,594.8 348.5,600.1 350.2,605.1 351.9,609.8 353.5,614.3 355.2,618.4 356.9,622.2
358.5,625.8 360.2,629.1 361.8,632.2 363.5,635.0 365.2,637.6 366.8,640.0 368.5,642.2 370.2,644.2 371.8,646.0 373.5,647.6 375.2,649.1 376.8,650.4 378.5,651.6 380.2,652.7 381.8,653.6 383.5,654.5
385.2,655.2 386.8,655.9 388.5,656.5 390.2,657.0 391.8,657.4 393.5,657.8 395.1,658.1 396.8,658.4 398.5,658.6 400.1,658.8 401.8,659.0 403.5,659.1 405.1,659.1 406.8,659.2 408.5,659.2 410.1,659.2
411.8,659.2 413.5,659.1 415.1,659.1 416.8,659.0 418.5,658.9 420.1,658.8 421.8,658.7 423.5,658.5 425.1,658.4 426.8,658.3 428.5,658.2 430.1,658.0 431.8,657.9 433.4,657.8 435.1,657.7 436.8,657.6
438.4,657.4 440.1,657.3 441.8,657.3 443.4,657.2 445.1,657.1 446.8,657.0 448.4,657.0 450.1,657.0 451.8,656.9 453.4,656.9 455.1,656.9 456.8,657.0 458.4,657.0 460.1,657.0 461.8,657.1 463.4,657.2
465.1,657.3 466.7,657.4 468.4,657.5 470.1,657.6 471.7,657.7 473.4,657.8 475.1,658.0 476.7,658.1 478.4,658.3 480.1,658.5 481.7,658.6 483.4,658.8 485.1,659.0 486.7,659.1 488.4,659.3 490.1,659.5
491.7,659.6 493.4,659.8 495.1,660.0 496.7,660.1 498.4,660.3 500.0,660.4 501.7,660.6 503.4,660.7 505.0,660.8 506.7,661.0 508.4,661.1 510.0,661.2 511.7,661.3 513.4,661.4 515.0,661.5 516.7,661.6
518.4,661.7 520.0,661.8 521.7,661.8 523.4,661.9 525.0,661.9 526.7,662.0 528.4,662.0 530.0,662.1 531.7,662.1 533.3,662.2 535.0,662.2 536.7,662.2 538.3,662.2 540.0,662.3 541.7,662.3 543.3,662.3
545.0,662.3 546.7,662.3 548.3,662.3 550.0,662.3 551.7,662.4 553.3,662.4 555.0,662.4 556.7,662.4 558.3,662.4 560.0,662.4 561.7,662.4 563.3,662.4 565.0,662.4 566.7,662.4 568.3,662.4 570.0,662.4
571.6,662.4 573.3,662.4 575.0,662.4 576.6,662.4 578.3,662.4 580.0,662.4 581.6,662.4 583.3,662.4 585.0,662.4 586.6,662.4 588.3,662.4 590.0,662.4 591.6,662.4 593.3,662.4 595.0,662.4 596.6,662.4
598.3,662.4 600.0,662.4 601.6,662.4 603.3,662.4 604.9,662.4 606.6,662.4 608.3,662.4 609.9,662.4 611.6,662.4 613.3,662.4 614.9,662.4 616.6,662.4 618.3,662.4 619.9,662.4 621.6,662.4 623.3,662.4
624.9,662.4 626.6,662.4 628.3,662.4 629.9,662.4 631.6,662.4 633.3,662.4 634.9,662.4 636.6,662.4 638.2,662.4 639.9,662.4 641.6,662.4 643.2,662.4 644.9,662.4 646.6,662.4 648.2,662.4 649.9,662.4
651.6,662.4 653.2,662.4 654.9,662.4 656.6,662.4 658.2,662.4 659.9,662.4 661.6,662.4 663.2,662.4 664.9,662.4 666.6,662.4 668.2,662.4 669.9,662.4 671.5,662.4 673.2,662.4 674.9,662.4 676.5,662.4
678.2,662.4 679.9,662.4 681.5,662.4 683.2,662.4 684.9,662.4 686.5,662.4 688.2,662.4 689.9,662.4 691.5,662.4 693.2,662.4 694.9,662.4 696.5,662.4 698.2,662.4 699.9,662.4 701.5,662.4 703.2,662.4
704.8,662.4 706.5,662.4 708.2,662.4 709.8,662.4 711.5,662.4 713.2,662.4 714.8,662.4 716.5,662.4 718.2,662.4 719.8,662.4 721.5,662.4 723.2,662.4 724.8,662.4 726.5,662.4 728.2,662.4 729.8,662.4
731.5,662.4 733.2,662.4 734.8,662.4 736.5,662.4 738.2,662.4 739.8,662.4 741.5,662.4 743.1,662.4 744.8,662.4 746.5,662.4 748.1,662.4 749.8,662.4 751.5,662.4 753.1,662.4 754.8,662.4 756.5,662.4
758.1,662.4 759.8,662.4 761.5,662.4 763.1,662.4 764.8,662.4 766.5,662.4 768.1,662.4 769.8,662.4 771.5,662.4 773.1,662.4 774.8,662.4 776.4,662.4 778.1,662.4 779.8,662.4 781.4,662.4 783.1,662.4
784.8,662.4 786.4,662.4 788.1,662.4 789.8,662.4 791.4,662.4 793.1,662.4 794.8,662.4 796.4,662.4 798.1,662.4 799.8,662.4 801.4,662.4 803.1,662.4 804.8,662.4 806.4,662.4 808.1,662.4 809.7,662.4
811.4,662.4 813.1,662.4 814.7,662.4 816.4,662.4 818.1,662.4 819.7,662.4 821.4,662.4 823.1,662.4 824.7,662.4 826.4,662.4 828.1,662.4 829.7,662.4 831.4,662.4 833.1,662.4 834.7,662.3 836.4,662.3
838.1,662.3 839.7,662.3 841.4,662.3 843.0,662.3 844.7,662.3 846.4,662.2 848.0,662.2 849.7,662.2 851.4,662.2 853.0,662.1 854.7,662.1 856.4,662.1 858.0,662.0 859.7,662.0 861.4,661.9 863.0,661.9
864.7,661.8 866.4,661.7 868.0,661.7 869.7,661.6 871.4,661.5 873.0,661.4 874.7,661.3 876.4,661.3 878.0,661.2 879.7,661.1 881.3,661.0 883.0,660.9 884.7,660.7 886.3,660.6 888.0,660.5 889.7,660.4
891.3,660.3 893.0,660.2 894.7,660.1 896.3,660.0 898.0,659.9 899.7,659.8 901.3,659.7 903.0,659.7 904.7,659.6 906.3,659.5 908.0,659.5 909.7,659.4 911.3,659.4 913.0,659.4 914.6,659.3 916.3,659.3
918.0,659.3 919.6,659.4 921.3,659.4 923.0,659.4 924.6,659.5 926.3,659.5 928.0,659.6 929.6,659.6 931.3,659.7 933.0,659.8 934.6,659.9 936.3,660.0 938.0,660.1 939.6,660.2 941.3,660.3 943.0,660.4
944.6,660.5 946.3,660.6 947.9,660.7 949.6,660.8 951.3,660.9 952.9,661.0 954.6,661.1 956.3,661.2 957.9,661.3 959.6,661.4 961.3,661.5 962.9,661.6 964.6,661.6 966.3,661.7 967.9,661.8 969.6,661.8
971.3,661.9 972.9,661.9 974.6,662.0 976.3,662.0 977.9,662.1 979.6,662.1 981.2,662.2 982.9,662.2 984.6,662.2 986.2,662.2 987.9,662.3 989.6,662.3 991.2,662.3 992.9,662.3 994.6,662.3 996.2,662.3
997.9,662.3 999.6,662.4 1001.2,662.4 1002.9,662.4 1002.9,662.4 1001.2,662.4 999.6,662.4 997.9,662.4 996.2,662.4 994.6,662.4 992.9,662.4 991.2,662.4 989.6,662.4 987.9,662.4 986.2,662.4 984.6,662.4
982.9,662.4 981.2,662.4 979.6,662.4 977.9,662.4 976.3,662.4 974.6,662.4 972.9,662.4 971.3,662.4 969.6,662.4 967.9,662.4 966.3,662.4 964.6,662.4 962.9,662.4 961.3,662.4 959.6,662.4 957.9,662.4
956.3,662.4 954.6,662.4 952.9,662.4 951.3,662.4 949.6,662.4 947.9,662.4 946.3,662.4 944.6,662.4 943.0,662.4 941.3,662.4 939.6,662.4 938.0,662.4 936.3,662.4 934.6,662.4 933.0,662.4 931.3,662.4
929.6,662.4 928.0,662.4 926.3,662.4 924.6,662.4 923.0,662.4 921.3,662.4 919.6,662.4 918.0,662.4 916.3,662.4 914.6,662.4 913.0,662.4 911.3,662.4 909.7,662.4 908.0,662.4 906.3,662.4 904.7,662.4
903.0,662.4 901.3,662.4 899.7,662.4 898.0,662.4 896.3,662.4 894.7,662.4 893.0,662.4 891.3,662.4 889.7,662.4 888.0,662.4 886.3,662.4 884.7,662.4 883.0,662.4 881.3,662.4 879.7,662.4 878.0,662.4
876.4,662.4 874.7,662.4 873.0,662.4 871.4,662.4 869.7,662.4 868.0,662.4 866.4,662.4 864.7,662.4 863.0,662.4 861.4,662.4 859.7,662.4 858.0,662.4 856.4,662.4 854.7,662.4 853.0,662.4 851.4,662.4
849.7,662.4 848.0,662.4 846.4,662.4 844.7,662.4 843.0,662.4 841.4,662.4 839.7,662.4 838.1,662.4 836.4,662.4 834.7,662.4 833.1,662.4 831.4,662.4 829.7,662.4 828.1,662.4 826.4,662.4 824.7,662.4
823.1,662.4 821.4,662.4 819.7,662.4 818.1,662.4 816.4,662.4 814.7,662.4 813.1,662.4 811.4,662.4 809.7,662.4 808.1,662.4 806.4,662.4 804.8,662.4 803.1,662.4 801.4,662.4 799.8,662.4 798.1,662.4
796.4,662.4 794.8,662.4 793.1,662.4 791.4,662.4 789.8,662.4 788.1,662.4 786.4,662.4 784.8,662.4 783.1,662.4 781.4,662.4 779.8,662.4 778.1,662.4 776.4,662.4 774.8,662.4 773.1,662.4 771.5,662.4
769.8,662.4 768.1,662.4 766.5,662.4 764.8,662.4 763.1,662.4 761.5,662.4 759.8,662.4 758.1,662.4 756.5,662.4 754.8,662.4 753.1,662.4 751.5,662.4 749.8,662.4 748.1,662.4 746.5,662.4 744.8,662.4
743.1,662.4 741.5,662.4 739.8,662.4 738.2,662.4 736.5,662.4 734.8,662.4 733.2,662.4 731.5,662.4 729.8,662.4 728.2,662.4 726.5,662.4 724.8,662.4 723.2,662.4 721.5,662.4 719.8,662.4 718.2,662.4
716.5,662.4 714.8,662.4 713.2,662.4 711.5,662.4 709.8,662.4 708.2,662.4 706.5,662.4 704.8,662.4 703.2,662.4 701.5,662.4 699.9,662.4 698.2,662.4 696.5,662.4 694.9,662.4 693.2,662.4 691.5,662.4
689.9,662.4 688.2,662.4 686.5,662.4 684.9,662.4 683.2,662.4 681.5,662.4 679.9,662.4 678.2,662.4 676.5,662.4 674.9,662.4 673.2,662.4 671.5,662.4 669.9,662.4 668.2,662.4 666.6,662.4 664.9,662.4
663.2,662.4 661.6,662.4 659.9,662.4 658.2,662.4 656.6,662.4 654.9,662.4 653.2,662.4 651.6,662.4 649.9,662.4 648.2,662.4 646.6,662.4 644.9,662.4 643.2,662.4 641.6,662.4 639.9,662.4 638.2,662.4
636.6,662.4 634.9,662.4 633.3,662.4 631.6,662.4 629.9,662.4 628.3,662.4 626.6,662.4 624.9,662.4 623.3,662.4 621.6,662.4 619.9,662.4 618.3,662.4 616.6,662.4 614.9,662.4 613.3,662.4 611.6,662.4
609.9,662.4 608.3,662.4 606.6,662.4 604.9,662.4 603.3,662.4 601.6,662.4 600.0,662.4 598.3,662.4 596.6,662.4 595.0,662.4 593.3,662.4 591.6,662.4 590.0,662.4 588.3,662.4 586.6,662.4 585.0,662.4
583.3,662.4 581.6,662.4 580.0,662.4 578.3,662.4 576.6,662.4 575.0,662.4 573.3,662.4 571.6,662.4 570.0,662.4 568.3,662.4 566.7,662.4 565.0,662.4 563.3,662.4 561.7,662.4 560.0,662.4 558.3,662.4
556.7,662.4 555.0,662.4 553.3,662.4 551.7,662.4 550.0,662.4 548.3,662.4 546.7,662.4 545.0,662.4 543.3,662.4 541.7,662.4 540.0,662.4 538.3,662.4 536.7,662.4 535.0,662.4 533.3,662.4 531.7,662.4
530.0,662.4 528.4,662.4 526.7,662.4 525.0,662.4 523.4,662.4 521.7,662.4 520.0,662.4 518.4,662.4 516.7,662.4 515.0,662.4 513.4,662.4 511.7,662.4 510.0,662.4 508.4,662.4 506.7,662.4 505.0,662.4
503.4,662.4 501.7,662.4 500.0,662.4 498.4,662.4 496.7,662.4 495.1,662.4 493.4,662.4 491.7,662.4 490.1,662.4 488.4,662.4 486.7,662.4 485.1,662.4 483.4,662.4 481.7,662.4 480.1,662.4 478.4,662.4
476.7,662.4 475.1,662.4 473.4,662.4 471.7,662.4 470.1,662.4 468.4,662.4 466.7,662.4 465.1,662.4 463.4,662.4 461.8,662.4 460.1,662.4 458.4,662.4 456.8,662.4 455.1,662.4 453.4,662.4 451.8,662.4
450.1,662.4 448.4,662.4 446.8,662.4 445.1,662.4 443.4,662.4 441.8,662.4 440.1,662.4 438.4,662.4 436.8,662.4 435.1,662.4 433.4,662.4 431.8,662.4 430.1,662.4 428.5,662.4 426.8,662.4 425.1,662.4
423.5,662.4 421.8,662.4 420.1,662.4 418.5,662.4 416.8,662.4 415.1,662.4 413.5,662.4 411.8,662.4 410.1,662.4 408.5,662.4 406.8,662.4 405.1,662.4 403.5,662.4 401.8,662.4 400.1,662.4 398.5,662.4
396.8,662.4 395.1,662.4 393.5,662.4 391.8,662.4 390.2,662.4 388.5,662.4 386.8,662.4 385.2,662.4 383.5,662.4 381.8,662.4 380.2,662.4 378.5,662.4 376.8,662.4 375.2,662.4 373.5,662.4 371.8,662.4
370.2,662.4 368.5,662.4 366.8,662.4 365.2,662.4 363.5,662.4 361.8,662.4 360.2,662.4 358.5,662.4 356.9,662.4 355.2,662.4 353.5,662.4 351.9,662.4 350.2,662.4 348.5,662.4 346.9,662.4 345.2,662.4
343.5,662.4 341.9,662.4 340.2,662.4 338.5,662.4 336.9,662.4 335.2,662.4 333.5,662.4 331.9,662.4 330.2,662.4 328.5,662.4 326.9,662.4 325.2,662.4 323.6,662.4 321.9,662.4 320.2,662.4 318.6,662.4
316.9,662.4 315.2,662.4 313.6,662.4 311.9,662.4 310.2,662.4 308.6,662.4 306.9,662.4 305.2,662.4 303.6,662.4 301.9,662.4 300.2,662.4 298.6,662.4 296.9,662.4 295.2,662.4 293.6,662.4 291.9,662.4
290.3,662.4 288.6,662.4 286.9,662.4 285.3,662.4 283.6,662.4 281.9,662.4 280.3,662.4 278.6,662.4 276.9,662.4 275.3,662.4 273.6,662.4 271.9,662.4 270.3,662.4 268.6,662.4 266.9,662.4 265.3,662.4
263.6,662.4 261.9,662.4 260.3,662.4 258.6,662.4 257.0,662.4 255.3,662.4 253.6,662.4 252.0,662.4 250.3,662.4 248.6,662.4 247.0,662.4 245.3,662.4 243.6,662.4 242.0,662.4 240.3,662.4 238.6,662.4
237.0,662.4 235.3,662.4 233.6,662.4 232.0,662.4 230.3,662.4 228.6,662.4 227.0,662.4 225.3,662.4 223.6,662.4 222.0,662.4 220.3,662.4 218.7,662.4 217.0,662.4 215.3,662.4 213.7,662.4 212.0,662.4
210.3,662.4 208.7,662.4 207.0,662.4 205.3,662.4 203.7,662.4 202.0,662.4 200.3,662.4 198.7,662.4 197.0,662.4 195.3,662.4 193.7,662.4 192.0,662.4 190.3,662.4 188.7,662.4 187.0,662.4 185.4,662.4
183.7,662.4 182.0,662.4 180.4,662.4 178.7,662.4 177.0,662.4 175.4,662.4 173.7,662.4 172.0,662.4 '/>
	</g>
</g>
	</g>
	<g id="gnuplot_plot_4" ><title>New Mean</title>
<g fill="none" color="white" stroke="rgb( 31, 120, 180)" stroke-width="2.00" stroke-linecap="butt" stroke-linejoin="miter">
</g>
<g fill="none" color="black" stroke="currentColor" stroke-width="2.00" stroke-linecap="butt" stroke-linejoin="miter">
	<g transform="translate(1196.9,121.0)" stroke="none" fill="black" font-family="Helvetica" font-size="12.00"  text-anchor="start">
		<text><tspan font-family="Helvetica" >New Mean</tspan></text>
	</g>
</g>
<g fill="none" color="black" stroke="currentColor" stroke-width="2.00" stroke-linecap="butt" stroke-linejoin="miter">
	<path stroke='rgb( 31, 120, 180)'  d='M1146.4,117.1 L1188.6,117.1 M302.5,662.4 L302.5,415.3  '/></g>
	</g>
<g fill="none" color="black" stroke="currentColor" stroke-width="2.00" stroke-linecap="butt" stroke-linejoin="miter">
</g>
<g fill="none" color="black" stroke="black" stroke-width="1.00" stroke-linecap="butt" stroke-linejoin="miter">
</g>
<g fill="none" color="black" stroke="currentColor" stroke-width="1.00" stroke-linecap="butt" stroke-linejoin="miter">
	<path stroke='black'  d='M105.1,54.1 L105.1,662.4 L1121.5,662.4 L1121.5,54.1 L105.1,54.1 Z  '/></g>
<g fill="none" color="black" stroke="currentColor" stroke-width="1.00" stroke-linecap="butt" stroke-linejoin="miter">
</g>
</g>
</svg>

