<?xml version="1.0" encoding="utf-8"  standalone="no"?>
<svg 
 viewBox="0 0 1280 720"
 xmlns="http://www.w3.org/2000/svg"
 xmlns:xlink="http://www.w3.org/1999/xlink"
>

<title>Gnuplot</title>
<desc>Produced by GNUPLOT 5.2 patchlevel 6 </desc>

<g id="gnuplot_canvas">

<rect x="0" y="0" width="1280" height="720" fill="none"/>
<defs>

	<circle id='gpDot' r='0.5' stroke-width='0.5' stroke='currentColor'/>
	<path id='gpPt0' stroke-width='0.222' stroke='currentColor' d='M-1,0 h2 M0,-1 v2'/>
	<path id='gpPt1' stroke-width='0.222' stroke='currentColor' d='M-1,-1 L1,1 M1,-1 L-1,1'/>
	<path id='gpPt2' stroke-width='0.222' stroke='currentColor' d='M-1,0 L1,0 M0,-1 L0,1 M-1,-1 L1,1 M-1,1 L1,-1'/>
	<rect id='gpPt3' stroke-width='0.222' stroke='currentColor' x='-1' y='-1' width='2' height='2'/>
	<rect id='gpPt4' stroke-width='0.222' stroke='currentColor' fill='currentColor' x='-1' y='-1' width='2' height='2'/>
	<circle id='gpPt5' stroke-width='0.222' stroke='currentColor' cx='0' cy='0' r='1'/>
	<use xlink:href='#gpPt5' id='gpPt6' fill='currentColor' stroke='none'/>
	<path id='gpPt7' stroke-width='0.222' stroke='currentColor' d='M0,-1.33 L-1.33,0.67 L1.33,0.67 z'/>
	<use xlink:href='#gpPt7' id='gpPt8' fill='currentColor' stroke='none'/>
	<use xlink:href='#gpPt7' id='gpPt9' stroke='currentColor' transform='rotate(180)'/>
	<use xlink:href='#gpPt9' id='gpPt10' fill='currentColor' stroke='none'/>
	<use xlink:href='#gpPt3' id='gpPt11' stroke='currentColor' transform='rotate(45)'/>
	<use xlink:href='#gpPt11' id='gpPt12' fill='currentColor' stroke='none'/>
	<path id='gpPt13' stroke-width='0.222' stroke='currentColor' d='M0,1.330 L1.265,0.411 L0.782,-1.067 L-0.782,-1.076 L-1.265,0.411 z'/>
	<use xlink:href='#gpPt13' id='gpPt14' fill='currentColor' stroke='none'/>
	<filter id='textbox' filterUnits='objectBoundingBox' x='0' y='0' height='1' width='1'>
	  <feFlood flood-color='white' flood-opacity='1' result='bgnd'/>
	  <feComposite in='SourceGraphic' in2='bgnd' operator='atop'/>
	</filter>
	<filter id='greybox' filterUnits='objectBoundingBox' x='0' y='0' height='1' width='1'>
	  <feFlood flood-color='lightgrey' flood-opacity='1' result='grey'/>
	  <feComposite in='SourceGraphic' in2='grey' operator='atop'/>
	</filter>
</defs>
<g fill="none" color="white" stroke="currentColor" stroke-width="1.00" stroke-linecap="butt" stroke-linejoin="miter">
</g>
<g fill="none" color="black" stroke="currentColor" stroke-width="1.00" stroke-linecap="butt" stroke-linejoin="miter">
	<path stroke='black'  d='M80.2,662.4 L89.2,662.4  '/>	<g transform="translate(71.9,666.3)" stroke="none" fill="black" font-family="Helvetica" font-size="12.00"  text-anchor="end">
		<text><tspan font-family="Helvetica" > 0</tspan></text>
	</g>
</g>
<g fill="none" color="black" stroke="currentColor" stroke-width="1.00" stroke-linecap="butt" stroke-linejoin="miter">
	<path stroke='black'  d='M80.2,540.7 L89.2,540.7  '/>	<g transform="translate(71.9,544.6)" stroke="none" fill="black" font-family="Helvetica" font-size="12.00"  text-anchor="end">
		<text><tspan font-family="Helvetica" > 0.05</tspan></text>
	</g>
</g>
<g fill="none" color="black" stroke="currentColor" stroke-width="1.00" stroke-linecap="butt" stroke-linejoin="miter">
	<path stroke='black'  d='M80.2,419.1 L89.2,419.1  '/>	<g transform="translate(71.9,423.0)" stroke="none" fill="black" font-family="Helvetica" font-size="12.00"  text-anchor="end">
		<text><tspan font-family="Helvetica" > 0.1</tspan></text>
	</g>
</g>
<g fill="none" color="black" stroke="currentColor" stroke-width="1.00" stroke-linecap="butt" stroke-linejoin="miter">
	<path stroke='black'  d='M80.2,297.4 L89.2,297.4  '/>	<g transform="translate(71.9,301.3)" stroke="none" fill="black" font-family="Helvetica" font-size="12.00"  text-anchor="end">
		<text><tspan font-family="Helvetica" > 0.15</tspan></text>
	</g>
</g>
<g fill="none" color="black" stroke="currentColor" stroke-width="1.00" stroke-linecap="butt" stroke-linejoin="miter">
	<path stroke='black'  d='M80.2,175.8 L89.2,175.8  '/>	<g transform="translate(71.9,179.7)" stroke="none" fill="black" font-family="Helvetica" font-size="12.00"  text-anchor="end">
		<text><tspan font-family="Helvetica" > 0.2</tspan></text>
	</g>
</g>
<g fill="none" color="black" stroke="currentColor" stroke-width="1.00" stroke-linecap="butt" stroke-linejoin="miter">
	<path stroke='black'  d='M80.2,54.1 L89.2,54.1  '/>	<g transform="translate(71.9,58.0)" stroke="none" fill="black" font-family="Helvetica" font-size="12.00"  text-anchor="end">
		<text><tspan font-family="Helvetica" > 0.25</tspan></text>
	</g>
</g>
<g fill="none" color="black" stroke="currentColor" stroke-width="1.00" stroke-linecap="butt" stroke-linejoin="miter">
	<path stroke='black'  d='M158.5,662.4 L158.5,653.4  '/>	<g transform="translate(158.5,684.3)" stroke="none" fill="black" font-family="Helvetica" font-size="12.00"  text-anchor="middle">
		<text><tspan font-family="Helvetica" > 200</tspan></text>
	</g>
</g>
<g fill="none" color="black" stroke="currentColor" stroke-width="1.00" stroke-linecap="butt" stroke-linejoin="miter">
	<path stroke='black'  d='M270.7,662.4 L270.7,653.4  '/>	<g transform="translate(270.7,684.3)" stroke="none" fill="black" font-family="Helvetica" font-size="12.00"  text-anchor="middle">
		<text><tspan font-family="Helvetica" > 201</tspan></text>
	</g>
</g>
<g fill="none" color="black" stroke="currentColor" stroke-width="1.00" stroke-linecap="butt" stroke-linejoin="miter">
	<path stroke='black'  d='M382.8,662.4 L382.8,653.4  '/>	<g transform="translate(382.8,684.3)" stroke="none" fill="black" font-family="Helvetica" font-size="12.00"  text-anchor="middle">
		<text><tspan font-family="Helvetica" > 202</tspan></text>
	</g>
</g>
<g fill="none" color="black" stroke="currentColor" stroke-width="1.00" stroke-linecap="butt" stroke-linejoin="miter">
	<path stroke='black'  d='M495.0,662.4 L495.0,653.4  '/>	<g transform="translate(495.0,684.3)" stroke="none" fill="black" font-family="Helvetica" font-size="12.00"  text-anchor="middle">
		<text><tspan font-family="Helvetica" > 203</tspan></text>
	</g>
</g>
<g fill="none" color="black" stroke="currentColor" stroke-width="1.00" stroke-linecap="butt" stroke-linejoin="miter">
	<path stroke='black'  d='M607.1,662.4 L607.1,653.4  '/>	<g transform="translate(607.1,684.3)" stroke="none" fill="black" font-family="Helvetica" font-size="12.00"  text-anchor="middle">
		<text><tspan font-family="Helvetica" > 204</tspan></text>
	</g>
</g>
<g fill="none" color="black" stroke="currentColor" stroke-width="1.00" stroke-linecap="butt" stroke-linejoin="miter">
	<path stroke='black'  d='M719.3,662.4 L719.3,653.4  '/>	<g transform="translate(719.3,684.3)" stroke="none" fill="black" font-family="Helvetica" font-size="12.00"  text-anchor="middle">
		<text><tspan font-family="Helvetica" > 205</tspan></text>
	</g>
</g>
<g fill="none" color="black" stroke="currentColor" stroke-width="1.00" stroke-linecap="butt" stroke-linejoin="miter">
	<path stroke='black'  d='M831.4,662.4 L831.4,653.4  '/>	<g transform="translate(831.4,684.3)" stroke="none" fill="black" font-family="Helvetica" font-size="12.00"  text-anchor="middle">
		<text><tspan font-family="Helvetica" > 206</tspan></text>
	</g>
</g>
<g fill="none" color="black" stroke="currentColor" stroke-width="1.00" stroke-linecap="butt" stroke-linejoin="miter">
	<path stroke='black'  d='M943.6,662.4 L943.6,653.4  '/>	<g transform="translate(943.6,684.3)" stroke="none" fill="black" font-family="Helvetica" font-size="12.00"  text-anchor="middle">
		<text><tspan font-family="Helvetica" > 207</tspan></text>
	</g>
</g>
<g fill="none" color="black" stroke="currentColor" stroke-width="1.00" stroke-linecap="butt" stroke-linejoin="miter">
</g>
<g fill="none" color="black" stroke="currentColor" stroke-width="1.00" stroke-linecap="butt" stroke-linejoin="miter">
	<path stroke='black'  d='M80.2,54.1 L80.2,662.4 L1013.6,662.4 L1013.6,54.1 L80.2,54.1 Z  '/></g>
<g fill="none" color="black" stroke="currentColor" stroke-width="1.00" stroke-linecap="butt" stroke-linejoin="miter">
	<g transform="translate(16.3,358.3) rotate(270)" stroke="none" fill="black" font-family="Helvetica" font-size="12.00"  text-anchor="middle">
		<text><tspan font-family="Helvetica" >Density (a.u.)</tspan></text>
	</g>
</g>
<g fill="none" color="black" stroke="currentColor" stroke-width="1.00" stroke-linecap="butt" stroke-linejoin="miter">
	<g transform="translate(546.9,711.3)" stroke="none" fill="black" font-family="Helvetica" font-size="12.00"  text-anchor="middle">
		<text><tspan font-family="Helvetica" >Average time (ms)</tspan></text>
	</g>
</g>
<g fill="none" color="black" stroke="currentColor" stroke-width="1.00" stroke-linecap="butt" stroke-linejoin="miter">
	<g transform="translate(546.9,31.0)" stroke="none" fill="black" font-family="Helvetica" font-size="12.00"  text-anchor="middle">
		<text><tspan font-family="Helvetica" >get_bench/sled: mean</tspan></text>
	</g>
</g>
	<g id="gnuplot_plot_1" ><title>Bootstrap distribution</title>
<g fill="none" color="white" stroke="black" stroke-width="2.00" stroke-linecap="butt" stroke-linejoin="miter">
</g>
<g fill="none" color="black" stroke="currentColor" stroke-width="2.00" stroke-linecap="butt" stroke-linejoin="miter">
	<g transform="translate(1089.0,67.0)" stroke="none" fill="black" font-family="Helvetica" font-size="12.00"  text-anchor="start">
		<text><tspan font-family="Helvetica" >Bootstrap distribution</tspan></text>
	</g>
</g>
<g fill="none" color="black" stroke="currentColor" stroke-width="2.00" stroke-linecap="butt" stroke-linejoin="miter">
	<path stroke='rgb( 31, 120, 180)'  d='M1038.5,63.1 L1080.7,63.1 M80.2,630.9 L82.1,629.9 L83.9,628.9 L85.8,627.9 L87.7,626.8 L89.6,625.7
		L91.4,624.6 L93.3,623.4 L95.2,622.2 L97.0,621.0 L98.9,619.8 L100.8,618.5 L102.6,617.2 L104.5,615.9
		L106.4,614.5 L108.3,613.1 L110.1,611.7 L112.0,610.3 L113.9,608.9 L115.7,607.4 L117.6,605.9 L119.5,604.4
		L121.4,602.9 L123.2,601.3 L125.1,599.8 L127.0,598.2 L128.8,596.6 L130.7,595.0 L132.6,593.3 L134.4,591.7
		L136.3,590.0 L138.2,588.4 L140.1,586.7 L141.9,585.0 L143.8,583.3 L145.7,581.5 L147.5,579.8 L149.4,578.1
		L151.3,576.3 L153.2,574.5 L155.0,572.7 L156.9,570.9 L158.8,569.1 L160.6,567.3 L162.5,565.4 L164.4,563.6
		L166.2,561.7 L168.1,559.7 L170.0,557.8 L171.9,555.8 L173.7,553.8 L175.6,551.7 L177.5,549.6 L179.3,547.5
		L181.2,545.3 L183.1,543.1 L185.0,540.9 L186.8,538.6 L188.7,536.2 L190.6,533.8 L192.4,531.4 L194.3,528.9
		L196.2,526.4 L198.0,523.8 L199.9,521.3 L201.8,518.7 L203.7,516.0 L205.5,513.4 L207.4,510.7 L209.3,508.0
		L211.1,505.3 L213.0,502.6 L214.9,499.9 L216.7,497.2 L218.6,494.5 L220.5,491.8 L222.4,489.1 L224.2,486.4
		L226.1,483.6 L228.0,480.9 L229.8,478.2 L231.7,475.4 L233.6,472.6 L235.5,469.8 L237.3,466.9 L239.2,464.0
		L241.1,461.1 L242.9,458.1 L244.8,455.0 L246.7,451.9 L248.5,448.8 L250.4,445.6 L252.3,442.3 L254.2,439.0
		L256.0,435.6 L257.9,432.2 L259.8,428.7 L261.6,425.2 L263.5,421.7 L265.4,418.1 L267.3,414.5 L269.1,410.9
		L271.0,407.3 L272.9,403.6 L274.7,400.0 L276.6,396.4 L278.5,392.7 L280.3,389.1 L282.2,385.5 L284.1,382.0
		L286.0,378.4 L287.8,374.9 L289.7,371.3 L291.6,367.8 L293.4,364.3 L295.3,360.9 L297.2,357.4 L299.1,354.0
		L300.9,350.5 L302.8,347.1 L304.7,343.6 L306.5,340.2 L308.4,336.7 L310.3,333.3 L312.1,329.8 L314.0,326.3
		L315.9,322.9 L317.8,319.4 L319.6,315.9 L321.5,312.4 L323.4,308.8 L325.2,305.3 L327.1,301.8 L329.0,298.2
		L330.9,294.7 L332.7,291.2 L334.6,287.7 L336.5,284.2 L338.3,280.8 L340.2,277.3 L342.1,273.9 L343.9,270.5
		L345.8,267.2 L347.7,263.9 L349.6,260.6 L351.4,257.4 L353.3,254.2 L355.2,251.0 L357.0,247.8 L358.9,244.7
		L360.8,241.6 L362.7,238.5 L364.5,235.5 L366.4,232.4 L368.3,229.3 L370.1,226.3 L372.0,223.2 L373.9,220.2
		L375.7,217.1 L377.6,214.0 L379.5,211.0 L381.4,207.9 L383.2,204.8 L385.1,201.8 L387.0,198.7 L388.8,195.6
		L390.7,192.6 L392.6,189.6 L394.5,186.6 L396.3,183.7 L398.2,180.7 L400.1,177.9 L401.9,175.1 L403.8,172.3
		L405.7,169.6 L407.5,167.0 L409.4,164.4 L411.3,162.0 L413.2,159.6 L415.0,157.3 L416.9,155.1 L418.8,152.9
		L420.6,150.9 L422.5,148.9 L424.4,147.0 L426.3,145.1 L428.1,143.3 L430.0,141.5 L431.9,139.8 L433.7,138.1
		L435.6,136.5 L437.5,134.9 L439.3,133.2 L441.2,131.6 L443.1,130.1 L445.0,128.5 L446.8,126.9 L448.7,125.4
		L450.6,123.9 L452.4,122.4 L454.3,120.9 L456.2,119.4 L458.0,118.0 L459.9,116.6 L461.8,115.3 L463.7,114.0
		L465.5,112.8 L467.4,111.6 L469.3,110.4 L471.1,109.4 L473.0,108.4 L474.9,107.4 L476.8,106.6 L478.6,105.8
		L480.5,105.0 L482.4,104.4 L484.2,103.8 L486.1,103.3 L488.0,102.8 L489.8,102.5 L491.7,102.2 L493.6,102.0
		L495.5,101.8 L497.3,101.8 L499.2,101.8 L501.1,101.9 L502.9,102.0 L504.8,102.3 L506.7,102.6 L508.6,103.0
		L510.4,103.4 L512.3,104.0 L514.2,104.5 L516.0,105.2 L517.9,105.9 L519.8,106.6 L521.6,107.4 L523.5,108.2
		L525.4,109.1 L527.3,110.0 L529.1,110.9 L531.0,111.8 L532.9,112.8 L534.7,113.7 L536.6,114.6 L538.5,115.6
		L540.4,116.5 L542.2,117.4 L544.1,118.3 L546.0,119.2 L547.8,120.1 L549.7,121.0 L551.6,122.0 L553.4,122.9
		L555.3,123.9 L557.2,124.9 L559.1,125.9 L560.9,127.0 L562.8,128.2 L564.7,129.4 L566.5,130.8 L568.4,132.2
		L570.3,133.7 L572.2,135.3 L574.0,137.0 L575.9,138.8 L577.8,140.7 L579.6,142.7 L581.5,144.7 L583.4,146.9
		L585.2,149.1 L587.1,151.3 L589.0,153.6 L590.9,156.0 L592.7,158.4 L594.6,160.8 L596.5,163.2 L598.3,165.7
		L600.2,168.1 L602.1,170.5 L604.0,173.0 L605.8,175.4 L607.7,177.9 L609.6,180.3 L611.4,182.7 L613.3,185.1
		L615.2,187.6 L617.0,190.0 L618.9,192.4 L620.8,194.9 L622.7,197.4 L624.5,199.9 L626.4,202.4 L628.3,204.9
		L630.1,207.5 L632.0,210.1 L633.9,212.8 L635.8,215.5 L637.6,218.2 L639.5,221.0 L641.4,223.8 L643.2,226.7
		L645.1,229.6 L647.0,232.5 L648.8,235.5 L650.7,238.5 L652.6,241.5 L654.5,244.6 L656.3,247.7 L658.2,250.8
		L660.1,253.9 L661.9,257.0 L663.8,260.2 L665.7,263.3 L667.5,266.4 L669.4,269.6 L671.3,272.7 L673.2,275.8
		L675.0,279.0 L676.9,282.1 L678.8,285.1 L680.6,288.2 L682.5,291.2 L684.4,294.2 L686.3,297.2 L688.1,300.1
		L690.0,303.0 L691.9,305.9 L693.7,308.7 L695.6,311.4 L697.5,314.2 L699.3,316.8 L701.2,319.5 L703.1,322.1
		L705.0,324.7 L706.8,327.2 L708.7,329.7 L710.6,332.2 L712.4,334.7 L714.3,337.2 L716.2,339.6 L718.1,342.1
		L719.9,344.6 L721.8,347.0 L723.7,349.6 L725.5,352.1 L727.4,354.6 L729.3,357.2 L731.1,359.9 L733.0,362.5
		L734.9,365.2 L736.8,368.0 L738.6,370.8 L740.5,373.7 L742.4,376.6 L744.2,379.5 L746.1,382.5 L748.0,385.5
		L749.9,388.5 L751.7,391.6 L753.6,394.7 L755.5,397.8 L757.3,401.0 L759.2,404.1 L761.1,407.3 L762.9,410.5
		L764.8,413.6 L766.7,416.8 L768.6,419.9 L770.4,423.1 L772.3,426.2 L774.2,429.3 L776.0,432.3 L777.9,435.4
		L779.8,438.4 L781.7,441.4 L783.5,444.3 L785.4,447.2 L787.3,450.0 L789.1,452.8 L791.0,455.6 L792.9,458.3
		L794.7,460.9 L796.6,463.5 L798.5,466.0 L800.4,468.5 L802.2,470.9 L804.1,473.3 L806.0,475.7 L807.8,478.0
		L809.7,480.3 L811.6,482.6 L813.5,484.8 L815.3,487.0 L817.2,489.3 L819.1,491.5 L820.9,493.7 L822.8,495.9
		L824.7,498.2 L826.5,500.4 L828.4,502.6 L830.3,504.9 L832.2,507.1 L834.0,509.4 L835.9,511.6 L837.8,513.9
		L839.6,516.1 L841.5,518.3 L843.4,520.5 L845.3,522.6 L847.1,524.7 L849.0,526.8 L850.9,528.8 L852.7,530.8
		L854.6,532.8 L856.5,534.7 L858.3,536.6 L860.2,538.5 L862.1,540.3 L864.0,542.1 L865.8,543.8 L867.7,545.5
		L869.6,547.2 L871.4,548.9 L873.3,550.5 L875.2,552.1 L877.1,553.7 L878.9,555.2 L880.8,556.8 L882.7,558.3
		L884.5,559.7 L886.4,561.2 L888.3,562.7 L890.1,564.1 L892.0,565.5 L893.9,566.8 L895.8,568.2 L897.6,569.5
		L899.5,570.9 L901.4,572.2 L903.2,573.5 L905.1,574.7 L907.0,576.0 L908.8,577.2 L910.7,578.5 L912.6,579.7
		L914.5,580.9 L916.3,582.1 L918.2,583.3 L920.1,584.5 L921.9,585.6 L923.8,586.8 L925.7,587.9 L927.6,589.1
		L929.4,590.2 L931.3,591.3 L933.2,592.5 L935.0,593.6 L936.9,594.7 L938.8,595.8 L940.6,596.9 L942.5,598.0
		L944.4,599.1 L946.3,600.2 L948.1,601.3 L950.0,602.4 L951.9,603.4 L953.7,604.5 L955.6,605.5 L957.5,606.5
		L959.4,607.5 L961.2,608.5 L963.1,609.5 L965.0,610.4 L966.8,611.3 L968.7,612.2 L970.6,613.1 L972.4,614.0
		L974.3,614.8 L976.2,615.6 L978.1,616.5 L979.9,617.3 L981.8,618.1 L983.7,618.9 L985.5,619.6 L987.4,620.4
		L989.3,621.2 L991.2,621.9 L993.0,622.6 L994.9,623.4 L996.8,624.1 L998.6,624.8 L1000.5,625.4 L1002.4,626.1
		L1004.2,626.8 L1006.1,627.4 L1008.0,628.0 L1009.9,628.6 L1011.7,629.2 L1013.6,629.8  '/></g>
	</g>
	<g id="gnuplot_plot_2" ><title>Confidence interval</title>
<g fill="none" color="white" stroke="rgb( 31, 120, 180)" stroke-width="1.00" stroke-linecap="butt" stroke-linejoin="miter">
</g>
<g fill="none" color="black" stroke="currentColor" stroke-width="1.00" stroke-linecap="butt" stroke-linejoin="miter">
	<g transform="translate(1089.0,85.0)" stroke="none" fill="black" font-family="Helvetica" font-size="12.00"  text-anchor="start">
		<text><tspan font-family="Helvetica" >Confidence interval</tspan></text>
	</g>
</g>
<g fill="none" color="black" stroke="currentColor" stroke-width="1.00" stroke-linecap="butt" stroke-linejoin="miter">
	<g stroke='none' shape-rendering='crispEdges'>
		<polygon fill = 'rgb( 31, 120, 180)' fill-opacity = '0.250000' points = '1038.5,85.6 1080.7,85.6 1080.7,76.6 1038.5,76.6 '/>
		<polygon fill = 'rgb( 31, 120, 180)' fill-opacity = '0.250000' points = '166.2,561.7 168.1,559.7 170.0,557.8 171.9,555.8 173.7,553.8 175.6,551.7 177.5,549.6 179.3,547.5 181.2,545.3 183.1,543.1 185.0,540.9 186.8,538.6 188.7,536.2 190.6,533.8 192.4,531.4 194.3,528.9
196.2,526.4 198.0,523.8 199.9,521.3 201.8,518.7 203.7,516.0 205.5,513.4 207.4,510.7 209.3,508.0 211.1,505.3 213.0,502.6 214.9,499.9 216.7,497.2 218.6,494.5 220.5,491.8 222.4,489.1 224.2,486.4
226.1,483.6 228.0,480.9 229.8,478.2 231.7,475.4 233.6,472.6 235.5,469.8 237.3,466.9 239.2,464.0 241.1,461.1 242.9,458.1 244.8,455.0 246.7,451.9 248.5,448.8 250.4,445.6 252.3,442.3 254.2,439.0
256.0,435.6 257.9,432.2 259.8,428.7 261.6,425.2 263.5,421.7 265.4,418.1 267.3,414.5 269.1,410.9 271.0,407.3 272.9,403.6 274.7,400.0 276.6,396.4 278.5,392.7 280.3,389.1 282.2,385.5 284.1,382.0
286.0,378.4 287.8,374.9 289.7,371.3 291.6,367.8 293.4,364.3 295.3,360.9 297.2,357.4 299.1,354.0 300.9,350.5 302.8,347.1 304.7,343.6 306.5,340.2 308.4,336.7 310.3,333.3 312.1,329.8 314.0,326.3
315.9,322.9 317.8,319.4 319.6,315.9 321.5,312.4 323.4,308.8 325.2,305.3 327.1,301.8 329.0,298.2 330.9,294.7 332.7,291.2 334.6,287.7 336.5,284.2 338.3,280.8 340.2,277.3 342.1,273.9 343.9,270.5
345.8,267.2 347.7,263.9 349.6,260.6 351.4,257.4 353.3,254.2 355.2,251.0 357.0,247.8 358.9,244.7 360.8,241.6 362.7,238.5 364.5,235.5 366.4,232.4 368.3,229.3 370.1,226.3 372.0,223.2 373.9,220.2
375.7,217.1 377.6,214.0 379.5,211.0 381.4,207.9 383.2,204.8 385.1,201.8 387.0,198.7 388.8,195.6 390.7,192.6 392.6,189.6 394.5,186.6 396.3,183.7 398.2,180.7 400.1,177.9 401.9,175.1 403.8,172.3
405.7,169.6 407.5,167.0 409.4,164.4 411.3,162.0 413.2,159.6 415.0,157.3 416.9,155.1 418.8,152.9 420.6,150.9 422.5,148.9 424.4,147.0 426.3,145.1 428.1,143.3 430.0,141.5 431.9,139.8 433.7,138.1
435.6,136.5 437.5,134.9 439.3,133.2 441.2,131.6 443.1,130.1 445.0,128.5 446.8,126.9 448.7,125.4 450.6,123.9 452.4,122.4 454.3,120.9 456.2,119.4 458.0,118.0 459.9,116.6 461.8,115.3 463.7,114.0
465.5,112.8 467.4,111.6 469.3,110.4 471.1,109.4 473.0,108.4 474.9,107.4 476.8,106.6 478.6,105.8 480.5,105.0 482.4,104.4 484.2,103.8 486.1,103.3 488.0,102.8 489.8,102.5 491.7,102.2 493.6,102.0
495.5,101.8 497.3,101.8 499.2,101.8 501.1,101.9 502.9,102.0 504.8,102.3 506.7,102.6 508.6,103.0 510.4,103.4 512.3,104.0 514.2,104.5 516.0,105.2 517.9,105.9 519.8,106.6 521.6,107.4 523.5,108.2
525.4,109.1 527.3,110.0 529.1,110.9 531.0,111.8 532.9,112.8 534.7,113.7 536.6,114.6 538.5,115.6 540.4,116.5 542.2,117.4 544.1,118.3 546.0,119.2 547.8,120.1 549.7,121.0 551.6,122.0 553.4,122.9
555.3,123.9 557.2,124.9 559.1,125.9 560.9,127.0 562.8,128.2 564.7,129.4 566.5,130.8 568.4,132.2 570.3,133.7 572.2,135.3 574.0,137.0 575.9,138.8 577.8,140.7 579.6,142.7 581.5,144.7 583.4,146.9
585.2,149.1 587.1,151.3 589.0,153.6 590.9,156.0 592.7,158.4 594.6,160.8 596.5,163.2 598.3,165.7 600.2,168.1 602.1,170.5 604.0,173.0 605.8,175.4 607.7,177.9 609.6,180.3 611.4,182.7 613.3,185.1
615.2,187.6 617.0,190.0 618.9,192.4 620.8,194.9 622.7,197.4 624.5,199.9 626.4,202.4 628.3,204.9 630.1,207.5 632.0,210.1 633.9,212.8 635.8,215.5 637.6,218.2 639.5,221.0 641.4,223.8 643.2,226.7
645.1,229.6 647.0,232.5 648.8,235.5 650.7,238.5 652.6,241.5 654.5,244.6 656.3,247.7 658.2,250.8 660.1,253.9 661.9,257.0 663.8,260.2 665.7,263.3 667.5,266.4 669.4,269.6 671.3,272.7 673.2,275.8
675.0,279.0 676.9,282.1 678.8,285.1 680.6,288.2 682.5,291.2 684.4,294.2 686.3,297.2 688.1,300.1 690.0,303.0 691.9,305.9 693.7,308.7 695.6,311.4 697.5,314.2 699.3,316.8 701.2,319.5 703.1,322.1
705.0,324.7 706.8,327.2 708.7,329.7 710.6,332.2 712.4,334.7 714.3,337.2 716.2,339.6 718.1,342.1 719.9,344.6 721.8,347.0 723.7,349.6 725.5,352.1 727.4,354.6 729.3,357.2 731.1,359.9 733.0,362.5
734.9,365.2 736.8,368.0 738.6,370.8 740.5,373.7 742.4,376.6 744.2,379.5 746.1,382.5 748.0,385.5 749.9,388.5 751.7,391.6 753.6,394.7 755.5,397.8 757.3,401.0 759.2,404.1 761.1,407.3 762.9,410.5
764.8,413.6 766.7,416.8 768.6,419.9 770.4,423.1 772.3,426.2 774.2,429.3 776.0,432.3 777.9,435.4 779.8,438.4 781.7,441.4 783.5,444.3 785.4,447.2 787.3,450.0 789.1,452.8 791.0,455.6 792.9,458.3
794.7,460.9 796.6,463.5 798.5,466.0 800.4,468.5 802.2,470.9 804.1,473.3 806.0,475.7 807.8,478.0 809.7,480.3 811.6,482.6 813.5,484.8 815.3,487.0 817.2,489.3 819.1,491.5 820.9,493.7 822.8,495.9
824.7,498.2 826.5,500.4 828.4,502.6 830.3,504.9 832.2,507.1 834.0,509.4 835.9,511.6 837.8,513.9 839.6,516.1 841.5,518.3 843.4,520.5 845.3,522.6 847.1,524.7 849.0,526.8 850.9,528.8 852.7,530.8
854.6,532.8 856.5,534.7 858.3,536.6 860.2,538.5 862.1,540.3 864.0,542.1 865.8,543.8 867.7,545.5 869.6,547.2 871.4,548.9 873.3,550.5 875.2,552.1 877.1,553.7 878.9,555.2 880.8,556.8 882.7,558.3
884.5,559.7 886.4,561.2 888.3,562.7 890.1,564.1 892.0,565.5 893.9,566.8 895.8,568.2 897.6,569.5 899.5,570.9 901.4,572.2 903.2,573.5 905.1,574.7 907.0,576.0 908.8,577.2 910.7,578.5 912.6,579.7
914.5,580.9 916.3,582.1 918.2,583.3 920.1,584.5 921.9,585.6 923.8,586.8 925.7,587.9 925.7,662.4 923.8,662.4 921.9,662.4 920.1,662.4 918.2,662.4 916.3,662.4 914.5,662.4 912.6,662.4 910.7,662.4
908.8,662.4 907.0,662.4 905.1,662.4 903.2,662.4 901.4,662.4 899.5,662.4 897.6,662.4 895.8,662.4 893.9,662.4 892.0,662.4 890.1,662.4 888.3,662.4 886.4,662.4 884.5,662.4 882.7,662.4 880.8,662.4
878.9,662.4 877.1,662.4 875.2,662.4 873.3,662.4 871.4,662.4 869.6,662.4 867.7,662.4 865.8,662.4 864.0,662.4 862.1,662.4 860.2,662.4 858.3,662.4 856.5,662.4 854.6,662.4 852.7,662.4 850.9,662.4
849.0,662.4 847.1,662.4 845.3,662.4 843.4,662.4 841.5,662.4 839.6,662.4 837.8,662.4 835.9,662.4 834.0,662.4 832.2,662.4 830.3,662.4 828.4,662.4 826.5,662.4 824.7,662.4 822.8,662.4 820.9,662.4
819.1,662.4 817.2,662.4 815.3,662.4 813.5,662.4 811.6,662.4 809.7,662.4 807.8,662.4 806.0,662.4 804.1,662.4 802.2,662.4 800.4,662.4 798.5,662.4 796.6,662.4 794.7,662.4 792.9,662.4 791.0,662.4
789.1,662.4 787.3,662.4 785.4,662.4 783.5,662.4 781.7,662.4 779.8,662.4 777.9,662.4 776.0,662.4 774.2,662.4 772.3,662.4 770.4,662.4 768.6,662.4 766.7,662.4 764.8,662.4 762.9,662.4 761.1,662.4
759.2,662.4 757.3,662.4 755.5,662.4 753.6,662.4 751.7,662.4 749.9,662.4 748.0,662.4 746.1,662.4 744.2,662.4 742.4,662.4 740.5,662.4 738.6,662.4 736.8,662.4 734.9,662.4 733.0,662.4 731.1,662.4
729.3,662.4 727.4,662.4 725.5,662.4 723.7,662.4 721.8,662.4 719.9,662.4 718.1,662.4 716.2,662.4 714.3,662.4 712.4,662.4 710.6,662.4 708.7,662.4 706.8,662.4 705.0,662.4 703.1,662.4 701.2,662.4
699.3,662.4 697.5,662.4 695.6,662.4 693.7,662.4 691.9,662.4 690.0,662.4 688.1,662.4 686.3,662.4 684.4,662.4 682.5,662.4 680.6,662.4 678.8,662.4 676.9,662.4 675.0,662.4 673.2,662.4 671.3,662.4
669.4,662.4 667.5,662.4 665.7,662.4 663.8,662.4 661.9,662.4 660.1,662.4 658.2,662.4 656.3,662.4 654.5,662.4 652.6,662.4 650.7,662.4 648.8,662.4 647.0,662.4 645.1,662.4 643.2,662.4 641.4,662.4
639.5,662.4 637.6,662.4 635.8,662.4 633.9,662.4 632.0,662.4 630.1,662.4 628.3,662.4 626.4,662.4 624.5,662.4 622.7,662.4 620.8,662.4 618.9,662.4 617.0,662.4 615.2,662.4 613.3,662.4 611.4,662.4
609.6,662.4 607.7,662.4 605.8,662.4 604.0,662.4 602.1,662.4 600.2,662.4 598.3,662.4 596.5,662.4 594.6,662.4 592.7,662.4 590.9,662.4 589.0,662.4 587.1,662.4 585.2,662.4 583.4,662.4 581.5,662.4
579.6,662.4 577.8,662.4 575.9,662.4 574.0,662.4 572.2,662.4 570.3,662.4 568.4,662.4 566.5,662.4 564.7,662.4 562.8,662.4 560.9,662.4 559.1,662.4 557.2,662.4 555.3,662.4 553.4,662.4 551.6,662.4
549.7,662.4 547.8,662.4 546.0,662.4 544.1,662.4 542.2,662.4 540.4,662.4 538.5,662.4 536.6,662.4 534.7,662.4 532.9,662.4 531.0,662.4 529.1,662.4 527.3,662.4 525.4,662.4 523.5,662.4 521.6,662.4
519.8,662.4 517.9,662.4 516.0,662.4 514.2,662.4 512.3,662.4 510.4,662.4 508.6,662.4 506.7,662.4 504.8,662.4 502.9,662.4 501.1,662.4 499.2,662.4 497.3,662.4 495.5,662.4 493.6,662.4 491.7,662.4
489.8,662.4 488.0,662.4 486.1,662.4 484.2,662.4 482.4,662.4 480.5,662.4 478.6,662.4 476.8,662.4 474.9,662.4 473.0,662.4 471.1,662.4 469.3,662.4 467.4,662.4 465.5,662.4 463.7,662.4 461.8,662.4
459.9,662.4 458.0,662.4 456.2,662.4 454.3,662.4 452.4,662.4 450.6,662.4 448.7,662.4 446.8,662.4 445.0,662.4 443.1,662.4 441.2,662.4 439.3,662.4 437.5,662.4 435.6,662.4 433.7,662.4 431.9,662.4
430.0,662.4 428.1,662.4 426.3,662.4 424.4,662.4 422.5,662.4 420.6,662.4 418.8,662.4 416.9,662.4 415.0,662.4 413.2,662.4 411.3,662.4 409.4,662.4 407.5,662.4 405.7,662.4 403.8,662.4 401.9,662.4
400.1,662.4 398.2,662.4 396.3,662.4 394.5,662.4 392.6,662.4 390.7,662.4 388.8,662.4 387.0,662.4 385.1,662.4 383.2,662.4 381.4,662.4 379.5,662.4 377.6,662.4 375.7,662.4 373.9,662.4 372.0,662.4
370.1,662.4 368.3,662.4 366.4,662.4 364.5,662.4 362.7,662.4 360.8,662.4 358.9,662.4 357.0,662.4 355.2,662.4 353.3,662.4 351.4,662.4 349.6,662.4 347.7,662.4 345.8,662.4 343.9,662.4 342.1,662.4
340.2,662.4 338.3,662.4 336.5,662.4 334.6,662.4 332.7,662.4 330.9,662.4 329.0,662.4 327.1,662.4 325.2,662.4 323.4,662.4 321.5,662.4 319.6,662.4 317.8,662.4 315.9,662.4 314.0,662.4 312.1,662.4
310.3,662.4 308.4,662.4 306.5,662.4 304.7,662.4 302.8,662.4 300.9,662.4 299.1,662.4 297.2,662.4 295.3,662.4 293.4,662.4 291.6,662.4 289.7,662.4 287.8,662.4 286.0,662.4 284.1,662.4 282.2,662.4
280.3,662.4 278.5,662.4 276.6,662.4 274.7,662.4 272.9,662.4 271.0,662.4 269.1,662.4 267.3,662.4 265.4,662.4 263.5,662.4 261.6,662.4 259.8,662.4 257.9,662.4 256.0,662.4 254.2,662.4 252.3,662.4
250.4,662.4 248.5,662.4 246.7,662.4 244.8,662.4 242.9,662.4 241.1,662.4 239.2,662.4 237.3,662.4 235.5,662.4 233.6,662.4 231.7,662.4 229.8,662.4 228.0,662.4 226.1,662.4 224.2,662.4 222.4,662.4
220.5,662.4 218.6,662.4 216.7,662.4 214.9,662.4 213.0,662.4 211.1,662.4 209.3,662.4 207.4,662.4 205.5,662.4 203.7,662.4 201.8,662.4 199.9,662.4 198.0,662.4 196.2,662.4 194.3,662.4 192.4,662.4
190.6,662.4 188.7,662.4 186.8,662.4 185.0,662.4 183.1,662.4 181.2,662.4 179.3,662.4 177.5,662.4 175.6,662.4 173.7,662.4 171.9,662.4 170.0,662.4 168.1,662.4 166.2,662.4 '/>
	</g>
</g>
	</g>
	<g id="gnuplot_plot_3" ><title>Point estimate</title>
<g fill="none" color="white" stroke="rgb( 31, 120, 180)" stroke-width="2.00" stroke-linecap="butt" stroke-linejoin="miter">
</g>
<g fill="none" color="black" stroke="currentColor" stroke-width="2.00" stroke-linecap="butt" stroke-linejoin="miter">
	<g transform="translate(1089.0,103.0)" stroke="none" fill="black" font-family="Helvetica" font-size="12.00"  text-anchor="start">
		<text><tspan font-family="Helvetica" >Point estimate</tspan></text>
	</g>
</g>
<g fill="none" color="black" stroke="currentColor" stroke-width="2.00" stroke-linecap="butt" stroke-linejoin="miter">
	<path stroke='rgb( 31, 120, 180)'  d='M1038.5,99.1 L1080.7,99.1 M524.7,662.4 L524.7,108.8  '/></g>
	</g>
<g fill="none" color="black" stroke="currentColor" stroke-width="2.00" stroke-linecap="butt" stroke-linejoin="miter">
</g>
<g fill="none" color="black" stroke="black" stroke-width="1.00" stroke-linecap="butt" stroke-linejoin="miter">
</g>
<g fill="none" color="black" stroke="currentColor" stroke-width="1.00" stroke-linecap="butt" stroke-linejoin="miter">
	<path stroke='black'  d='M80.2,54.1 L80.2,662.4 L1013.6,662.4 L1013.6,54.1 L80.2,54.1 Z  '/></g>
<g fill="none" color="black" stroke="currentColor" stroke-width="1.00" stroke-linecap="butt" stroke-linejoin="miter">
</g>
</g>
</svg>

