<?xml version="1.0" encoding="utf-8"  standalone="no"?>
<svg 
 viewBox="0 0 1280 720"
 xmlns="http://www.w3.org/2000/svg"
 xmlns:xlink="http://www.w3.org/1999/xlink"
>

<title>Gnuplot</title>
<desc>Produced by GNUPLOT 5.2 patchlevel 6 </desc>

<g id="gnuplot_canvas">

<rect x="0" y="0" width="1280" height="720" fill="none"/>
<defs>

	<circle id='gpDot' r='0.5' stroke-width='0.5' stroke='currentColor'/>
	<path id='gpPt0' stroke-width='0.222' stroke='currentColor' d='M-1,0 h2 M0,-1 v2'/>
	<path id='gpPt1' stroke-width='0.222' stroke='currentColor' d='M-1,-1 L1,1 M1,-1 L-1,1'/>
	<path id='gpPt2' stroke-width='0.222' stroke='currentColor' d='M-1,0 L1,0 M0,-1 L0,1 M-1,-1 L1,1 M-1,1 L1,-1'/>
	<rect id='gpPt3' stroke-width='0.222' stroke='currentColor' x='-1' y='-1' width='2' height='2'/>
	<rect id='gpPt4' stroke-width='0.222' stroke='currentColor' fill='currentColor' x='-1' y='-1' width='2' height='2'/>
	<circle id='gpPt5' stroke-width='0.222' stroke='currentColor' cx='0' cy='0' r='1'/>
	<use xlink:href='#gpPt5' id='gpPt6' fill='currentColor' stroke='none'/>
	<path id='gpPt7' stroke-width='0.222' stroke='currentColor' d='M0,-1.33 L-1.33,0.67 L1.33,0.67 z'/>
	<use xlink:href='#gpPt7' id='gpPt8' fill='currentColor' stroke='none'/>
	<use xlink:href='#gpPt7' id='gpPt9' stroke='currentColor' transform='rotate(180)'/>
	<use xlink:href='#gpPt9' id='gpPt10' fill='currentColor' stroke='none'/>
	<use xlink:href='#gpPt3' id='gpPt11' stroke='currentColor' transform='rotate(45)'/>
	<use xlink:href='#gpPt11' id='gpPt12' fill='currentColor' stroke='none'/>
	<path id='gpPt13' stroke-width='0.222' stroke='currentColor' d='M0,1.330 L1.265,0.411 L0.782,-1.067 L-0.782,-1.076 L-1.265,0.411 z'/>
	<use xlink:href='#gpPt13' id='gpPt14' fill='currentColor' stroke='none'/>
	<filter id='textbox' filterUnits='objectBoundingBox' x='0' y='0' height='1' width='1'>
	  <feFlood flood-color='white' flood-opacity='1' result='bgnd'/>
	  <feComposite in='SourceGraphic' in2='bgnd' operator='atop'/>
	</filter>
	<filter id='greybox' filterUnits='objectBoundingBox' x='0' y='0' height='1' width='1'>
	  <feFlood flood-color='lightgrey' flood-opacity='1' result='grey'/>
	  <feComposite in='SourceGraphic' in2='grey' operator='atop'/>
	</filter>
</defs>
<g fill="none" color="white" stroke="currentColor" stroke-width="1.00" stroke-linecap="butt" stroke-linejoin="miter">
</g>
<g fill="none" color="black" stroke="currentColor" stroke-width="1.00" stroke-linecap="butt" stroke-linejoin="miter">
	<path stroke='black'  d='M71.9,662.4 L80.9,662.4  '/>	<g transform="translate(63.6,666.3)" stroke="none" fill="black" font-family="Helvetica" font-size="12.00"  text-anchor="end">
		<text><tspan font-family="Helvetica" > 0</tspan></text>
	</g>
</g>
<g fill="none" color="black" stroke="currentColor" stroke-width="1.00" stroke-linecap="butt" stroke-linejoin="miter">
	<path stroke='black'  d='M71.9,575.5 L80.9,575.5  '/>	<g transform="translate(63.6,579.4)" stroke="none" fill="black" font-family="Helvetica" font-size="12.00"  text-anchor="end">
		<text><tspan font-family="Helvetica" > 0.1</tspan></text>
	</g>
</g>
<g fill="none" color="black" stroke="currentColor" stroke-width="1.00" stroke-linecap="butt" stroke-linejoin="miter">
	<path stroke='black'  d='M71.9,488.6 L80.9,488.6  '/>	<g transform="translate(63.6,492.5)" stroke="none" fill="black" font-family="Helvetica" font-size="12.00"  text-anchor="end">
		<text><tspan font-family="Helvetica" > 0.2</tspan></text>
	</g>
</g>
<g fill="none" color="black" stroke="currentColor" stroke-width="1.00" stroke-linecap="butt" stroke-linejoin="miter">
	<path stroke='black'  d='M71.9,401.7 L80.9,401.7  '/>	<g transform="translate(63.6,405.6)" stroke="none" fill="black" font-family="Helvetica" font-size="12.00"  text-anchor="end">
		<text><tspan font-family="Helvetica" > 0.3</tspan></text>
	</g>
</g>
<g fill="none" color="black" stroke="currentColor" stroke-width="1.00" stroke-linecap="butt" stroke-linejoin="miter">
	<path stroke='black'  d='M71.9,314.8 L80.9,314.8  '/>	<g transform="translate(63.6,318.7)" stroke="none" fill="black" font-family="Helvetica" font-size="12.00"  text-anchor="end">
		<text><tspan font-family="Helvetica" > 0.4</tspan></text>
	</g>
</g>
<g fill="none" color="black" stroke="currentColor" stroke-width="1.00" stroke-linecap="butt" stroke-linejoin="miter">
	<path stroke='black'  d='M71.9,227.9 L80.9,227.9  '/>	<g transform="translate(63.6,231.8)" stroke="none" fill="black" font-family="Helvetica" font-size="12.00"  text-anchor="end">
		<text><tspan font-family="Helvetica" > 0.5</tspan></text>
	</g>
</g>
<g fill="none" color="black" stroke="currentColor" stroke-width="1.00" stroke-linecap="butt" stroke-linejoin="miter">
	<path stroke='black'  d='M71.9,141.0 L80.9,141.0  '/>	<g transform="translate(63.6,144.9)" stroke="none" fill="black" font-family="Helvetica" font-size="12.00"  text-anchor="end">
		<text><tspan font-family="Helvetica" > 0.6</tspan></text>
	</g>
</g>
<g fill="none" color="black" stroke="currentColor" stroke-width="1.00" stroke-linecap="butt" stroke-linejoin="miter">
	<path stroke='black'  d='M71.9,54.1 L80.9,54.1  '/>	<g transform="translate(63.6,58.0)" stroke="none" fill="black" font-family="Helvetica" font-size="12.00"  text-anchor="end">
		<text><tspan font-family="Helvetica" > 0.7</tspan></text>
	</g>
</g>
<g fill="none" color="black" stroke="currentColor" stroke-width="1.00" stroke-linecap="butt" stroke-linejoin="miter">
	<path stroke='black'  d='M133.9,662.4 L133.9,653.4  '/>	<g transform="translate(133.9,684.3)" stroke="none" fill="black" font-family="Helvetica" font-size="12.00"  text-anchor="middle">
		<text><tspan font-family="Helvetica" > 196</tspan></text>
	</g>
</g>
<g fill="none" color="black" stroke="currentColor" stroke-width="1.00" stroke-linecap="butt" stroke-linejoin="miter">
	<path stroke='black'  d='M233.9,662.4 L233.9,653.4  '/>	<g transform="translate(233.9,684.3)" stroke="none" fill="black" font-family="Helvetica" font-size="12.00"  text-anchor="middle">
		<text><tspan font-family="Helvetica" > 196.5</tspan></text>
	</g>
</g>
<g fill="none" color="black" stroke="currentColor" stroke-width="1.00" stroke-linecap="butt" stroke-linejoin="miter">
	<path stroke='black'  d='M333.9,662.4 L333.9,653.4  '/>	<g transform="translate(333.9,684.3)" stroke="none" fill="black" font-family="Helvetica" font-size="12.00"  text-anchor="middle">
		<text><tspan font-family="Helvetica" > 197</tspan></text>
	</g>
</g>
<g fill="none" color="black" stroke="currentColor" stroke-width="1.00" stroke-linecap="butt" stroke-linejoin="miter">
	<path stroke='black'  d='M433.9,662.4 L433.9,653.4  '/>	<g transform="translate(433.9,684.3)" stroke="none" fill="black" font-family="Helvetica" font-size="12.00"  text-anchor="middle">
		<text><tspan font-family="Helvetica" > 197.5</tspan></text>
	</g>
</g>
<g fill="none" color="black" stroke="currentColor" stroke-width="1.00" stroke-linecap="butt" stroke-linejoin="miter">
	<path stroke='black'  d='M533.9,662.4 L533.9,653.4  '/>	<g transform="translate(533.9,684.3)" stroke="none" fill="black" font-family="Helvetica" font-size="12.00"  text-anchor="middle">
		<text><tspan font-family="Helvetica" > 198</tspan></text>
	</g>
</g>
<g fill="none" color="black" stroke="currentColor" stroke-width="1.00" stroke-linecap="butt" stroke-linejoin="miter">
	<path stroke='black'  d='M633.9,662.4 L633.9,653.4  '/>	<g transform="translate(633.9,684.3)" stroke="none" fill="black" font-family="Helvetica" font-size="12.00"  text-anchor="middle">
		<text><tspan font-family="Helvetica" > 198.5</tspan></text>
	</g>
</g>
<g fill="none" color="black" stroke="currentColor" stroke-width="1.00" stroke-linecap="butt" stroke-linejoin="miter">
	<path stroke='black'  d='M734.0,662.4 L734.0,653.4  '/>	<g transform="translate(734.0,684.3)" stroke="none" fill="black" font-family="Helvetica" font-size="12.00"  text-anchor="middle">
		<text><tspan font-family="Helvetica" > 199</tspan></text>
	</g>
</g>
<g fill="none" color="black" stroke="currentColor" stroke-width="1.00" stroke-linecap="butt" stroke-linejoin="miter">
	<path stroke='black'  d='M834.0,662.4 L834.0,653.4  '/>	<g transform="translate(834.0,684.3)" stroke="none" fill="black" font-family="Helvetica" font-size="12.00"  text-anchor="middle">
		<text><tspan font-family="Helvetica" > 199.5</tspan></text>
	</g>
</g>
<g fill="none" color="black" stroke="currentColor" stroke-width="1.00" stroke-linecap="butt" stroke-linejoin="miter">
	<path stroke='black'  d='M934.0,662.4 L934.0,653.4  '/>	<g transform="translate(934.0,684.3)" stroke="none" fill="black" font-family="Helvetica" font-size="12.00"  text-anchor="middle">
		<text><tspan font-family="Helvetica" > 200</tspan></text>
	</g>
</g>
<g fill="none" color="black" stroke="currentColor" stroke-width="1.00" stroke-linecap="butt" stroke-linejoin="miter">
</g>
<g fill="none" color="black" stroke="currentColor" stroke-width="1.00" stroke-linecap="butt" stroke-linejoin="miter">
	<path stroke='black'  d='M71.9,54.1 L71.9,662.4 L1013.6,662.4 L1013.6,54.1 L71.9,54.1 Z  '/></g>
<g fill="none" color="black" stroke="currentColor" stroke-width="1.00" stroke-linecap="butt" stroke-linejoin="miter">
	<g transform="translate(16.3,358.3) rotate(270)" stroke="none" fill="black" font-family="Helvetica" font-size="12.00"  text-anchor="middle">
		<text><tspan font-family="Helvetica" >Density (a.u.)</tspan></text>
	</g>
</g>
<g fill="none" color="black" stroke="currentColor" stroke-width="1.00" stroke-linecap="butt" stroke-linejoin="miter">
	<g transform="translate(542.7,711.3)" stroke="none" fill="black" font-family="Helvetica" font-size="12.00"  text-anchor="middle">
		<text><tspan font-family="Helvetica" >Average time (ms)</tspan></text>
	</g>
</g>
<g fill="none" color="black" stroke="currentColor" stroke-width="1.00" stroke-linecap="butt" stroke-linejoin="miter">
	<g transform="translate(542.7,31.0)" stroke="none" fill="black" font-family="Helvetica" font-size="12.00"  text-anchor="middle">
		<text><tspan font-family="Helvetica" >get_bench/sled: median</tspan></text>
	</g>
</g>
	<g id="gnuplot_plot_1" ><title>Bootstrap distribution</title>
<g fill="none" color="white" stroke="black" stroke-width="2.00" stroke-linecap="butt" stroke-linejoin="miter">
</g>
<g fill="none" color="black" stroke="currentColor" stroke-width="2.00" stroke-linecap="butt" stroke-linejoin="miter">
	<g transform="translate(1089.0,67.0)" stroke="none" fill="black" font-family="Helvetica" font-size="12.00"  text-anchor="start">
		<text><tspan font-family="Helvetica" >Bootstrap distribution</tspan></text>
	</g>
</g>
<g fill="none" color="black" stroke="currentColor" stroke-width="2.00" stroke-linecap="butt" stroke-linejoin="miter">
	<path stroke='rgb( 31, 120, 180)'  d='M1038.5,63.1 L1080.7,63.1 M71.9,651.6 L73.8,651.6 L75.7,651.4 L77.6,651.2 L79.4,650.9 L81.3,650.6
		L83.2,650.2 L85.1,649.8 L87.0,649.3 L88.9,648.9 L90.8,648.5 L92.7,648.2 L94.5,647.8 L96.4,647.6
		L98.3,647.3 L100.2,647.2 L102.1,647.0 L104.0,646.9 L105.9,646.7 L107.8,646.6 L109.6,646.3 L111.5,645.9
		L113.4,645.4 L115.3,644.6 L117.2,643.7 L119.1,642.4 L121.0,640.9 L122.9,639.1 L124.7,636.9 L126.6,634.5
		L128.5,631.8 L130.4,628.7 L132.3,625.5 L134.2,622.1 L136.1,618.6 L138.0,615.1 L139.8,611.6 L141.7,608.3
		L143.6,605.3 L145.5,602.5 L147.4,600.2 L149.3,598.3 L151.2,596.9 L153.0,596.1 L154.9,595.9 L156.8,596.2
		L158.7,597.1 L160.6,598.4 L162.5,600.1 L164.4,602.2 L166.3,604.5 L168.1,606.9 L170.0,609.3 L171.9,611.6
		L173.8,613.7 L175.7,615.5 L177.6,617.0 L179.5,618.0 L181.4,618.6 L183.2,618.8 L185.1,618.5 L187.0,617.9
		L188.9,616.9 L190.8,615.7 L192.7,614.3 L194.6,612.8 L196.5,611.3 L198.3,609.9 L200.2,608.7 L202.1,607.6
		L204.0,606.8 L205.9,606.3 L207.8,606.0 L209.7,606.0 L211.6,606.2 L213.4,606.5 L215.3,606.9 L217.2,607.2
		L219.1,607.3 L221.0,607.3 L222.9,606.9 L224.8,606.1 L226.6,604.8 L228.5,602.9 L230.4,600.5 L232.3,597.4
		L234.2,593.8 L236.1,589.5 L238.0,584.7 L239.9,579.5 L241.7,573.9 L243.6,568.1 L245.5,562.0 L247.4,556.0
		L249.3,550.0 L251.2,544.1 L253.1,538.5 L255.0,533.3 L256.8,528.4 L258.7,524.0 L260.6,520.1 L262.5,516.6
		L264.4,513.7 L266.3,511.1 L268.2,508.9 L270.1,507.1 L271.9,505.6 L273.8,504.2 L275.7,503.0 L277.6,501.9
		L279.5,500.9 L281.4,499.8 L283.3,498.7 L285.2,497.4 L287.0,496.0 L288.9,494.5 L290.8,492.8 L292.7,490.8
		L294.6,488.7 L296.5,486.3 L298.4,483.6 L300.2,480.6 L302.1,477.3 L304.0,473.7 L305.9,469.6 L307.8,465.0
		L309.7,460.0 L311.6,454.4 L313.5,448.3 L315.3,441.5 L317.2,434.2 L319.1,426.3 L321.0,417.8 L322.9,408.7
		L324.8,399.2 L326.7,389.3 L328.6,379.1 L330.4,368.8 L332.3,358.4 L334.2,348.1 L336.1,338.0 L338.0,328.3
		L339.9,318.9 L341.8,310.1 L343.7,301.8 L345.5,294.0 L347.4,286.7 L349.3,279.9 L351.2,273.5 L353.1,267.4
		L355.0,261.6 L356.9,255.9 L358.8,250.3 L360.6,244.8 L362.5,239.4 L364.4,234.1 L366.3,229.1 L368.2,224.4
		L370.1,220.2 L372.0,216.8 L373.8,214.3 L375.7,213.0 L377.6,213.2 L379.5,215.0 L381.4,218.6 L383.3,224.1
		L385.2,231.5 L387.1,240.8 L388.9,251.8 L390.8,264.4 L392.7,278.2 L394.6,293.0 L396.5,308.3 L398.4,323.8
		L400.3,339.1 L402.2,353.7 L404.0,367.5 L405.9,380.0 L407.8,391.2 L409.7,400.9 L411.6,409.0 L413.5,415.5
		L415.4,420.7 L417.3,424.6 L419.1,427.4 L421.0,429.4 L422.9,430.8 L424.8,431.8 L426.7,432.5 L428.6,433.1
		L430.5,433.6 L432.4,434.2 L434.2,434.9 L436.1,435.5 L438.0,436.1 L439.9,436.6 L441.8,436.9 L443.7,436.9
		L445.6,436.6 L447.4,435.9 L449.3,434.9 L451.2,433.5 L453.1,431.9 L455.0,430.0 L456.9,428.0 L458.8,426.0
		L460.7,424.0 L462.5,422.1 L464.4,420.3 L466.3,418.6 L468.2,417.1 L470.1,415.7 L472.0,414.3 L473.9,412.9
		L475.8,411.4 L477.6,409.6 L479.5,407.5 L481.4,405.1 L483.3,402.2 L485.2,398.7 L487.1,394.7 L489.0,390.1
		L490.9,384.8 L492.7,378.8 L494.6,372.1 L496.5,364.7 L498.4,356.6 L500.3,347.7 L502.2,338.0 L504.1,327.6
		L506.0,316.4 L507.8,304.6 L509.7,292.1 L511.6,279.1 L513.5,265.8 L515.4,252.2 L517.3,238.6 L519.2,225.2
		L521.0,212.1 L522.9,199.7 L524.8,188.1 L526.7,177.4 L528.6,167.9 L530.5,159.6 L532.4,152.6 L534.3,147.0
		L536.1,142.6 L538.0,139.4 L539.9,137.3 L541.8,136.2 L543.7,135.9 L545.6,136.2 L547.5,137.0 L549.4,138.1
		L551.2,139.3 L553.1,140.7 L555.0,142.0 L556.9,143.3 L558.8,144.5 L560.7,145.7 L562.6,146.8 L564.5,148.1
		L566.3,149.5 L568.2,151.1 L570.1,153.1 L572.0,155.5 L573.9,158.4 L575.8,161.8 L577.7,165.8 L579.5,170.4
		L581.4,175.5 L583.3,181.1 L585.2,187.0 L587.1,193.2 L589.0,199.5 L590.9,205.8 L592.8,211.9 L594.6,217.5
		L596.5,222.6 L598.4,227.0 L600.3,230.4 L602.2,232.8 L604.1,233.9 L606.0,233.7 L607.9,232.1 L609.7,228.9
		L611.6,224.1 L613.5,217.7 L615.4,209.7 L617.3,200.1 L619.2,189.1 L621.1,176.9 L623.0,163.6 L624.8,149.5
		L626.7,135.1 L628.6,120.7 L630.5,106.7 L632.4,93.6 L634.3,82.0 L636.2,72.2 L638.1,64.8 L639.9,60.1
		L641.8,58.6 L643.7,60.3 L645.6,65.6 L647.5,74.4 L649.4,86.7 L651.3,102.2 L653.1,120.8 L655.0,141.9
		L656.9,165.3 L658.8,190.4 L660.7,216.7 L662.6,243.7 L664.5,270.8 L666.4,297.7 L668.2,323.8 L670.1,349.0
		L672.0,372.8 L673.9,395.1 L675.8,415.7 L677.7,434.7 L679.6,451.9 L681.5,467.4 L683.3,481.3 L685.2,493.8
		L687.1,504.9 L689.0,514.7 L690.9,523.5 L692.8,531.4 L694.7,538.4 L696.6,544.8 L698.4,550.5 L700.3,555.8
		L702.2,560.7 L704.1,565.2 L706.0,569.4 L707.9,573.4 L709.8,577.3 L711.7,580.9 L713.5,584.5 L715.4,588.0
		L717.3,591.4 L719.2,594.8 L721.1,598.2 L723.0,601.5 L724.9,604.9 L726.7,608.3 L728.6,611.7 L730.5,615.1
		L732.4,618.5 L734.3,621.9 L736.2,625.2 L738.1,628.5 L740.0,631.6 L741.8,634.7 L743.7,637.6 L745.6,640.3
		L747.5,642.8 L749.4,645.1 L751.3,647.2 L753.2,649.0 L755.1,650.6 L756.9,652.0 L758.8,653.0 L760.7,653.9
		L762.6,654.4 L764.5,654.8 L766.4,654.9 L768.3,654.9 L770.2,654.6 L772.0,654.2 L773.9,653.7 L775.8,652.9
		L777.7,652.1 L779.6,651.2 L781.5,650.1 L783.4,649.0 L785.3,647.8 L787.1,646.5 L789.0,645.1 L790.9,643.7
		L792.8,642.2 L794.7,640.7 L796.6,639.2 L798.5,637.6 L800.3,636.1 L802.2,634.5 L804.1,632.9 L806.0,631.4
		L807.9,629.8 L809.8,628.4 L811.7,627.0 L813.6,625.8 L815.4,624.7 L817.3,623.7 L819.2,622.9 L821.1,622.3
		L823.0,622.0 L824.9,621.8 L826.8,621.9 L828.7,622.3 L830.5,622.9 L832.4,623.7 L834.3,624.8 L836.2,626.1
		L838.1,627.6 L840.0,629.2 L841.9,631.0 L843.8,632.8 L845.6,634.8 L847.5,636.7 L849.4,638.7 L851.3,640.7
		L853.2,642.7 L855.1,644.5 L857.0,646.4 L858.9,648.1 L860.7,649.7 L862.6,651.2 L864.5,652.6 L866.4,653.8
		L868.3,654.9 L870.2,655.9 L872.1,656.8 L873.9,657.6 L875.8,658.2 L877.7,658.8 L879.6,659.2 L881.5,659.5
		L883.4,659.6 L885.3,659.7 L887.2,659.6 L889.0,659.5 L890.9,659.2 L892.8,658.7 L894.7,658.2 L896.6,657.5
		L898.5,656.6 L900.4,655.6 L902.3,654.4 L904.1,653.1 L906.0,651.7 L907.9,650.0 L909.8,648.3 L911.7,646.4
		L913.6,644.5 L915.5,642.4 L917.4,640.3 L919.2,638.1 L921.1,635.9 L923.0,633.7 L924.9,631.5 L926.8,629.3
		L928.7,627.2 L930.6,625.2 L932.5,623.3 L934.3,621.4 L936.2,619.7 L938.1,618.0 L940.0,616.5 L941.9,615.1
		L943.8,613.8 L945.7,612.7 L947.5,611.6 L949.4,610.7 L951.3,610.0 L953.2,609.4 L955.1,608.9 L957.0,608.7
		L958.9,608.6 L960.8,608.8 L962.6,609.1 L964.5,609.6 L966.4,610.4 L968.3,611.4 L970.2,612.6 L972.1,614.0
		L974.0,615.6 L975.9,617.3 L977.7,619.2 L979.6,621.2 L981.5,623.3 L983.4,625.4 L985.3,627.6 L987.2,629.7
		L989.1,631.9 L991.0,633.9 L992.8,635.9 L994.7,637.8 L996.6,639.6 L998.5,641.3 L1000.4,642.9 L1002.3,644.3
		L1004.2,645.6 L1006.1,646.8 L1007.9,647.9 L1009.8,648.9 L1011.7,649.8 L1013.6,650.6  '/></g>
	</g>
	<g id="gnuplot_plot_2" ><title>Confidence interval</title>
<g fill="none" color="white" stroke="rgb( 31, 120, 180)" stroke-width="1.00" stroke-linecap="butt" stroke-linejoin="miter">
</g>
<g fill="none" color="black" stroke="currentColor" stroke-width="1.00" stroke-linecap="butt" stroke-linejoin="miter">
	<g transform="translate(1089.0,85.0)" stroke="none" fill="black" font-family="Helvetica" font-size="12.00"  text-anchor="start">
		<text><tspan font-family="Helvetica" >Confidence interval</tspan></text>
	</g>
</g>
<g fill="none" color="black" stroke="currentColor" stroke-width="1.00" stroke-linecap="butt" stroke-linejoin="miter">
	<g stroke='none' shape-rendering='crispEdges'>
		<polygon fill = 'rgb( 31, 120, 180)' fill-opacity = '0.250000' points = '1038.5,85.6 1080.7,85.6 1080.7,76.6 1038.5,76.6 '/>
		<polygon fill = 'rgb( 31, 120, 180)' fill-opacity = '0.250000' points = '158.7,597.1 160.6,598.4 162.5,600.1 164.4,602.2 166.3,604.5 168.1,606.9 170.0,609.3 171.9,611.6 173.8,613.7 175.7,615.5 177.6,617.0 179.5,618.0 181.4,618.6 183.2,618.8 185.1,618.5 187.0,617.9
188.9,616.9 190.8,615.7 192.7,614.3 194.6,612.8 196.5,611.3 198.3,609.9 200.2,608.7 202.1,607.6 204.0,606.8 205.9,606.3 207.8,606.0 209.7,606.0 211.6,606.2 213.4,606.5 215.3,606.9 217.2,607.2
219.1,607.3 221.0,607.3 222.9,606.9 224.8,606.1 226.6,604.8 228.5,602.9 230.4,600.5 232.3,597.4 234.2,593.8 236.1,589.5 238.0,584.7 239.9,579.5 241.7,573.9 243.6,568.1 245.5,562.0 247.4,556.0
249.3,550.0 251.2,544.1 253.1,538.5 255.0,533.3 256.8,528.4 258.7,524.0 260.6,520.1 262.5,516.6 264.4,513.7 266.3,511.1 268.2,508.9 270.1,507.1 271.9,505.6 273.8,504.2 275.7,503.0 277.6,501.9
279.5,500.9 281.4,499.8 283.3,498.7 285.2,497.4 287.0,496.0 288.9,494.5 290.8,492.8 292.7,490.8 294.6,488.7 296.5,486.3 298.4,483.6 300.2,480.6 302.1,477.3 304.0,473.7 305.9,469.6 307.8,465.0
309.7,460.0 311.6,454.4 313.5,448.3 315.3,441.5 317.2,434.2 319.1,426.3 321.0,417.8 322.9,408.7 324.8,399.2 326.7,389.3 328.6,379.1 330.4,368.8 332.3,358.4 334.2,348.1 336.1,338.0 338.0,328.3
339.9,318.9 341.8,310.1 343.7,301.8 345.5,294.0 347.4,286.7 349.3,279.9 351.2,273.5 353.1,267.4 355.0,261.6 356.9,255.9 358.8,250.3 360.6,244.8 362.5,239.4 364.4,234.1 366.3,229.1 368.2,224.4
370.1,220.2 372.0,216.8 373.8,214.3 375.7,213.0 377.6,213.2 379.5,215.0 381.4,218.6 383.3,224.1 385.2,231.5 387.1,240.8 388.9,251.8 390.8,264.4 392.7,278.2 394.6,293.0 396.5,308.3 398.4,323.8
400.3,339.1 402.2,353.7 404.0,367.5 405.9,380.0 407.8,391.2 409.7,400.9 411.6,409.0 413.5,415.5 415.4,420.7 417.3,424.6 419.1,427.4 421.0,429.4 422.9,430.8 424.8,431.8 426.7,432.5 428.6,433.1
430.5,433.6 432.4,434.2 434.2,434.9 436.1,435.5 438.0,436.1 439.9,436.6 441.8,436.9 443.7,436.9 445.6,436.6 447.4,435.9 449.3,434.9 451.2,433.5 453.1,431.9 455.0,430.0 456.9,428.0 458.8,426.0
460.7,424.0 462.5,422.1 464.4,420.3 466.3,418.6 468.2,417.1 470.1,415.7 472.0,414.3 473.9,412.9 475.8,411.4 477.6,409.6 479.5,407.5 481.4,405.1 483.3,402.2 485.2,398.7 487.1,394.7 489.0,390.1
490.9,384.8 492.7,378.8 494.6,372.1 496.5,364.7 498.4,356.6 500.3,347.7 502.2,338.0 504.1,327.6 506.0,316.4 507.8,304.6 509.7,292.1 511.6,279.1 513.5,265.8 515.4,252.2 517.3,238.6 519.2,225.2
521.0,212.1 522.9,199.7 524.8,188.1 526.7,177.4 528.6,167.9 530.5,159.6 532.4,152.6 534.3,147.0 536.1,142.6 538.0,139.4 539.9,137.3 541.8,136.2 543.7,135.9 545.6,136.2 547.5,137.0 549.4,138.1
551.2,139.3 553.1,140.7 555.0,142.0 556.9,143.3 558.8,144.5 560.7,145.7 562.6,146.8 564.5,148.1 566.3,149.5 568.2,151.1 570.1,153.1 572.0,155.5 573.9,158.4 575.8,161.8 577.7,165.8 579.5,170.4
581.4,175.5 583.3,181.1 585.2,187.0 587.1,193.2 589.0,199.5 590.9,205.8 592.8,211.9 594.6,217.5 596.5,222.6 598.4,227.0 600.3,230.4 602.2,232.8 604.1,233.9 606.0,233.7 607.9,232.1 609.7,228.9
611.6,224.1 613.5,217.7 615.4,209.7 617.3,200.1 619.2,189.1 621.1,176.9 623.0,163.6 624.8,149.5 626.7,135.1 628.6,120.7 630.5,106.7 632.4,93.6 634.3,82.0 636.2,72.2 638.1,64.8 639.9,60.1
641.8,58.6 643.7,60.3 645.6,65.6 647.5,74.4 649.4,86.7 651.3,102.2 653.1,120.8 655.0,141.9 656.9,165.3 658.8,190.4 660.7,216.7 662.6,243.7 664.5,270.8 666.4,297.7 668.2,323.8 670.1,349.0
672.0,372.8 673.9,395.1 675.8,415.7 677.7,434.7 679.6,451.9 681.5,467.4 683.3,481.3 685.2,493.8 687.1,504.9 689.0,514.7 690.9,523.5 692.8,531.4 694.7,538.4 696.6,544.8 698.4,550.5 700.3,555.8
702.2,560.7 704.1,565.2 706.0,569.4 707.9,573.4 709.8,577.3 711.7,580.9 713.5,584.5 715.4,588.0 717.3,591.4 719.2,594.8 721.1,598.2 723.0,601.5 724.9,604.9 726.7,608.3 728.6,611.7 730.5,615.1
732.4,618.5 734.3,621.9 736.2,625.2 738.1,628.5 740.0,631.6 741.8,634.7 743.7,637.6 745.6,640.3 747.5,642.8 749.4,645.1 751.3,647.2 753.2,649.0 755.1,650.6 756.9,652.0 758.8,653.0 760.7,653.9
762.6,654.4 764.5,654.8 766.4,654.9 768.3,654.9 770.2,654.6 772.0,654.2 773.9,653.7 775.8,652.9 777.7,652.1 779.6,651.2 781.5,650.1 783.4,649.0 785.3,647.8 787.1,646.5 789.0,645.1 790.9,643.7
792.8,642.2 794.7,640.7 796.6,639.2 798.5,637.6 800.3,636.1 802.2,634.5 804.1,632.9 806.0,631.4 807.9,629.8 809.8,628.4 811.7,627.0 813.6,625.8 815.4,624.7 817.3,623.7 819.2,622.9 821.1,622.3
823.0,622.0 824.9,621.8 826.8,621.9 828.7,622.3 830.5,622.9 832.4,623.7 834.3,624.8 836.2,626.1 838.1,627.6 840.0,629.2 841.9,631.0 843.8,632.8 845.6,634.8 847.5,636.7 849.4,638.7 851.3,640.7
853.2,642.7 855.1,644.5 857.0,646.4 858.9,648.1 860.7,649.7 862.6,651.2 864.5,652.6 866.4,653.8 868.3,654.9 870.2,655.9 872.1,656.8 873.9,657.6 875.8,658.2 877.7,658.8 879.6,659.2 881.5,659.5
883.4,659.6 885.3,659.7 887.2,659.6 889.0,659.5 890.9,659.2 892.8,658.7 894.7,658.2 896.6,657.5 898.5,656.6 900.4,655.6 902.3,654.4 904.1,653.1 906.0,651.7 907.9,650.0 909.8,648.3 911.7,646.4
913.6,644.5 915.5,642.4 917.4,640.3 919.2,638.1 921.1,635.9 923.0,633.7 924.9,631.5 924.9,662.4 923.0,662.4 921.1,662.4 919.2,662.4 917.4,662.4 915.5,662.4 913.6,662.4 911.7,662.4 909.8,662.4
907.9,662.4 906.0,662.4 904.1,662.4 902.3,662.4 900.4,662.4 898.5,662.4 896.6,662.4 894.7,662.4 892.8,662.4 890.9,662.4 889.0,662.4 887.2,662.4 885.3,662.4 883.4,662.4 881.5,662.4 879.6,662.4
877.7,662.4 875.8,662.4 873.9,662.4 872.1,662.4 870.2,662.4 868.3,662.4 866.4,662.4 864.5,662.4 862.6,662.4 860.7,662.4 858.9,662.4 857.0,662.4 855.1,662.4 853.2,662.4 851.3,662.4 849.4,662.4
847.5,662.4 845.6,662.4 843.8,662.4 841.9,662.4 840.0,662.4 838.1,662.4 836.2,662.4 834.3,662.4 832.4,662.4 830.5,662.4 828.7,662.4 826.8,662.4 824.9,662.4 823.0,662.4 821.1,662.4 819.2,662.4
817.3,662.4 815.4,662.4 813.6,662.4 811.7,662.4 809.8,662.4 807.9,662.4 806.0,662.4 804.1,662.4 802.2,662.4 800.3,662.4 798.5,662.4 796.6,662.4 794.7,662.4 792.8,662.4 790.9,662.4 789.0,662.4
787.1,662.4 785.3,662.4 783.4,662.4 781.5,662.4 779.6,662.4 777.7,662.4 775.8,662.4 773.9,662.4 772.0,662.4 770.2,662.4 768.3,662.4 766.4,662.4 764.5,662.4 762.6,662.4 760.7,662.4 758.8,662.4
756.9,662.4 755.1,662.4 753.2,662.4 751.3,662.4 749.4,662.4 747.5,662.4 745.6,662.4 743.7,662.4 741.8,662.4 740.0,662.4 738.1,662.4 736.2,662.4 734.3,662.4 732.4,662.4 730.5,662.4 728.6,662.4
726.7,662.4 724.9,662.4 723.0,662.4 721.1,662.4 719.2,662.4 717.3,662.4 715.4,662.4 713.5,662.4 711.7,662.4 709.8,662.4 707.9,662.4 706.0,662.4 704.1,662.4 702.2,662.4 700.3,662.4 698.4,662.4
696.6,662.4 694.7,662.4 692.8,662.4 690.9,662.4 689.0,662.4 687.1,662.4 685.2,662.4 683.3,662.4 681.5,662.4 679.6,662.4 677.7,662.4 675.8,662.4 673.9,662.4 672.0,662.4 670.1,662.4 668.2,662.4
666.4,662.4 664.5,662.4 662.6,662.4 660.7,662.4 658.8,662.4 656.9,662.4 655.0,662.4 653.1,662.4 651.3,662.4 649.4,662.4 647.5,662.4 645.6,662.4 643.7,662.4 641.8,662.4 639.9,662.4 638.1,662.4
636.2,662.4 634.3,662.4 632.4,662.4 630.5,662.4 628.6,662.4 626.7,662.4 624.8,662.4 623.0,662.4 621.1,662.4 619.2,662.4 617.3,662.4 615.4,662.4 613.5,662.4 611.6,662.4 609.7,662.4 607.9,662.4
606.0,662.4 604.1,662.4 602.2,662.4 600.3,662.4 598.4,662.4 596.5,662.4 594.6,662.4 592.8,662.4 590.9,662.4 589.0,662.4 587.1,662.4 585.2,662.4 583.3,662.4 581.4,662.4 579.5,662.4 577.7,662.4
575.8,662.4 573.9,662.4 572.0,662.4 570.1,662.4 568.2,662.4 566.3,662.4 564.5,662.4 562.6,662.4 560.7,662.4 558.8,662.4 556.9,662.4 555.0,662.4 553.1,662.4 551.2,662.4 549.4,662.4 547.5,662.4
545.6,662.4 543.7,662.4 541.8,662.4 539.9,662.4 538.0,662.4 536.1,662.4 534.3,662.4 532.4,662.4 530.5,662.4 528.6,662.4 526.7,662.4 524.8,662.4 522.9,662.4 521.0,662.4 519.2,662.4 517.3,662.4
515.4,662.4 513.5,662.4 511.6,662.4 509.7,662.4 507.8,662.4 506.0,662.4 504.1,662.4 502.2,662.4 500.3,662.4 498.4,662.4 496.5,662.4 494.6,662.4 492.7,662.4 490.9,662.4 489.0,662.4 487.1,662.4
485.2,662.4 483.3,662.4 481.4,662.4 479.5,662.4 477.6,662.4 475.8,662.4 473.9,662.4 472.0,662.4 470.1,662.4 468.2,662.4 466.3,662.4 464.4,662.4 462.5,662.4 460.7,662.4 458.8,662.4 456.9,662.4
455.0,662.4 453.1,662.4 451.2,662.4 449.3,662.4 447.4,662.4 445.6,662.4 443.7,662.4 441.8,662.4 439.9,662.4 438.0,662.4 436.1,662.4 434.2,662.4 432.4,662.4 430.5,662.4 428.6,662.4 426.7,662.4
424.8,662.4 422.9,662.4 421.0,662.4 419.1,662.4 417.3,662.4 415.4,662.4 413.5,662.4 411.6,662.4 409.7,662.4 407.8,662.4 405.9,662.4 404.0,662.4 402.2,662.4 400.3,662.4 398.4,662.4 396.5,662.4
394.6,662.4 392.7,662.4 390.8,662.4 388.9,662.4 387.1,662.4 385.2,662.4 383.3,662.4 381.4,662.4 379.5,662.4 377.6,662.4 375.7,662.4 373.8,662.4 372.0,662.4 370.1,662.4 368.2,662.4 366.3,662.4
364.4,662.4 362.5,662.4 360.6,662.4 358.8,662.4 356.9,662.4 355.0,662.4 353.1,662.4 351.2,662.4 349.3,662.4 347.4,662.4 345.5,662.4 343.7,662.4 341.8,662.4 339.9,662.4 338.0,662.4 336.1,662.4
334.2,662.4 332.3,662.4 330.4,662.4 328.6,662.4 326.7,662.4 324.8,662.4 322.9,662.4 321.0,662.4 319.1,662.4 317.2,662.4 315.3,662.4 313.5,662.4 311.6,662.4 309.7,662.4 307.8,662.4 305.9,662.4
304.0,662.4 302.1,662.4 300.2,662.4 298.4,662.4 296.5,662.4 294.6,662.4 292.7,662.4 290.8,662.4 288.9,662.4 287.0,662.4 285.2,662.4 283.3,662.4 281.4,662.4 279.5,662.4 277.6,662.4 275.7,662.4
273.8,662.4 271.9,662.4 270.1,662.4 268.2,662.4 266.3,662.4 264.4,662.4 262.5,662.4 260.6,662.4 258.7,662.4 256.8,662.4 255.0,662.4 253.1,662.4 251.2,662.4 249.3,662.4 247.4,662.4 245.5,662.4
243.6,662.4 241.7,662.4 239.9,662.4 238.0,662.4 236.1,662.4 234.2,662.4 232.3,662.4 230.4,662.4 228.5,662.4 226.6,662.4 224.8,662.4 222.9,662.4 221.0,662.4 219.1,662.4 217.2,662.4 215.3,662.4
213.4,662.4 211.6,662.4 209.7,662.4 207.8,662.4 205.9,662.4 204.0,662.4 202.1,662.4 200.2,662.4 198.3,662.4 196.5,662.4 194.6,662.4 192.7,662.4 190.8,662.4 188.9,662.4 187.0,662.4 185.1,662.4
183.2,662.4 181.4,662.4 179.5,662.4 177.6,662.4 175.7,662.4 173.8,662.4 171.9,662.4 170.0,662.4 168.1,662.4 166.3,662.4 164.4,662.4 162.5,662.4 160.6,662.4 158.7,662.4 '/>
	</g>
</g>
	</g>
	<g id="gnuplot_plot_3" ><title>Point estimate</title>
<g fill="none" color="white" stroke="rgb( 31, 120, 180)" stroke-width="2.00" stroke-linecap="butt" stroke-linejoin="miter">
</g>
<g fill="none" color="black" stroke="currentColor" stroke-width="2.00" stroke-linecap="butt" stroke-linejoin="miter">
	<g transform="translate(1089.0,103.0)" stroke="none" fill="black" font-family="Helvetica" font-size="12.00"  text-anchor="start">
		<text><tspan font-family="Helvetica" >Point estimate</tspan></text>
	</g>
</g>
<g fill="none" color="black" stroke="currentColor" stroke-width="2.00" stroke-linecap="butt" stroke-linejoin="miter">
	<path stroke='rgb( 31, 120, 180)'  d='M1038.5,99.1 L1080.7,99.1 M529.8,662.4 L529.8,162.6  '/></g>
	</g>
<g fill="none" color="black" stroke="currentColor" stroke-width="2.00" stroke-linecap="butt" stroke-linejoin="miter">
</g>
<g fill="none" color="black" stroke="black" stroke-width="1.00" stroke-linecap="butt" stroke-linejoin="miter">
</g>
<g fill="none" color="black" stroke="currentColor" stroke-width="1.00" stroke-linecap="butt" stroke-linejoin="miter">
	<path stroke='black'  d='M71.9,54.1 L71.9,662.4 L1013.6,662.4 L1013.6,54.1 L71.9,54.1 Z  '/></g>
<g fill="none" color="black" stroke="currentColor" stroke-width="1.00" stroke-linecap="butt" stroke-linejoin="miter">
</g>
</g>
</svg>

