group,function,value,sample_time_nanos,iteration_count
set_bench,kvs,,15446010.0,1
set_bench,kvs,,30329241.0,2
set_bench,kvs,,46534884.0,3
set_bench,kvs,,62888852.0,4
set_bench,kvs,,78893614.0,5
set_bench,kvs,,96998467.0,6
set_bench,kvs,,111159453.0,7
set_bench,kvs,,129680238.0,8
set_bench,kvs,,143201644.0,9
set_bench,kvs,,156106209.0,10
set_bench,kvs,,173530494.0,11
set_bench,kvs,,187854873.0,12
set_bench,kvs,,203560935.0,13
set_bench,kvs,,222738940.0,14
set_bench,kvs,,240588107.0,15
set_bench,kvs,,246220506.0,16
set_bench,kvs,,265953831.0,17
set_bench,kvs,,271544373.0,18
set_bench,kvs,,303460813.0,19
set_bench,kvs,,305625876.0,20
set_bench,kvs,,312528771.0,21
set_bench,kvs,,337134755.0,22
set_bench,kvs,,358432487.0,23
set_bench,kvs,,377611839.0,24
set_bench,kvs,,392106412.0,25
set_bench,kvs,,398725920.0,26
set_bench,kvs,,416078341.0,27
set_bench,kvs,,457585259.0,28
set_bench,kvs,,476990007.0,29
set_bench,kvs,,516965818.0,30
set_bench,kvs,,523076618.0,31
set_bench,kvs,,531424187.0,32
set_bench,kvs,,548643683.0,33
set_bench,kvs,,576416031.0,34
set_bench,kvs,,583724815.0,35
set_bench,kvs,,595618107.0,36
set_bench,kvs,,609411532.0,37
set_bench,kvs,,813377890.0,38
set_bench,kvs,,594884500.0,39
set_bench,kvs,,613863887.0,40
set_bench,kvs,,692603242.0,41
set_bench,kvs,,704592176.0,42
set_bench,kvs,,719357064.0,43
set_bench,kvs,,720076215.0,44
set_bench,kvs,,746412976.0,45
set_bench,kvs,,755656537.0,46
set_bench,kvs,,722805396.0,47
set_bench,kvs,,760500073.0,48
set_bench,kvs,,765245311.0,49
set_bench,kvs,,786221049.0,50
set_bench,kvs,,780848083.0,51
set_bench,kvs,,809871155.0,52
set_bench,kvs,,806826611.0,53
set_bench,kvs,,829794699.0,54
set_bench,kvs,,853104652.0,55
set_bench,kvs,,851564885.0,56
set_bench,kvs,,854162297.0,57
set_bench,kvs,,906653133.0,58
set_bench,kvs,,896836159.0,59
set_bench,kvs,,929387037.0,60
set_bench,kvs,,962064007.0,61
set_bench,kvs,,965489362.0,62
set_bench,kvs,,1000245655.0,63
set_bench,kvs,,992739301.0,64
set_bench,kvs,,1018702860.0,65
set_bench,kvs,,1110541243.0,66
set_bench,kvs,,1145324725.0,67
set_bench,kvs,,1136955778.0,68
set_bench,kvs,,1135662259.0,69
set_bench,kvs,,1144939474.0,70
set_bench,kvs,,1182596901.0,71
set_bench,kvs,,1192390007.0,72
set_bench,kvs,,1146746397.0,73
set_bench,kvs,,1185850842.0,74
set_bench,kvs,,1264427898.0,75
set_bench,kvs,,1325396609.0,76
set_bench,kvs,,1281835671.0,77
set_bench,kvs,,1272056161.0,78
set_bench,kvs,,1230663730.0,79
set_bench,kvs,,1266970505.0,80
set_bench,kvs,,1359138699.0,81
set_bench,kvs,,1390980901.0,82
set_bench,kvs,,1400072492.0,83
set_bench,kvs,,1371031444.0,84
set_bench,kvs,,1391369769.0,85
set_bench,kvs,,1407041650.0,86
set_bench,kvs,,1477010817.0,87
set_bench,kvs,,1463968321.0,88
set_bench,kvs,,1500588743.0,89
set_bench,kvs,,1506168120.0,90
set_bench,kvs,,1521751879.0,91
set_bench,kvs,,1554079690.0,92
set_bench,kvs,,1557813123.0,93
set_bench,kvs,,1607601399.0,94
set_bench,kvs,,1629876264.0,95
set_bench,kvs,,1608398534.0,96
set_bench,kvs,,1621068828.0,97
set_bench,kvs,,1630398223.0,98
set_bench,kvs,,1635621425.0,99
set_bench,kvs,,1677628884.0,100
