<?xml version="1.0" encoding="utf-8"  standalone="no"?>
<svg 
 viewBox="0 0 1280 720"
 xmlns="http://www.w3.org/2000/svg"
 xmlns:xlink="http://www.w3.org/1999/xlink"
>

<title>Gnuplot</title>
<desc>Produced by GNUPLOT 5.2 patchlevel 6 </desc>

<g id="gnuplot_canvas">

<rect x="0" y="0" width="1280" height="720" fill="none"/>
<defs>

	<circle id='gpDot' r='0.5' stroke-width='0.5' stroke='currentColor'/>
	<path id='gpPt0' stroke-width='0.222' stroke='currentColor' d='M-1,0 h2 M0,-1 v2'/>
	<path id='gpPt1' stroke-width='0.222' stroke='currentColor' d='M-1,-1 L1,1 M1,-1 L-1,1'/>
	<path id='gpPt2' stroke-width='0.222' stroke='currentColor' d='M-1,0 L1,0 M0,-1 L0,1 M-1,-1 L1,1 M-1,1 L1,-1'/>
	<rect id='gpPt3' stroke-width='0.222' stroke='currentColor' x='-1' y='-1' width='2' height='2'/>
	<rect id='gpPt4' stroke-width='0.222' stroke='currentColor' fill='currentColor' x='-1' y='-1' width='2' height='2'/>
	<circle id='gpPt5' stroke-width='0.222' stroke='currentColor' cx='0' cy='0' r='1'/>
	<use xlink:href='#gpPt5' id='gpPt6' fill='currentColor' stroke='none'/>
	<path id='gpPt7' stroke-width='0.222' stroke='currentColor' d='M0,-1.33 L-1.33,0.67 L1.33,0.67 z'/>
	<use xlink:href='#gpPt7' id='gpPt8' fill='currentColor' stroke='none'/>
	<use xlink:href='#gpPt7' id='gpPt9' stroke='currentColor' transform='rotate(180)'/>
	<use xlink:href='#gpPt9' id='gpPt10' fill='currentColor' stroke='none'/>
	<use xlink:href='#gpPt3' id='gpPt11' stroke='currentColor' transform='rotate(45)'/>
	<use xlink:href='#gpPt11' id='gpPt12' fill='currentColor' stroke='none'/>
	<path id='gpPt13' stroke-width='0.222' stroke='currentColor' d='M0,1.330 L1.265,0.411 L0.782,-1.067 L-0.782,-1.076 L-1.265,0.411 z'/>
	<use xlink:href='#gpPt13' id='gpPt14' fill='currentColor' stroke='none'/>
	<filter id='textbox' filterUnits='objectBoundingBox' x='0' y='0' height='1' width='1'>
	  <feFlood flood-color='white' flood-opacity='1' result='bgnd'/>
	  <feComposite in='SourceGraphic' in2='bgnd' operator='atop'/>
	</filter>
	<filter id='greybox' filterUnits='objectBoundingBox' x='0' y='0' height='1' width='1'>
	  <feFlood flood-color='lightgrey' flood-opacity='1' result='grey'/>
	  <feComposite in='SourceGraphic' in2='grey' operator='atop'/>
	</filter>
</defs>
<g fill="none" color="white" stroke="currentColor" stroke-width="1.00" stroke-linecap="butt" stroke-linejoin="miter">
</g>
<g fill="none" color="black" stroke="currentColor" stroke-width="1.00" stroke-linecap="butt" stroke-linejoin="miter">
	<path stroke='black'  d='M80.2,662.4 L89.2,662.4  '/>	<g transform="translate(71.9,666.3)" stroke="none" fill="black" font-family="Helvetica" font-size="12.00"  text-anchor="end">
		<text><tspan font-family="Helvetica" > 0</tspan></text>
	</g>
</g>
<g fill="none" color="black" stroke="currentColor" stroke-width="1.00" stroke-linecap="butt" stroke-linejoin="miter">
	<path stroke='black'  d='M80.2,594.8 L89.2,594.8  '/>	<g transform="translate(71.9,598.7)" stroke="none" fill="black" font-family="Helvetica" font-size="12.00"  text-anchor="end">
		<text><tspan font-family="Helvetica" > 0.05</tspan></text>
	</g>
</g>
<g fill="none" color="black" stroke="currentColor" stroke-width="1.00" stroke-linecap="butt" stroke-linejoin="miter">
	<path stroke='black'  d='M80.2,527.2 L89.2,527.2  '/>	<g transform="translate(71.9,531.1)" stroke="none" fill="black" font-family="Helvetica" font-size="12.00"  text-anchor="end">
		<text><tspan font-family="Helvetica" > 0.1</tspan></text>
	</g>
</g>
<g fill="none" color="black" stroke="currentColor" stroke-width="1.00" stroke-linecap="butt" stroke-linejoin="miter">
	<path stroke='black'  d='M80.2,459.6 L89.2,459.6  '/>	<g transform="translate(71.9,463.5)" stroke="none" fill="black" font-family="Helvetica" font-size="12.00"  text-anchor="end">
		<text><tspan font-family="Helvetica" > 0.15</tspan></text>
	</g>
</g>
<g fill="none" color="black" stroke="currentColor" stroke-width="1.00" stroke-linecap="butt" stroke-linejoin="miter">
	<path stroke='black'  d='M80.2,392.0 L89.2,392.0  '/>	<g transform="translate(71.9,395.9)" stroke="none" fill="black" font-family="Helvetica" font-size="12.00"  text-anchor="end">
		<text><tspan font-family="Helvetica" > 0.2</tspan></text>
	</g>
</g>
<g fill="none" color="black" stroke="currentColor" stroke-width="1.00" stroke-linecap="butt" stroke-linejoin="miter">
	<path stroke='black'  d='M80.2,324.5 L89.2,324.5  '/>	<g transform="translate(71.9,328.4)" stroke="none" fill="black" font-family="Helvetica" font-size="12.00"  text-anchor="end">
		<text><tspan font-family="Helvetica" > 0.25</tspan></text>
	</g>
</g>
<g fill="none" color="black" stroke="currentColor" stroke-width="1.00" stroke-linecap="butt" stroke-linejoin="miter">
	<path stroke='black'  d='M80.2,256.9 L89.2,256.9  '/>	<g transform="translate(71.9,260.8)" stroke="none" fill="black" font-family="Helvetica" font-size="12.00"  text-anchor="end">
		<text><tspan font-family="Helvetica" > 0.3</tspan></text>
	</g>
</g>
<g fill="none" color="black" stroke="currentColor" stroke-width="1.00" stroke-linecap="butt" stroke-linejoin="miter">
	<path stroke='black'  d='M80.2,189.3 L89.2,189.3  '/>	<g transform="translate(71.9,193.2)" stroke="none" fill="black" font-family="Helvetica" font-size="12.00"  text-anchor="end">
		<text><tspan font-family="Helvetica" > 0.35</tspan></text>
	</g>
</g>
<g fill="none" color="black" stroke="currentColor" stroke-width="1.00" stroke-linecap="butt" stroke-linejoin="miter">
	<path stroke='black'  d='M80.2,121.7 L89.2,121.7  '/>	<g transform="translate(71.9,125.6)" stroke="none" fill="black" font-family="Helvetica" font-size="12.00"  text-anchor="end">
		<text><tspan font-family="Helvetica" > 0.4</tspan></text>
	</g>
</g>
<g fill="none" color="black" stroke="currentColor" stroke-width="1.00" stroke-linecap="butt" stroke-linejoin="miter">
	<path stroke='black'  d='M80.2,54.1 L89.2,54.1  '/>	<g transform="translate(71.9,58.0)" stroke="none" fill="black" font-family="Helvetica" font-size="12.00"  text-anchor="end">
		<text><tspan font-family="Helvetica" > 0.45</tspan></text>
	</g>
</g>
<g fill="none" color="black" stroke="currentColor" stroke-width="1.00" stroke-linecap="butt" stroke-linejoin="miter">
	<path stroke='black'  d='M103.1,662.4 L103.1,653.4  '/>	<g transform="translate(103.1,684.3)" stroke="none" fill="black" font-family="Helvetica" font-size="12.00"  text-anchor="middle">
		<text><tspan font-family="Helvetica" > 65.5</tspan></text>
	</g>
</g>
<g fill="none" color="black" stroke="currentColor" stroke-width="1.00" stroke-linecap="butt" stroke-linejoin="miter">
	<path stroke='black'  d='M211.1,662.4 L211.1,653.4  '/>	<g transform="translate(211.1,684.3)" stroke="none" fill="black" font-family="Helvetica" font-size="12.00"  text-anchor="middle">
		<text><tspan font-family="Helvetica" > 66</tspan></text>
	</g>
</g>
<g fill="none" color="black" stroke="currentColor" stroke-width="1.00" stroke-linecap="butt" stroke-linejoin="miter">
	<path stroke='black'  d='M319.1,662.4 L319.1,653.4  '/>	<g transform="translate(319.1,684.3)" stroke="none" fill="black" font-family="Helvetica" font-size="12.00"  text-anchor="middle">
		<text><tspan font-family="Helvetica" > 66.5</tspan></text>
	</g>
</g>
<g fill="none" color="black" stroke="currentColor" stroke-width="1.00" stroke-linecap="butt" stroke-linejoin="miter">
	<path stroke='black'  d='M427.1,662.4 L427.1,653.4  '/>	<g transform="translate(427.1,684.3)" stroke="none" fill="black" font-family="Helvetica" font-size="12.00"  text-anchor="middle">
		<text><tspan font-family="Helvetica" > 67</tspan></text>
	</g>
</g>
<g fill="none" color="black" stroke="currentColor" stroke-width="1.00" stroke-linecap="butt" stroke-linejoin="miter">
	<path stroke='black'  d='M535.1,662.4 L535.1,653.4  '/>	<g transform="translate(535.1,684.3)" stroke="none" fill="black" font-family="Helvetica" font-size="12.00"  text-anchor="middle">
		<text><tspan font-family="Helvetica" > 67.5</tspan></text>
	</g>
</g>
<g fill="none" color="black" stroke="currentColor" stroke-width="1.00" stroke-linecap="butt" stroke-linejoin="miter">
	<path stroke='black'  d='M643.2,662.4 L643.2,653.4  '/>	<g transform="translate(643.2,684.3)" stroke="none" fill="black" font-family="Helvetica" font-size="12.00"  text-anchor="middle">
		<text><tspan font-family="Helvetica" > 68</tspan></text>
	</g>
</g>
<g fill="none" color="black" stroke="currentColor" stroke-width="1.00" stroke-linecap="butt" stroke-linejoin="miter">
	<path stroke='black'  d='M751.2,662.4 L751.2,653.4  '/>	<g transform="translate(751.2,684.3)" stroke="none" fill="black" font-family="Helvetica" font-size="12.00"  text-anchor="middle">
		<text><tspan font-family="Helvetica" > 68.5</tspan></text>
	</g>
</g>
<g fill="none" color="black" stroke="currentColor" stroke-width="1.00" stroke-linecap="butt" stroke-linejoin="miter">
	<path stroke='black'  d='M859.2,662.4 L859.2,653.4  '/>	<g transform="translate(859.2,684.3)" stroke="none" fill="black" font-family="Helvetica" font-size="12.00"  text-anchor="middle">
		<text><tspan font-family="Helvetica" > 69</tspan></text>
	</g>
</g>
<g fill="none" color="black" stroke="currentColor" stroke-width="1.00" stroke-linecap="butt" stroke-linejoin="miter">
	<path stroke='black'  d='M967.2,662.4 L967.2,653.4  '/>	<g transform="translate(967.2,684.3)" stroke="none" fill="black" font-family="Helvetica" font-size="12.00"  text-anchor="middle">
		<text><tspan font-family="Helvetica" > 69.5</tspan></text>
	</g>
</g>
<g fill="none" color="black" stroke="currentColor" stroke-width="1.00" stroke-linecap="butt" stroke-linejoin="miter">
</g>
<g fill="none" color="black" stroke="currentColor" stroke-width="1.00" stroke-linecap="butt" stroke-linejoin="miter">
	<path stroke='black'  d='M80.2,54.1 L80.2,662.4 L1013.6,662.4 L1013.6,54.1 L80.2,54.1 Z  '/></g>
<g fill="none" color="black" stroke="currentColor" stroke-width="1.00" stroke-linecap="butt" stroke-linejoin="miter">
	<g transform="translate(16.3,358.3) rotate(270)" stroke="none" fill="black" font-family="Helvetica" font-size="12.00"  text-anchor="middle">
		<text><tspan font-family="Helvetica" >Density (a.u.)</tspan></text>
	</g>
</g>
<g fill="none" color="black" stroke="currentColor" stroke-width="1.00" stroke-linecap="butt" stroke-linejoin="miter">
	<g transform="translate(546.9,711.3)" stroke="none" fill="black" font-family="Helvetica" font-size="12.00"  text-anchor="middle">
		<text><tspan font-family="Helvetica" >Average time (ms)</tspan></text>
	</g>
</g>
<g fill="none" color="black" stroke="currentColor" stroke-width="1.00" stroke-linecap="butt" stroke-linejoin="miter">
	<g transform="translate(546.9,31.0)" stroke="none" fill="black" font-family="Helvetica" font-size="12.00"  text-anchor="middle">
		<text><tspan font-family="Helvetica" >get_bench/kvs: mean</tspan></text>
	</g>
</g>
	<g id="gnuplot_plot_1" ><title>Bootstrap distribution</title>
<g fill="none" color="white" stroke="black" stroke-width="2.00" stroke-linecap="butt" stroke-linejoin="miter">
</g>
<g fill="none" color="black" stroke="currentColor" stroke-width="2.00" stroke-linecap="butt" stroke-linejoin="miter">
	<g transform="translate(1089.0,67.0)" stroke="none" fill="black" font-family="Helvetica" font-size="12.00"  text-anchor="start">
		<text><tspan font-family="Helvetica" >Bootstrap distribution</tspan></text>
	</g>
</g>
<g fill="none" color="black" stroke="currentColor" stroke-width="2.00" stroke-linecap="butt" stroke-linejoin="miter">
	<path stroke='rgb( 31, 120, 180)'  d='M1038.5,63.1 L1080.7,63.1 M80.2,643.8 L82.1,642.3 L83.9,640.7 L85.8,639.0 L87.7,637.3 L89.6,635.4
		L91.4,633.4 L93.3,631.3 L95.2,629.0 L97.0,626.7 L98.9,624.2 L100.8,621.7 L102.6,619.0 L104.5,616.1
		L106.4,613.2 L108.3,610.1 L110.1,606.9 L112.0,603.5 L113.9,600.0 L115.7,596.4 L117.6,592.6 L119.5,588.7
		L121.4,584.7 L123.2,580.4 L125.1,576.1 L127.0,571.5 L128.8,566.8 L130.7,562.0 L132.6,557.0 L134.4,551.8
		L136.3,546.4 L138.2,540.9 L140.1,535.2 L141.9,529.3 L143.8,523.3 L145.7,517.1 L147.5,510.7 L149.4,504.2
		L151.3,497.5 L153.2,490.7 L155.0,483.8 L156.9,476.7 L158.8,469.6 L160.6,462.3 L162.5,455.0 L164.4,447.6
		L166.2,440.1 L168.1,432.6 L170.0,425.1 L171.9,417.6 L173.7,410.0 L175.6,402.5 L177.5,395.0 L179.3,387.5
		L181.2,380.1 L183.1,372.7 L185.0,365.4 L186.8,358.2 L188.7,351.0 L190.6,343.9 L192.4,336.9 L194.3,330.0
		L196.2,323.2 L198.0,316.4 L199.9,309.7 L201.8,303.2 L203.7,296.7 L205.5,290.3 L207.4,283.9 L209.3,277.7
		L211.1,271.6 L213.0,265.5 L214.9,259.5 L216.7,253.6 L218.6,247.8 L220.5,242.1 L222.4,236.5 L224.2,231.0
		L226.1,225.7 L228.0,220.4 L229.8,215.2 L231.7,210.2 L233.6,205.3 L235.5,200.5 L237.3,195.9 L239.2,191.5
		L241.1,187.2 L242.9,183.1 L244.8,179.1 L246.7,175.4 L248.5,171.8 L250.4,168.4 L252.3,165.2 L254.2,162.2
		L256.0,159.3 L257.9,156.7 L259.8,154.2 L261.6,151.9 L263.5,149.8 L265.4,147.8 L267.3,146.0 L269.1,144.3
		L271.0,142.8 L272.9,141.4 L274.7,140.2 L276.6,139.0 L278.5,138.0 L280.3,137.1 L282.2,136.2 L284.1,135.5
		L286.0,134.8 L287.8,134.2 L289.7,133.6 L291.6,133.1 L293.4,132.6 L295.3,132.2 L297.2,131.8 L299.1,131.4
		L300.9,131.1 L302.8,130.8 L304.7,130.4 L306.5,130.1 L308.4,129.8 L310.3,129.5 L312.1,129.2 L314.0,128.9
		L315.9,128.5 L317.8,128.2 L319.6,127.8 L321.5,127.3 L323.4,126.8 L325.2,126.3 L327.1,125.8 L329.0,125.1
		L330.9,124.4 L332.7,123.7 L334.6,122.9 L336.5,122.0 L338.3,121.1 L340.2,120.0 L342.1,118.9 L343.9,117.8
		L345.8,116.6 L347.7,115.3 L349.6,113.9 L351.4,112.5 L353.3,111.1 L355.2,109.6 L357.0,108.1 L358.9,106.5
		L360.8,104.9 L362.7,103.3 L364.5,101.7 L366.4,100.1 L368.3,98.5 L370.1,96.9 L372.0,95.3 L373.9,93.8
		L375.7,92.3 L377.6,90.8 L379.5,89.3 L381.4,87.9 L383.2,86.5 L385.1,85.2 L387.0,83.9 L388.8,82.6
		L390.7,81.3 L392.6,80.0 L394.5,78.8 L396.3,77.6 L398.2,76.4 L400.1,75.2 L401.9,74.1 L403.8,72.9
		L405.7,71.8 L407.5,70.7 L409.4,69.6 L411.3,68.6 L413.2,67.6 L415.0,66.6 L416.9,65.7 L418.8,64.9
		L420.6,64.2 L422.5,63.5 L424.4,62.9 L426.3,62.5 L428.1,62.1 L430.0,61.9 L431.9,61.7 L433.7,61.8
		L435.6,61.9 L437.5,62.2 L439.3,62.6 L441.2,63.1 L443.1,63.8 L445.0,64.6 L446.8,65.6 L448.7,66.7
		L450.6,67.9 L452.4,69.2 L454.3,70.8 L456.2,72.4 L458.0,74.2 L459.9,76.1 L461.8,78.1 L463.7,80.3
		L465.5,82.7 L467.4,85.1 L469.3,87.8 L471.1,90.5 L473.0,93.4 L474.9,96.3 L476.8,99.5 L478.6,102.7
		L480.5,106.0 L482.4,109.5 L484.2,113.0 L486.1,116.6 L488.0,120.2 L489.8,123.9 L491.7,127.7 L493.6,131.4
		L495.5,135.2 L497.3,139.0 L499.2,142.8 L501.1,146.6 L502.9,150.3 L504.8,154.0 L506.7,157.7 L508.6,161.3
		L510.4,164.9 L512.3,168.4 L514.2,171.9 L516.0,175.3 L517.9,178.7 L519.8,182.0 L521.6,185.2 L523.5,188.5
		L525.4,191.6 L527.3,194.8 L529.1,197.9 L531.0,200.9 L532.9,203.9 L534.7,207.0 L536.6,209.9 L538.5,212.9
		L540.4,215.8 L542.2,218.7 L544.1,221.6 L546.0,224.4 L547.8,227.2 L549.7,230.0 L551.6,232.8 L553.4,235.5
		L555.3,238.2 L557.2,240.8 L559.1,243.4 L560.9,246.0 L562.8,248.5 L564.7,251.0 L566.5,253.5 L568.4,255.9
		L570.3,258.3 L572.2,260.6 L574.0,262.8 L575.9,265.1 L577.8,267.2 L579.6,269.4 L581.5,271.4 L583.4,273.5
		L585.2,275.4 L587.1,277.4 L589.0,279.2 L590.9,281.1 L592.7,282.9 L594.6,284.6 L596.5,286.3 L598.3,288.0
		L600.2,289.7 L602.1,291.3 L604.0,292.9 L605.8,294.5 L607.7,296.1 L609.6,297.6 L611.4,299.2 L613.3,300.9
		L615.2,302.5 L617.0,304.2 L618.9,305.9 L620.8,307.6 L622.7,309.4 L624.5,311.3 L626.4,313.2 L628.3,315.2
		L630.1,317.3 L632.0,319.5 L633.9,321.8 L635.8,324.1 L637.6,326.6 L639.5,329.1 L641.4,331.7 L643.2,334.4
		L645.1,337.2 L647.0,340.0 L648.8,342.9 L650.7,345.9 L652.6,348.9 L654.5,352.0 L656.3,355.1 L658.2,358.2
		L660.1,361.4 L661.9,364.6 L663.8,367.8 L665.7,370.9 L667.5,374.1 L669.4,377.3 L671.3,380.4 L673.2,383.5
		L675.0,386.6 L676.9,389.7 L678.8,392.7 L680.6,395.7 L682.5,398.6 L684.4,401.5 L686.3,404.4 L688.1,407.2
		L690.0,410.0 L691.9,412.7 L693.7,415.4 L695.6,418.0 L697.5,420.6 L699.3,423.2 L701.2,425.7 L703.1,428.2
		L705.0,430.6 L706.8,433.0 L708.7,435.4 L710.6,437.8 L712.4,440.1 L714.3,442.5 L716.2,444.7 L718.1,447.0
		L719.9,449.2 L721.8,451.5 L723.7,453.7 L725.5,455.8 L727.4,458.0 L729.3,460.1 L731.1,462.2 L733.0,464.3
		L734.9,466.3 L736.8,468.3 L738.6,470.3 L740.5,472.3 L742.4,474.2 L744.2,476.1 L746.1,478.0 L748.0,479.9
		L749.9,481.7 L751.7,483.5 L753.6,485.3 L755.5,487.1 L757.3,488.8 L759.2,490.6 L761.1,492.3 L762.9,494.0
		L764.8,495.7 L766.7,497.4 L768.6,499.0 L770.4,500.7 L772.3,502.3 L774.2,503.9 L776.0,505.5 L777.9,507.1
		L779.8,508.7 L781.7,510.2 L783.5,511.7 L785.4,513.2 L787.3,514.7 L789.1,516.1 L791.0,517.5 L792.9,518.9
		L794.7,520.3 L796.6,521.6 L798.5,523.0 L800.4,524.3 L802.2,525.6 L804.1,526.8 L806.0,528.1 L807.8,529.4
		L809.7,530.7 L811.6,531.9 L813.5,533.2 L815.3,534.5 L817.2,535.7 L819.1,537.0 L820.9,538.3 L822.8,539.6
		L824.7,540.9 L826.5,542.2 L828.4,543.6 L830.3,544.9 L832.2,546.2 L834.0,547.6 L835.9,548.9 L837.8,550.2
		L839.6,551.6 L841.5,552.9 L843.4,554.3 L845.3,555.6 L847.1,556.9 L849.0,558.3 L850.9,559.6 L852.7,560.9
		L854.6,562.2 L856.5,563.5 L858.3,564.8 L860.2,566.1 L862.1,567.4 L864.0,568.6 L865.8,569.9 L867.7,571.1
		L869.6,572.4 L871.4,573.6 L873.3,574.8 L875.2,575.9 L877.1,577.1 L878.9,578.2 L880.8,579.3 L882.7,580.3
		L884.5,581.4 L886.4,582.4 L888.3,583.3 L890.1,584.3 L892.0,585.2 L893.9,586.1 L895.8,587.0 L897.6,587.8
		L899.5,588.7 L901.4,589.5 L903.2,590.3 L905.1,591.1 L907.0,591.9 L908.8,592.7 L910.7,593.4 L912.6,594.2
		L914.5,595.0 L916.3,595.8 L918.2,596.6 L920.1,597.4 L921.9,598.2 L923.8,599.1 L925.7,599.9 L927.6,600.8
		L929.4,601.6 L931.3,602.5 L933.2,603.4 L935.0,604.2 L936.9,605.1 L938.8,606.0 L940.6,606.9 L942.5,607.7
		L944.4,608.6 L946.3,609.4 L948.1,610.3 L950.0,611.1 L951.9,611.9 L953.7,612.7 L955.6,613.4 L957.5,614.2
		L959.4,614.9 L961.2,615.6 L963.1,616.3 L965.0,617.0 L966.8,617.7 L968.7,618.3 L970.6,618.9 L972.4,619.5
		L974.3,620.2 L976.2,620.7 L978.1,621.3 L979.9,621.9 L981.8,622.5 L983.7,623.0 L985.5,623.6 L987.4,624.1
		L989.3,624.7 L991.2,625.2 L993.0,625.7 L994.9,626.3 L996.8,626.8 L998.6,627.3 L1000.5,627.8 L1002.4,628.3
		L1004.2,628.9 L1006.1,629.4 L1008.0,629.9 L1009.9,630.4 L1011.7,630.9 L1013.6,631.4  '/></g>
	</g>
	<g id="gnuplot_plot_2" ><title>Confidence interval</title>
<g fill="none" color="white" stroke="rgb( 31, 120, 180)" stroke-width="1.00" stroke-linecap="butt" stroke-linejoin="miter">
</g>
<g fill="none" color="black" stroke="currentColor" stroke-width="1.00" stroke-linecap="butt" stroke-linejoin="miter">
	<g transform="translate(1089.0,85.0)" stroke="none" fill="black" font-family="Helvetica" font-size="12.00"  text-anchor="start">
		<text><tspan font-family="Helvetica" >Confidence interval</tspan></text>
	</g>
</g>
<g fill="none" color="black" stroke="currentColor" stroke-width="1.00" stroke-linecap="butt" stroke-linejoin="miter">
	<g stroke='none' shape-rendering='crispEdges'>
		<polygon fill = 'rgb( 31, 120, 180)' fill-opacity = '0.250000' points = '1038.5,85.6 1080.7,85.6 1080.7,76.6 1038.5,76.6 '/>
		<polygon fill = 'rgb( 31, 120, 180)' fill-opacity = '0.250000' points = '166.2,440.1 168.1,432.6 170.0,425.1 171.9,417.6 173.7,410.0 175.6,402.5 177.5,395.0 179.3,387.5 181.2,380.1 183.1,372.7 185.0,365.4 186.8,358.2 188.7,351.0 190.6,343.9 192.4,336.9 194.3,330.0
196.2,323.2 198.0,316.4 199.9,309.7 201.8,303.2 203.7,296.7 205.5,290.3 207.4,283.9 209.3,277.7 211.1,271.6 213.0,265.5 214.9,259.5 216.7,253.6 218.6,247.8 220.5,242.1 222.4,236.5 224.2,231.0
226.1,225.7 228.0,220.4 229.8,215.2 231.7,210.2 233.6,205.3 235.5,200.5 237.3,195.9 239.2,191.5 241.1,187.2 242.9,183.1 244.8,179.1 246.7,175.4 248.5,171.8 250.4,168.4 252.3,165.2 254.2,162.2
256.0,159.3 257.9,156.7 259.8,154.2 261.6,151.9 263.5,149.8 265.4,147.8 267.3,146.0 269.1,144.3 271.0,142.8 272.9,141.4 274.7,140.2 276.6,139.0 278.5,138.0 280.3,137.1 282.2,136.2 284.1,135.5
286.0,134.8 287.8,134.2 289.7,133.6 291.6,133.1 293.4,132.6 295.3,132.2 297.2,131.8 299.1,131.4 300.9,131.1 302.8,130.8 304.7,130.4 306.5,130.1 308.4,129.8 310.3,129.5 312.1,129.2 314.0,128.9
315.9,128.5 317.8,128.2 319.6,127.8 321.5,127.3 323.4,126.8 325.2,126.3 327.1,125.8 329.0,125.1 330.9,124.4 332.7,123.7 334.6,122.9 336.5,122.0 338.3,121.1 340.2,120.0 342.1,118.9 343.9,117.8
345.8,116.6 347.7,115.3 349.6,113.9 351.4,112.5 353.3,111.1 355.2,109.6 357.0,108.1 358.9,106.5 360.8,104.9 362.7,103.3 364.5,101.7 366.4,100.1 368.3,98.5 370.1,96.9 372.0,95.3 373.9,93.8
375.7,92.3 377.6,90.8 379.5,89.3 381.4,87.9 383.2,86.5 385.1,85.2 387.0,83.9 388.8,82.6 390.7,81.3 392.6,80.0 394.5,78.8 396.3,77.6 398.2,76.4 400.1,75.2 401.9,74.1 403.8,72.9
405.7,71.8 407.5,70.7 409.4,69.6 411.3,68.6 413.2,67.6 415.0,66.6 416.9,65.7 418.8,64.9 420.6,64.2 422.5,63.5 424.4,62.9 426.3,62.5 428.1,62.1 430.0,61.9 431.9,61.7 433.7,61.8
435.6,61.9 437.5,62.2 439.3,62.6 441.2,63.1 443.1,63.8 445.0,64.6 446.8,65.6 448.7,66.7 450.6,67.9 452.4,69.2 454.3,70.8 456.2,72.4 458.0,74.2 459.9,76.1 461.8,78.1 463.7,80.3
465.5,82.7 467.4,85.1 469.3,87.8 471.1,90.5 473.0,93.4 474.9,96.3 476.8,99.5 478.6,102.7 480.5,106.0 482.4,109.5 484.2,113.0 486.1,116.6 488.0,120.2 489.8,123.9 491.7,127.7 493.6,131.4
495.5,135.2 497.3,139.0 499.2,142.8 501.1,146.6 502.9,150.3 504.8,154.0 506.7,157.7 508.6,161.3 510.4,164.9 512.3,168.4 514.2,171.9 516.0,175.3 517.9,178.7 519.8,182.0 521.6,185.2 523.5,188.5
525.4,191.6 527.3,194.8 529.1,197.9 531.0,200.9 532.9,203.9 534.7,207.0 536.6,209.9 538.5,212.9 540.4,215.8 542.2,218.7 544.1,221.6 546.0,224.4 547.8,227.2 549.7,230.0 551.6,232.8 553.4,235.5
555.3,238.2 557.2,240.8 559.1,243.4 560.9,246.0 562.8,248.5 564.7,251.0 566.5,253.5 568.4,255.9 570.3,258.3 572.2,260.6 574.0,262.8 575.9,265.1 577.8,267.2 579.6,269.4 581.5,271.4 583.4,273.5
585.2,275.4 587.1,277.4 589.0,279.2 590.9,281.1 592.7,282.9 594.6,284.6 596.5,286.3 598.3,288.0 600.2,289.7 602.1,291.3 604.0,292.9 605.8,294.5 607.7,296.1 609.6,297.6 611.4,299.2 613.3,300.9
615.2,302.5 617.0,304.2 618.9,305.9 620.8,307.6 622.7,309.4 624.5,311.3 626.4,313.2 628.3,315.2 630.1,317.3 632.0,319.5 633.9,321.8 635.8,324.1 637.6,326.6 639.5,329.1 641.4,331.7 643.2,334.4
645.1,337.2 647.0,340.0 648.8,342.9 650.7,345.9 652.6,348.9 654.5,352.0 656.3,355.1 658.2,358.2 660.1,361.4 661.9,364.6 663.8,367.8 665.7,370.9 667.5,374.1 669.4,377.3 671.3,380.4 673.2,383.5
675.0,386.6 676.9,389.7 678.8,392.7 680.6,395.7 682.5,398.6 684.4,401.5 686.3,404.4 688.1,407.2 690.0,410.0 691.9,412.7 693.7,415.4 695.6,418.0 697.5,420.6 699.3,423.2 701.2,425.7 703.1,428.2
705.0,430.6 706.8,433.0 708.7,435.4 710.6,437.8 712.4,440.1 714.3,442.5 716.2,444.7 718.1,447.0 719.9,449.2 721.8,451.5 723.7,453.7 725.5,455.8 727.4,458.0 729.3,460.1 731.1,462.2 733.0,464.3
734.9,466.3 736.8,468.3 738.6,470.3 740.5,472.3 742.4,474.2 744.2,476.1 746.1,478.0 748.0,479.9 749.9,481.7 751.7,483.5 753.6,485.3 755.5,487.1 757.3,488.8 759.2,490.6 761.1,492.3 762.9,494.0
764.8,495.7 766.7,497.4 768.6,499.0 770.4,500.7 772.3,502.3 774.2,503.9 776.0,505.5 777.9,507.1 779.8,508.7 781.7,510.2 783.5,511.7 785.4,513.2 787.3,514.7 789.1,516.1 791.0,517.5 792.9,518.9
794.7,520.3 796.6,521.6 798.5,523.0 800.4,524.3 802.2,525.6 804.1,526.8 806.0,528.1 807.8,529.4 809.7,530.7 811.6,531.9 813.5,533.2 815.3,534.5 817.2,535.7 819.1,537.0 820.9,538.3 822.8,539.6
824.7,540.9 826.5,542.2 828.4,543.6 830.3,544.9 832.2,546.2 834.0,547.6 835.9,548.9 837.8,550.2 839.6,551.6 841.5,552.9 843.4,554.3 845.3,555.6 847.1,556.9 849.0,558.3 850.9,559.6 852.7,560.9
854.6,562.2 856.5,563.5 858.3,564.8 860.2,566.1 862.1,567.4 864.0,568.6 865.8,569.9 867.7,571.1 869.6,572.4 871.4,573.6 873.3,574.8 875.2,575.9 877.1,577.1 878.9,578.2 880.8,579.3 882.7,580.3
884.5,581.4 886.4,582.4 888.3,583.3 890.1,584.3 892.0,585.2 893.9,586.1 895.8,587.0 897.6,587.8 899.5,588.7 901.4,589.5 903.2,590.3 905.1,591.1 907.0,591.9 908.8,592.7 910.7,593.4 912.6,594.2
914.5,595.0 916.3,595.8 918.2,596.6 920.1,597.4 921.9,598.2 923.8,599.1 925.7,599.9 925.7,662.4 923.8,662.4 921.9,662.4 920.1,662.4 918.2,662.4 916.3,662.4 914.5,662.4 912.6,662.4 910.7,662.4
908.8,662.4 907.0,662.4 905.1,662.4 903.2,662.4 901.4,662.4 899.5,662.4 897.6,662.4 895.8,662.4 893.9,662.4 892.0,662.4 890.1,662.4 888.3,662.4 886.4,662.4 884.5,662.4 882.7,662.4 880.8,662.4
878.9,662.4 877.1,662.4 875.2,662.4 873.3,662.4 871.4,662.4 869.6,662.4 867.7,662.4 865.8,662.4 864.0,662.4 862.1,662.4 860.2,662.4 858.3,662.4 856.5,662.4 854.6,662.4 852.7,662.4 850.9,662.4
849.0,662.4 847.1,662.4 845.3,662.4 843.4,662.4 841.5,662.4 839.6,662.4 837.8,662.4 835.9,662.4 834.0,662.4 832.2,662.4 830.3,662.4 828.4,662.4 826.5,662.4 824.7,662.4 822.8,662.4 820.9,662.4
819.1,662.4 817.2,662.4 815.3,662.4 813.5,662.4 811.6,662.4 809.7,662.4 807.8,662.4 806.0,662.4 804.1,662.4 802.2,662.4 800.4,662.4 798.5,662.4 796.6,662.4 794.7,662.4 792.9,662.4 791.0,662.4
789.1,662.4 787.3,662.4 785.4,662.4 783.5,662.4 781.7,662.4 779.8,662.4 777.9,662.4 776.0,662.4 774.2,662.4 772.3,662.4 770.4,662.4 768.6,662.4 766.7,662.4 764.8,662.4 762.9,662.4 761.1,662.4
759.2,662.4 757.3,662.4 755.5,662.4 753.6,662.4 751.7,662.4 749.9,662.4 748.0,662.4 746.1,662.4 744.2,662.4 742.4,662.4 740.5,662.4 738.6,662.4 736.8,662.4 734.9,662.4 733.0,662.4 731.1,662.4
729.3,662.4 727.4,662.4 725.5,662.4 723.7,662.4 721.8,662.4 719.9,662.4 718.1,662.4 716.2,662.4 714.3,662.4 712.4,662.4 710.6,662.4 708.7,662.4 706.8,662.4 705.0,662.4 703.1,662.4 701.2,662.4
699.3,662.4 697.5,662.4 695.6,662.4 693.7,662.4 691.9,662.4 690.0,662.4 688.1,662.4 686.3,662.4 684.4,662.4 682.5,662.4 680.6,662.4 678.8,662.4 676.9,662.4 675.0,662.4 673.2,662.4 671.3,662.4
669.4,662.4 667.5,662.4 665.7,662.4 663.8,662.4 661.9,662.4 660.1,662.4 658.2,662.4 656.3,662.4 654.5,662.4 652.6,662.4 650.7,662.4 648.8,662.4 647.0,662.4 645.1,662.4 643.2,662.4 641.4,662.4
639.5,662.4 637.6,662.4 635.8,662.4 633.9,662.4 632.0,662.4 630.1,662.4 628.3,662.4 626.4,662.4 624.5,662.4 622.7,662.4 620.8,662.4 618.9,662.4 617.0,662.4 615.2,662.4 613.3,662.4 611.4,662.4
609.6,662.4 607.7,662.4 605.8,662.4 604.0,662.4 602.1,662.4 600.2,662.4 598.3,662.4 596.5,662.4 594.6,662.4 592.7,662.4 590.9,662.4 589.0,662.4 587.1,662.4 585.2,662.4 583.4,662.4 581.5,662.4
579.6,662.4 577.8,662.4 575.9,662.4 574.0,662.4 572.2,662.4 570.3,662.4 568.4,662.4 566.5,662.4 564.7,662.4 562.8,662.4 560.9,662.4 559.1,662.4 557.2,662.4 555.3,662.4 553.4,662.4 551.6,662.4
549.7,662.4 547.8,662.4 546.0,662.4 544.1,662.4 542.2,662.4 540.4,662.4 538.5,662.4 536.6,662.4 534.7,662.4 532.9,662.4 531.0,662.4 529.1,662.4 527.3,662.4 525.4,662.4 523.5,662.4 521.6,662.4
519.8,662.4 517.9,662.4 516.0,662.4 514.2,662.4 512.3,662.4 510.4,662.4 508.6,662.4 506.7,662.4 504.8,662.4 502.9,662.4 501.1,662.4 499.2,662.4 497.3,662.4 495.5,662.4 493.6,662.4 491.7,662.4
489.8,662.4 488.0,662.4 486.1,662.4 484.2,662.4 482.4,662.4 480.5,662.4 478.6,662.4 476.8,662.4 474.9,662.4 473.0,662.4 471.1,662.4 469.3,662.4 467.4,662.4 465.5,662.4 463.7,662.4 461.8,662.4
459.9,662.4 458.0,662.4 456.2,662.4 454.3,662.4 452.4,662.4 450.6,662.4 448.7,662.4 446.8,662.4 445.0,662.4 443.1,662.4 441.2,662.4 439.3,662.4 437.5,662.4 435.6,662.4 433.7,662.4 431.9,662.4
430.0,662.4 428.1,662.4 426.3,662.4 424.4,662.4 422.5,662.4 420.6,662.4 418.8,662.4 416.9,662.4 415.0,662.4 413.2,662.4 411.3,662.4 409.4,662.4 407.5,662.4 405.7,662.4 403.8,662.4 401.9,662.4
400.1,662.4 398.2,662.4 396.3,662.4 394.5,662.4 392.6,662.4 390.7,662.4 388.8,662.4 387.0,662.4 385.1,662.4 383.2,662.4 381.4,662.4 379.5,662.4 377.6,662.4 375.7,662.4 373.9,662.4 372.0,662.4
370.1,662.4 368.3,662.4 366.4,662.4 364.5,662.4 362.7,662.4 360.8,662.4 358.9,662.4 357.0,662.4 355.2,662.4 353.3,662.4 351.4,662.4 349.6,662.4 347.7,662.4 345.8,662.4 343.9,662.4 342.1,662.4
340.2,662.4 338.3,662.4 336.5,662.4 334.6,662.4 332.7,662.4 330.9,662.4 329.0,662.4 327.1,662.4 325.2,662.4 323.4,662.4 321.5,662.4 319.6,662.4 317.8,662.4 315.9,662.4 314.0,662.4 312.1,662.4
310.3,662.4 308.4,662.4 306.5,662.4 304.7,662.4 302.8,662.4 300.9,662.4 299.1,662.4 297.2,662.4 295.3,662.4 293.4,662.4 291.6,662.4 289.7,662.4 287.8,662.4 286.0,662.4 284.1,662.4 282.2,662.4
280.3,662.4 278.5,662.4 276.6,662.4 274.7,662.4 272.9,662.4 271.0,662.4 269.1,662.4 267.3,662.4 265.4,662.4 263.5,662.4 261.6,662.4 259.8,662.4 257.9,662.4 256.0,662.4 254.2,662.4 252.3,662.4
250.4,662.4 248.5,662.4 246.7,662.4 244.8,662.4 242.9,662.4 241.1,662.4 239.2,662.4 237.3,662.4 235.5,662.4 233.6,662.4 231.7,662.4 229.8,662.4 228.0,662.4 226.1,662.4 224.2,662.4 222.4,662.4
220.5,662.4 218.6,662.4 216.7,662.4 214.9,662.4 213.0,662.4 211.1,662.4 209.3,662.4 207.4,662.4 205.5,662.4 203.7,662.4 201.8,662.4 199.9,662.4 198.0,662.4 196.2,662.4 194.3,662.4 192.4,662.4
190.6,662.4 188.7,662.4 186.8,662.4 185.0,662.4 183.1,662.4 181.2,662.4 179.3,662.4 177.5,662.4 175.6,662.4 173.7,662.4 171.9,662.4 170.0,662.4 168.1,662.4 166.2,662.4 '/>
	</g>
</g>
	</g>
	<g id="gnuplot_plot_3" ><title>Point estimate</title>
<g fill="none" color="white" stroke="rgb( 31, 120, 180)" stroke-width="2.00" stroke-linecap="butt" stroke-linejoin="miter">
</g>
<g fill="none" color="black" stroke="currentColor" stroke-width="2.00" stroke-linecap="butt" stroke-linejoin="miter">
	<g transform="translate(1089.0,103.0)" stroke="none" fill="black" font-family="Helvetica" font-size="12.00"  text-anchor="start">
		<text><tspan font-family="Helvetica" >Point estimate</tspan></text>
	</g>
</g>
<g fill="none" color="black" stroke="currentColor" stroke-width="2.00" stroke-linecap="butt" stroke-linejoin="miter">
	<path stroke='rgb( 31, 120, 180)'  d='M1038.5,99.1 L1080.7,99.1 M467.7,662.4 L467.7,85.6  '/></g>
	</g>
<g fill="none" color="black" stroke="currentColor" stroke-width="2.00" stroke-linecap="butt" stroke-linejoin="miter">
</g>
<g fill="none" color="black" stroke="black" stroke-width="1.00" stroke-linecap="butt" stroke-linejoin="miter">
</g>
<g fill="none" color="black" stroke="currentColor" stroke-width="1.00" stroke-linecap="butt" stroke-linejoin="miter">
	<path stroke='black'  d='M80.2,54.1 L80.2,662.4 L1013.6,662.4 L1013.6,54.1 L80.2,54.1 Z  '/></g>
<g fill="none" color="black" stroke="currentColor" stroke-width="1.00" stroke-linecap="butt" stroke-linejoin="miter">
</g>
</g>
</svg>

