<?xml version="1.0" encoding="utf-8"  standalone="no"?>
<svg 
 viewBox="0 0 450 300"
 xmlns="http://www.w3.org/2000/svg"
 xmlns:xlink="http://www.w3.org/1999/xlink"
>

<title>Gnuplot</title>
<desc>Produced by GNUPLOT 5.2 patchlevel 6 </desc>

<g id="gnuplot_canvas">

<rect x="0" y="0" width="450" height="300" fill="none"/>
<defs>

	<circle id='gpDot' r='0.5' stroke-width='0.5' stroke='currentColor'/>
	<path id='gpPt0' stroke-width='0.222' stroke='currentColor' d='M-1,0 h2 M0,-1 v2'/>
	<path id='gpPt1' stroke-width='0.222' stroke='currentColor' d='M-1,-1 L1,1 M1,-1 L-1,1'/>
	<path id='gpPt2' stroke-width='0.222' stroke='currentColor' d='M-1,0 L1,0 M0,-1 L0,1 M-1,-1 L1,1 M-1,1 L1,-1'/>
	<rect id='gpPt3' stroke-width='0.222' stroke='currentColor' x='-1' y='-1' width='2' height='2'/>
	<rect id='gpPt4' stroke-width='0.222' stroke='currentColor' fill='currentColor' x='-1' y='-1' width='2' height='2'/>
	<circle id='gpPt5' stroke-width='0.222' stroke='currentColor' cx='0' cy='0' r='1'/>
	<use xlink:href='#gpPt5' id='gpPt6' fill='currentColor' stroke='none'/>
	<path id='gpPt7' stroke-width='0.222' stroke='currentColor' d='M0,-1.33 L-1.33,0.67 L1.33,0.67 z'/>
	<use xlink:href='#gpPt7' id='gpPt8' fill='currentColor' stroke='none'/>
	<use xlink:href='#gpPt7' id='gpPt9' stroke='currentColor' transform='rotate(180)'/>
	<use xlink:href='#gpPt9' id='gpPt10' fill='currentColor' stroke='none'/>
	<use xlink:href='#gpPt3' id='gpPt11' stroke='currentColor' transform='rotate(45)'/>
	<use xlink:href='#gpPt11' id='gpPt12' fill='currentColor' stroke='none'/>
	<path id='gpPt13' stroke-width='0.222' stroke='currentColor' d='M0,1.330 L1.265,0.411 L0.782,-1.067 L-0.782,-1.076 L-1.265,0.411 z'/>
	<use xlink:href='#gpPt13' id='gpPt14' fill='currentColor' stroke='none'/>
	<filter id='textbox' filterUnits='objectBoundingBox' x='0' y='0' height='1' width='1'>
	  <feFlood flood-color='white' flood-opacity='1' result='bgnd'/>
	  <feComposite in='SourceGraphic' in2='bgnd' operator='atop'/>
	</filter>
	<filter id='greybox' filterUnits='objectBoundingBox' x='0' y='0' height='1' width='1'>
	  <feFlood flood-color='lightgrey' flood-opacity='1' result='grey'/>
	  <feComposite in='SourceGraphic' in2='grey' operator='atop'/>
	</filter>
</defs>
<g fill="none" color="white" stroke="currentColor" stroke-width="1.00" stroke-linecap="butt" stroke-linejoin="miter">
</g>
<g fill="none" color="black" stroke="currentColor" stroke-width="1.00" stroke-linecap="butt" stroke-linejoin="miter">
	<path stroke='black'  d='M88.5,242.4 L97.5,242.4  '/>	<g transform="translate(80.2,246.3)" stroke="none" fill="black" font-family="Helvetica" font-size="12.00"  text-anchor="end">
		<text><tspan font-family="Helvetica" > 0</tspan></text>
	</g>
</g>
<g fill="none" color="black" stroke="currentColor" stroke-width="1.00" stroke-linecap="butt" stroke-linejoin="miter">
	<path stroke='black'  d='M88.5,218.3 L97.5,218.3  '/>	<g transform="translate(80.2,222.2)" stroke="none" fill="black" font-family="Helvetica" font-size="12.00"  text-anchor="end">
		<text><tspan font-family="Helvetica" > 1x10</tspan><tspan font-family="Helvetica"  font-size="9.6" dy="-6.00px">-8</tspan><tspan font-size="12.0" dy="6.00"></tspan></text>
	</g>
</g>
<g fill="none" color="black" stroke="currentColor" stroke-width="1.00" stroke-linecap="butt" stroke-linejoin="miter">
	<path stroke='black'  d='M88.5,194.2 L97.5,194.2  '/>	<g transform="translate(80.2,198.1)" stroke="none" fill="black" font-family="Helvetica" font-size="12.00"  text-anchor="end">
		<text><tspan font-family="Helvetica" > 2x10</tspan><tspan font-family="Helvetica"  font-size="9.6" dy="-6.00px">-8</tspan><tspan font-size="12.0" dy="6.00"></tspan></text>
	</g>
</g>
<g fill="none" color="black" stroke="currentColor" stroke-width="1.00" stroke-linecap="butt" stroke-linejoin="miter">
	<path stroke='black'  d='M88.5,170.1 L97.5,170.1  '/>	<g transform="translate(80.2,174.0)" stroke="none" fill="black" font-family="Helvetica" font-size="12.00"  text-anchor="end">
		<text><tspan font-family="Helvetica" > 3x10</tspan><tspan font-family="Helvetica"  font-size="9.6" dy="-6.00px">-8</tspan><tspan font-size="12.0" dy="6.00"></tspan></text>
	</g>
</g>
<g fill="none" color="black" stroke="currentColor" stroke-width="1.00" stroke-linecap="butt" stroke-linejoin="miter">
	<path stroke='black'  d='M88.5,146.1 L97.5,146.1  '/>	<g transform="translate(80.2,150.0)" stroke="none" fill="black" font-family="Helvetica" font-size="12.00"  text-anchor="end">
		<text><tspan font-family="Helvetica" > 4x10</tspan><tspan font-family="Helvetica"  font-size="9.6" dy="-6.00px">-8</tspan><tspan font-size="12.0" dy="6.00"></tspan></text>
	</g>
</g>
<g fill="none" color="black" stroke="currentColor" stroke-width="1.00" stroke-linecap="butt" stroke-linejoin="miter">
	<path stroke='black'  d='M88.5,122.0 L97.5,122.0  '/>	<g transform="translate(80.2,125.9)" stroke="none" fill="black" font-family="Helvetica" font-size="12.00"  text-anchor="end">
		<text><tspan font-family="Helvetica" > 5x10</tspan><tspan font-family="Helvetica"  font-size="9.6" dy="-6.00px">-8</tspan><tspan font-size="12.0" dy="6.00"></tspan></text>
	</g>
</g>
<g fill="none" color="black" stroke="currentColor" stroke-width="1.00" stroke-linecap="butt" stroke-linejoin="miter">
	<path stroke='black'  d='M88.5,97.9 L97.5,97.9  '/>	<g transform="translate(80.2,101.8)" stroke="none" fill="black" font-family="Helvetica" font-size="12.00"  text-anchor="end">
		<text><tspan font-family="Helvetica" > 6x10</tspan><tspan font-family="Helvetica"  font-size="9.6" dy="-6.00px">-8</tspan><tspan font-size="12.0" dy="6.00"></tspan></text>
	</g>
</g>
<g fill="none" color="black" stroke="currentColor" stroke-width="1.00" stroke-linecap="butt" stroke-linejoin="miter">
	<path stroke='black'  d='M88.5,73.8 L97.5,73.8  '/>	<g transform="translate(80.2,77.7)" stroke="none" fill="black" font-family="Helvetica" font-size="12.00"  text-anchor="end">
		<text><tspan font-family="Helvetica" > 7x10</tspan><tspan font-family="Helvetica"  font-size="9.6" dy="-6.00px">-8</tspan><tspan font-size="12.0" dy="6.00"></tspan></text>
	</g>
</g>
<g fill="none" color="black" stroke="currentColor" stroke-width="1.00" stroke-linecap="butt" stroke-linejoin="miter">
	<path stroke='black'  d='M88.5,49.7 L97.5,49.7  '/>	<g transform="translate(80.2,53.6)" stroke="none" fill="black" font-family="Helvetica" font-size="12.00"  text-anchor="end">
		<text><tspan font-family="Helvetica" > 8x10</tspan><tspan font-family="Helvetica"  font-size="9.6" dy="-6.00px">-8</tspan><tspan font-size="12.0" dy="6.00"></tspan></text>
	</g>
</g>
<g fill="none" color="black" stroke="currentColor" stroke-width="1.00" stroke-linecap="butt" stroke-linejoin="miter">
	<path stroke='black'  d='M88.5,25.6 L97.5,25.6  '/>	<g transform="translate(80.2,29.5)" stroke="none" fill="black" font-family="Helvetica" font-size="12.00"  text-anchor="end">
		<text><tspan font-family="Helvetica" > 9x10</tspan><tspan font-family="Helvetica"  font-size="9.6" dy="-6.00px">-8</tspan><tspan font-size="12.0" dy="6.00"></tspan></text>
	</g>
</g>
<g fill="none" color="black" stroke="currentColor" stroke-width="1.00" stroke-linecap="butt" stroke-linejoin="miter">
	<path stroke='black'  d='M120.2,242.4 L120.2,233.4  '/>	<g transform="translate(120.2,264.3)" stroke="none" fill="black" font-family="Helvetica" font-size="12.00"  text-anchor="middle">
		<text><tspan font-family="Helvetica" > 60</tspan></text>
	</g>
</g>
<g fill="none" color="black" stroke="currentColor" stroke-width="1.00" stroke-linecap="butt" stroke-linejoin="miter">
	<path stroke='black'  d='M179.0,242.4 L179.0,233.4  '/>	<g transform="translate(179.0,264.3)" stroke="none" fill="black" font-family="Helvetica" font-size="12.00"  text-anchor="middle">
		<text><tspan font-family="Helvetica" > 80</tspan></text>
	</g>
</g>
<g fill="none" color="black" stroke="currentColor" stroke-width="1.00" stroke-linecap="butt" stroke-linejoin="miter">
	<path stroke='black'  d='M237.8,242.4 L237.8,233.4  '/>	<g transform="translate(237.8,264.3)" stroke="none" fill="black" font-family="Helvetica" font-size="12.00"  text-anchor="middle">
		<text><tspan font-family="Helvetica" > 100</tspan></text>
	</g>
</g>
<g fill="none" color="black" stroke="currentColor" stroke-width="1.00" stroke-linecap="butt" stroke-linejoin="miter">
	<path stroke='black'  d='M296.6,242.4 L296.6,233.4  '/>	<g transform="translate(296.6,264.3)" stroke="none" fill="black" font-family="Helvetica" font-size="12.00"  text-anchor="middle">
		<text><tspan font-family="Helvetica" > 120</tspan></text>
	</g>
</g>
<g fill="none" color="black" stroke="currentColor" stroke-width="1.00" stroke-linecap="butt" stroke-linejoin="miter">
	<path stroke='black'  d='M355.4,242.4 L355.4,233.4  '/>	<g transform="translate(355.4,264.3)" stroke="none" fill="black" font-family="Helvetica" font-size="12.00"  text-anchor="middle">
		<text><tspan font-family="Helvetica" > 140</tspan></text>
	</g>
</g>
<g fill="none" color="black" stroke="currentColor" stroke-width="1.00" stroke-linecap="butt" stroke-linejoin="miter">
	<path stroke='black'  d='M414.2,242.4 L414.2,233.4  '/>	<g transform="translate(414.2,264.3)" stroke="none" fill="black" font-family="Helvetica" font-size="12.00"  text-anchor="middle">
		<text><tspan font-family="Helvetica" > 160</tspan></text>
	</g>
</g>
<g fill="none" color="black" stroke="currentColor" stroke-width="1.00" stroke-linecap="butt" stroke-linejoin="miter">
</g>
<g fill="none" color="black" stroke="currentColor" stroke-width="1.00" stroke-linecap="butt" stroke-linejoin="miter">
	<path stroke='black'  d='M88.5,18.1 L88.5,242.4 L425.0,242.4 L425.0,18.1 L88.5,18.1 Z  '/></g>
<g fill="none" color="black" stroke="currentColor" stroke-width="1.00" stroke-linecap="butt" stroke-linejoin="miter">
	<g transform="translate(16.3,130.3) rotate(270)" stroke="none" fill="black" font-family="Helvetica" font-size="12.00"  text-anchor="middle">
		<text><tspan font-family="Helvetica" >Density (a.u.)</tspan></text>
	</g>
</g>
<g fill="none" color="black" stroke="currentColor" stroke-width="1.00" stroke-linecap="butt" stroke-linejoin="miter">
	<g transform="translate(256.7,291.3)" stroke="none" fill="black" font-family="Helvetica" font-size="12.00"  text-anchor="middle">
		<text><tspan font-family="Helvetica" >Average time (ms)</tspan></text>
	</g>
</g>
<g fill="none" color="black" stroke="currentColor" stroke-width="1.00" stroke-linecap="butt" stroke-linejoin="miter">
</g>
	<g id="gnuplot_plot_1" ><title>PDF</title>
<g fill="none" color="black" stroke="currentColor" stroke-width="1.00" stroke-linecap="butt" stroke-linejoin="miter">
	<g stroke='none' shape-rendering='crispEdges'>
		<polygon fill = 'rgb( 31, 120, 180)' fill-opacity = '0.250000' points = '88.5,242.1 89.2,242.1 89.8,242.0 90.5,241.9 91.2,241.8 91.9,241.7 92.5,241.6 93.2,241.4 93.9,241.3 94.6,241.1 95.2,240.8 95.9,240.5 96.6,240.2 97.3,239.9 97.9,239.4 98.6,239.0
99.3,238.4 100.0,237.8 100.6,237.1 101.3,236.3 102.0,235.5 102.7,234.5 103.3,233.4 104.0,232.1 104.7,230.8 105.4,229.3 106.0,227.6 106.7,225.8 107.4,223.8 108.1,221.6 108.7,219.3 109.4,216.7
110.1,213.9 110.8,210.9 111.4,207.6 112.1,204.2 112.8,200.4 113.5,196.5 114.1,192.3 114.8,187.8 115.5,183.2 116.1,178.2 116.8,173.1 117.5,167.7 118.2,162.1 118.8,156.2 119.5,150.2 120.2,144.0
120.9,137.7 121.5,131.2 122.2,124.6 122.9,117.9 123.6,111.2 124.2,104.4 124.9,97.7 125.6,90.9 126.3,84.3 126.9,77.8 127.6,71.4 128.3,65.2 129.0,59.2 129.6,53.6 130.3,48.2 131.0,43.1
131.7,38.5 132.3,34.2 133.0,30.4 133.7,27.1 134.4,24.2 135.0,21.9 135.7,20.1 136.4,18.9 137.1,18.2 137.7,18.1 138.4,18.6 139.1,19.6 139.8,21.2 140.4,23.4 141.1,26.1 141.8,29.3
142.4,33.0 143.1,37.2 143.8,41.9 144.5,46.9 145.1,52.3 145.8,58.0 146.5,64.0 147.2,70.3 147.8,76.8 148.5,83.4 149.2,90.2 149.9,97.0 150.5,103.9 151.2,110.8 151.9,117.7 152.6,124.5
153.2,131.2 153.9,137.8 154.6,144.3 155.3,150.5 155.9,156.6 156.6,162.4 157.3,168.1 158.0,173.5 158.6,178.6 159.3,183.5 160.0,188.1 160.7,192.5 161.3,196.6 162.0,200.5 162.7,204.1 163.4,207.4
164.0,210.5 164.7,213.4 165.4,216.1 166.1,218.6 166.7,220.8 167.4,222.9 168.1,224.8 168.7,226.5 169.4,228.1 170.1,229.5 170.8,230.8 171.4,231.9 172.1,233.0 172.8,233.9 173.5,234.8 174.1,235.5
174.8,236.2 175.5,236.7 176.2,237.2 176.8,237.7 177.5,238.1 178.2,238.4 178.9,238.7 179.5,238.9 180.2,239.1 180.9,239.3 181.6,239.4 182.2,239.5 182.9,239.6 183.6,239.6 184.3,239.6 184.9,239.6
185.6,239.6 186.3,239.5 187.0,239.5 187.6,239.4 188.3,239.3 189.0,239.2 189.7,239.1 190.3,239.0 191.0,238.9 191.7,238.8 192.3,238.7 193.0,238.6 193.7,238.5 194.4,238.4 195.0,238.3 195.7,238.2
196.4,238.1 197.1,238.0 197.7,237.9 198.4,237.8 199.1,237.8 199.8,237.7 200.4,237.7 201.1,237.7 201.8,237.7 202.5,237.6 203.1,237.7 203.8,237.7 204.5,237.7 205.2,237.7 205.8,237.8 206.5,237.9
207.2,237.9 207.9,238.0 208.5,238.1 209.2,238.2 209.9,238.3 210.6,238.4 211.2,238.6 211.9,238.7 212.6,238.8 213.3,239.0 213.9,239.1 214.6,239.3 215.3,239.4 216.0,239.5 216.6,239.7 217.3,239.8
218.0,240.0 218.6,240.1 219.3,240.3 220.0,240.4 220.7,240.6 221.3,240.7 222.0,240.8 222.7,240.9 223.4,241.0 224.0,241.2 224.7,241.3 225.4,241.4 226.1,241.5 226.7,241.5 227.4,241.6 228.1,241.7
228.8,241.8 229.4,241.8 230.1,241.9 230.8,241.9 231.5,242.0 232.1,242.0 232.8,242.1 233.5,242.1 234.2,242.2 234.8,242.2 235.5,242.2 236.2,242.2 236.9,242.3 237.5,242.3 238.2,242.3 238.9,242.3
239.6,242.3 240.2,242.3 240.9,242.3 241.6,242.4 242.3,242.4 242.9,242.4 243.6,242.4 244.3,242.4 244.9,242.4 245.6,242.4 246.3,242.4 247.0,242.4 247.6,242.4 248.3,242.4 249.0,242.4 249.7,242.4
250.3,242.4 251.0,242.4 251.7,242.4 252.4,242.4 253.0,242.4 253.7,242.4 254.4,242.4 255.1,242.4 255.7,242.4 256.4,242.4 257.1,242.4 257.8,242.4 258.4,242.4 259.1,242.4 259.8,242.4 260.5,242.4
261.1,242.4 261.8,242.4 262.5,242.4 263.2,242.4 263.8,242.4 264.5,242.4 265.2,242.4 265.9,242.4 266.5,242.4 267.2,242.4 267.9,242.4 268.6,242.4 269.2,242.4 269.9,242.4 270.6,242.4 271.2,242.4
271.9,242.4 272.6,242.4 273.3,242.4 273.9,242.4 274.6,242.4 275.3,242.4 276.0,242.4 276.6,242.4 277.3,242.4 278.0,242.4 278.7,242.4 279.3,242.4 280.0,242.4 280.7,242.4 281.4,242.4 282.0,242.4
282.7,242.4 283.4,242.4 284.1,242.4 284.7,242.4 285.4,242.4 286.1,242.4 286.8,242.4 287.4,242.4 288.1,242.4 288.8,242.4 289.5,242.4 290.1,242.4 290.8,242.4 291.5,242.4 292.2,242.4 292.8,242.4
293.5,242.4 294.2,242.4 294.9,242.4 295.5,242.4 296.2,242.4 296.9,242.4 297.5,242.4 298.2,242.4 298.9,242.4 299.6,242.4 300.2,242.4 300.9,242.4 301.6,242.4 302.3,242.4 302.9,242.4 303.6,242.4
304.3,242.4 305.0,242.4 305.6,242.4 306.3,242.4 307.0,242.4 307.7,242.4 308.3,242.4 309.0,242.4 309.7,242.4 310.4,242.4 311.0,242.4 311.7,242.4 312.4,242.4 313.1,242.4 313.7,242.4 314.4,242.4
315.1,242.4 315.8,242.4 316.4,242.4 317.1,242.4 317.8,242.4 318.5,242.4 319.1,242.4 319.8,242.4 320.5,242.4 321.2,242.4 321.8,242.4 322.5,242.4 323.2,242.4 323.8,242.4 324.5,242.4 325.2,242.4
325.9,242.4 326.5,242.4 327.2,242.4 327.9,242.4 328.6,242.4 329.2,242.4 329.9,242.4 330.6,242.4 331.3,242.4 331.9,242.4 332.6,242.4 333.3,242.4 334.0,242.4 334.6,242.4 335.3,242.4 336.0,242.4
336.7,242.4 337.3,242.4 338.0,242.4 338.7,242.4 339.4,242.4 340.0,242.4 340.7,242.4 341.4,242.4 342.1,242.4 342.7,242.4 343.4,242.4 344.1,242.4 344.8,242.4 345.4,242.4 346.1,242.4 346.8,242.4
347.4,242.4 348.1,242.4 348.8,242.4 349.5,242.4 350.1,242.4 350.8,242.4 351.5,242.4 352.2,242.4 352.8,242.4 353.5,242.4 354.2,242.4 354.9,242.4 355.5,242.4 356.2,242.4 356.9,242.4 357.6,242.3
358.2,242.3 358.9,242.3 359.6,242.3 360.3,242.3 360.9,242.3 361.6,242.3 362.3,242.2 363.0,242.2 363.6,242.2 364.3,242.2 365.0,242.1 365.7,242.1 366.3,242.1 367.0,242.0 367.7,242.0 368.4,241.9
369.0,241.9 369.7,241.8 370.4,241.8 371.1,241.7 371.7,241.6 372.4,241.6 373.1,241.5 373.7,241.4 374.4,241.3 375.1,241.2 375.8,241.1 376.4,241.1 377.1,241.0 377.8,240.9 378.5,240.8 379.1,240.7
379.8,240.6 380.5,240.5 381.2,240.4 381.8,240.3 382.5,240.2 383.2,240.2 383.9,240.1 384.5,240.0 385.2,240.0 385.9,239.9 386.6,239.8 387.2,239.8 387.9,239.8 388.6,239.8 389.3,239.7 389.9,239.7
390.6,239.7 391.3,239.7 392.0,239.8 392.6,239.8 393.3,239.8 394.0,239.9 394.7,239.9 395.3,240.0 396.0,240.1 396.7,240.1 397.4,240.2 398.0,240.3 398.7,240.4 399.4,240.5 400.0,240.6 400.7,240.6
401.4,240.7 402.1,240.8 402.7,240.9 403.4,241.0 404.1,241.1 404.8,241.2 405.4,241.3 406.1,241.4 406.8,241.4 407.5,241.5 408.1,241.6 408.8,241.7 409.5,241.7 410.2,241.8 410.8,241.9 411.5,241.9
412.2,242.0 412.9,242.0 413.5,242.1 414.2,242.1 414.9,242.1 415.6,242.2 416.2,242.2 416.9,242.2 417.6,242.2 418.3,242.3 418.9,242.3 419.6,242.3 420.3,242.3 421.0,242.3 421.6,242.3 422.3,242.3
423.0,242.4 423.7,242.4 424.3,242.4 425.0,242.4 425.0,242.4 424.3,242.4 423.7,242.4 423.0,242.4 422.3,242.4 421.6,242.4 421.0,242.4 420.3,242.4 419.6,242.4 418.9,242.4 418.3,242.4 417.6,242.4
416.9,242.4 416.2,242.4 415.6,242.4 414.9,242.4 414.2,242.4 413.5,242.4 412.9,242.4 412.2,242.4 411.5,242.4 410.8,242.4 410.2,242.4 409.5,242.4 408.8,242.4 408.1,242.4 407.5,242.4 406.8,242.4
406.1,242.4 405.4,242.4 404.8,242.4 404.1,242.4 403.4,242.4 402.7,242.4 402.1,242.4 401.4,242.4 400.7,242.4 400.0,242.4 399.4,242.4 398.7,242.4 398.0,242.4 397.4,242.4 396.7,242.4 396.0,242.4
395.3,242.4 394.7,242.4 394.0,242.4 393.3,242.4 392.6,242.4 392.0,242.4 391.3,242.4 390.6,242.4 389.9,242.4 389.3,242.4 388.6,242.4 387.9,242.4 387.2,242.4 386.6,242.4 385.9,242.4 385.2,242.4
384.5,242.4 383.9,242.4 383.2,242.4 382.5,242.4 381.8,242.4 381.2,242.4 380.5,242.4 379.8,242.4 379.1,242.4 378.5,242.4 377.8,242.4 377.1,242.4 376.4,242.4 375.8,242.4 375.1,242.4 374.4,242.4
373.7,242.4 373.1,242.4 372.4,242.4 371.7,242.4 371.1,242.4 370.4,242.4 369.7,242.4 369.0,242.4 368.4,242.4 367.7,242.4 367.0,242.4 366.3,242.4 365.7,242.4 365.0,242.4 364.3,242.4 363.6,242.4
363.0,242.4 362.3,242.4 361.6,242.4 360.9,242.4 360.3,242.4 359.6,242.4 358.9,242.4 358.2,242.4 357.6,242.4 356.9,242.4 356.2,242.4 355.5,242.4 354.9,242.4 354.2,242.4 353.5,242.4 352.8,242.4
352.2,242.4 351.5,242.4 350.8,242.4 350.1,242.4 349.5,242.4 348.8,242.4 348.1,242.4 347.4,242.4 346.8,242.4 346.1,242.4 345.4,242.4 344.8,242.4 344.1,242.4 343.4,242.4 342.7,242.4 342.1,242.4
341.4,242.4 340.7,242.4 340.0,242.4 339.4,242.4 338.7,242.4 338.0,242.4 337.3,242.4 336.7,242.4 336.0,242.4 335.3,242.4 334.6,242.4 334.0,242.4 333.3,242.4 332.6,242.4 331.9,242.4 331.3,242.4
330.6,242.4 329.9,242.4 329.2,242.4 328.6,242.4 327.9,242.4 327.2,242.4 326.5,242.4 325.9,242.4 325.2,242.4 324.5,242.4 323.8,242.4 323.2,242.4 322.5,242.4 321.8,242.4 321.2,242.4 320.5,242.4
319.8,242.4 319.1,242.4 318.5,242.4 317.8,242.4 317.1,242.4 316.4,242.4 315.8,242.4 315.1,242.4 314.4,242.4 313.7,242.4 313.1,242.4 312.4,242.4 311.7,242.4 311.0,242.4 310.4,242.4 309.7,242.4
309.0,242.4 308.3,242.4 307.7,242.4 307.0,242.4 306.3,242.4 305.6,242.4 305.0,242.4 304.3,242.4 303.6,242.4 302.9,242.4 302.3,242.4 301.6,242.4 300.9,242.4 300.2,242.4 299.6,242.4 298.9,242.4
298.2,242.4 297.5,242.4 296.9,242.4 296.2,242.4 295.5,242.4 294.9,242.4 294.2,242.4 293.5,242.4 292.8,242.4 292.2,242.4 291.5,242.4 290.8,242.4 290.1,242.4 289.5,242.4 288.8,242.4 288.1,242.4
287.4,242.4 286.8,242.4 286.1,242.4 285.4,242.4 284.7,242.4 284.1,242.4 283.4,242.4 282.7,242.4 282.0,242.4 281.4,242.4 280.7,242.4 280.0,242.4 279.3,242.4 278.7,242.4 278.0,242.4 277.3,242.4
276.6,242.4 276.0,242.4 275.3,242.4 274.6,242.4 273.9,242.4 273.3,242.4 272.6,242.4 271.9,242.4 271.2,242.4 270.6,242.4 269.9,242.4 269.2,242.4 268.6,242.4 267.9,242.4 267.2,242.4 266.5,242.4
265.9,242.4 265.2,242.4 264.5,242.4 263.8,242.4 263.2,242.4 262.5,242.4 261.8,242.4 261.1,242.4 260.5,242.4 259.8,242.4 259.1,242.4 258.4,242.4 257.8,242.4 257.1,242.4 256.4,242.4 255.7,242.4
255.1,242.4 254.4,242.4 253.7,242.4 253.0,242.4 252.4,242.4 251.7,242.4 251.0,242.4 250.3,242.4 249.7,242.4 249.0,242.4 248.3,242.4 247.6,242.4 247.0,242.4 246.3,242.4 245.6,242.4 244.9,242.4
244.3,242.4 243.6,242.4 242.9,242.4 242.3,242.4 241.6,242.4 240.9,242.4 240.2,242.4 239.6,242.4 238.9,242.4 238.2,242.4 237.5,242.4 236.9,242.4 236.2,242.4 235.5,242.4 234.8,242.4 234.2,242.4
233.5,242.4 232.8,242.4 232.1,242.4 231.5,242.4 230.8,242.4 230.1,242.4 229.4,242.4 228.8,242.4 228.1,242.4 227.4,242.4 226.7,242.4 226.1,242.4 225.4,242.4 224.7,242.4 224.0,242.4 223.4,242.4
222.7,242.4 222.0,242.4 221.3,242.4 220.7,242.4 220.0,242.4 219.3,242.4 218.6,242.4 218.0,242.4 217.3,242.4 216.6,242.4 216.0,242.4 215.3,242.4 214.6,242.4 213.9,242.4 213.3,242.4 212.6,242.4
211.9,242.4 211.2,242.4 210.6,242.4 209.9,242.4 209.2,242.4 208.5,242.4 207.9,242.4 207.2,242.4 206.5,242.4 205.8,242.4 205.2,242.4 204.5,242.4 203.8,242.4 203.1,242.4 202.5,242.4 201.8,242.4
201.1,242.4 200.4,242.4 199.8,242.4 199.1,242.4 198.4,242.4 197.7,242.4 197.1,242.4 196.4,242.4 195.7,242.4 195.0,242.4 194.4,242.4 193.7,242.4 193.0,242.4 192.3,242.4 191.7,242.4 191.0,242.4
190.3,242.4 189.7,242.4 189.0,242.4 188.3,242.4 187.6,242.4 187.0,242.4 186.3,242.4 185.6,242.4 184.9,242.4 184.3,242.4 183.6,242.4 182.9,242.4 182.2,242.4 181.6,242.4 180.9,242.4 180.2,242.4
179.5,242.4 178.9,242.4 178.2,242.4 177.5,242.4 176.8,242.4 176.2,242.4 175.5,242.4 174.8,242.4 174.1,242.4 173.5,242.4 172.8,242.4 172.1,242.4 171.4,242.4 170.8,242.4 170.1,242.4 169.4,242.4
168.7,242.4 168.1,242.4 167.4,242.4 166.7,242.4 166.1,242.4 165.4,242.4 164.7,242.4 164.0,242.4 163.4,242.4 162.7,242.4 162.0,242.4 161.3,242.4 160.7,242.4 160.0,242.4 159.3,242.4 158.6,242.4
158.0,242.4 157.3,242.4 156.6,242.4 155.9,242.4 155.3,242.4 154.6,242.4 153.9,242.4 153.2,242.4 152.6,242.4 151.9,242.4 151.2,242.4 150.5,242.4 149.9,242.4 149.2,242.4 148.5,242.4 147.8,242.4
147.2,242.4 146.5,242.4 145.8,242.4 145.1,242.4 144.5,242.4 143.8,242.4 143.1,242.4 142.4,242.4 141.8,242.4 141.1,242.4 140.4,242.4 139.8,242.4 139.1,242.4 138.4,242.4 137.7,242.4 137.1,242.4
136.4,242.4 135.7,242.4 135.0,242.4 134.4,242.4 133.7,242.4 133.0,242.4 132.3,242.4 131.7,242.4 131.0,242.4 130.3,242.4 129.6,242.4 129.0,242.4 128.3,242.4 127.6,242.4 126.9,242.4 126.3,242.4
125.6,242.4 124.9,242.4 124.2,242.4 123.6,242.4 122.9,242.4 122.2,242.4 121.5,242.4 120.9,242.4 120.2,242.4 119.5,242.4 118.8,242.4 118.2,242.4 117.5,242.4 116.8,242.4 116.1,242.4 115.5,242.4
114.8,242.4 114.1,242.4 113.5,242.4 112.8,242.4 112.1,242.4 111.4,242.4 110.8,242.4 110.1,242.4 109.4,242.4 108.7,242.4 108.1,242.4 107.4,242.4 106.7,242.4 106.0,242.4 105.4,242.4 104.7,242.4
104.0,242.4 103.3,242.4 102.7,242.4 102.0,242.4 101.3,242.4 100.6,242.4 100.0,242.4 99.3,242.4 98.6,242.4 97.9,242.4 97.3,242.4 96.6,242.4 95.9,242.4 95.2,242.4 94.6,242.4 93.9,242.4
93.2,242.4 92.5,242.4 91.9,242.4 91.2,242.4 90.5,242.4 89.8,242.4 89.2,242.4 88.5,242.4 '/>
	</g>
</g>
	</g>
	<g id="gnuplot_plot_2" ><title>Mean</title>
<g fill="none" color="white" stroke="rgb( 31, 120, 180)" stroke-width="2.00" stroke-linecap="butt" stroke-linejoin="miter">
</g>
<g fill="none" color="black" stroke="currentColor" stroke-width="2.00" stroke-linecap="butt" stroke-linejoin="miter">
	<path stroke='rgb( 31, 120, 180)'  d='M141.3,242.4 L141.3,46.7  '/></g>
	</g>
<g fill="none" color="black" stroke="currentColor" stroke-width="2.00" stroke-linecap="butt" stroke-linejoin="miter">
</g>
<g fill="none" color="black" stroke="black" stroke-width="1.00" stroke-linecap="butt" stroke-linejoin="miter">
</g>
<g fill="none" color="black" stroke="currentColor" stroke-width="1.00" stroke-linecap="butt" stroke-linejoin="miter">
	<path stroke='black'  d='M88.5,18.1 L88.5,242.4 L425.0,242.4 L425.0,18.1 L88.5,18.1 Z  '/></g>
<g fill="none" color="black" stroke="currentColor" stroke-width="1.00" stroke-linecap="butt" stroke-linejoin="miter">
</g>
</g>
</svg>

