<?xml version="1.0" encoding="utf-8"  standalone="no"?>
<svg 
 viewBox="0 0 1280 250"
 xmlns="http://www.w3.org/2000/svg"
 xmlns:xlink="http://www.w3.org/1999/xlink"
>

<title>Gnuplot</title>
<desc>Produced by GNUPLOT 5.2 patchlevel 6 </desc>

<g id="gnuplot_canvas">

<rect x="0" y="0" width="1280" height="250" fill="none"/>
<defs>

	<circle id='gpDot' r='0.5' stroke-width='0.5' stroke='currentColor'/>
	<path id='gpPt0' stroke-width='0.222' stroke='currentColor' d='M-1,0 h2 M0,-1 v2'/>
	<path id='gpPt1' stroke-width='0.222' stroke='currentColor' d='M-1,-1 L1,1 M1,-1 L-1,1'/>
	<path id='gpPt2' stroke-width='0.222' stroke='currentColor' d='M-1,0 L1,0 M0,-1 L0,1 M-1,-1 L1,1 M-1,1 L1,-1'/>
	<rect id='gpPt3' stroke-width='0.222' stroke='currentColor' x='-1' y='-1' width='2' height='2'/>
	<rect id='gpPt4' stroke-width='0.222' stroke='currentColor' fill='currentColor' x='-1' y='-1' width='2' height='2'/>
	<circle id='gpPt5' stroke-width='0.222' stroke='currentColor' cx='0' cy='0' r='1'/>
	<use xlink:href='#gpPt5' id='gpPt6' fill='currentColor' stroke='none'/>
	<path id='gpPt7' stroke-width='0.222' stroke='currentColor' d='M0,-1.33 L-1.33,0.67 L1.33,0.67 z'/>
	<use xlink:href='#gpPt7' id='gpPt8' fill='currentColor' stroke='none'/>
	<use xlink:href='#gpPt7' id='gpPt9' stroke='currentColor' transform='rotate(180)'/>
	<use xlink:href='#gpPt9' id='gpPt10' fill='currentColor' stroke='none'/>
	<use xlink:href='#gpPt3' id='gpPt11' stroke='currentColor' transform='rotate(45)'/>
	<use xlink:href='#gpPt11' id='gpPt12' fill='currentColor' stroke='none'/>
	<path id='gpPt13' stroke-width='0.222' stroke='currentColor' d='M0,1.330 L1.265,0.411 L0.782,-1.067 L-0.782,-1.076 L-1.265,0.411 z'/>
	<use xlink:href='#gpPt13' id='gpPt14' fill='currentColor' stroke='none'/>
	<filter id='textbox' filterUnits='objectBoundingBox' x='0' y='0' height='1' width='1'>
	  <feFlood flood-color='white' flood-opacity='1' result='bgnd'/>
	  <feComposite in='SourceGraphic' in2='bgnd' operator='atop'/>
	</filter>
	<filter id='greybox' filterUnits='objectBoundingBox' x='0' y='0' height='1' width='1'>
	  <feFlood flood-color='lightgrey' flood-opacity='1' result='grey'/>
	  <feComposite in='SourceGraphic' in2='grey' operator='atop'/>
	</filter>
</defs>
<g fill="none" color="white" stroke="currentColor" stroke-width="1.00" stroke-linecap="butt" stroke-linejoin="miter">
</g>
<g fill="none" color="black" stroke="currentColor" stroke-width="1.00" stroke-linecap="butt" stroke-linejoin="miter">
	<path stroke='black'  d='M154.9,157.8 L163.9,157.8  '/>	<g transform="translate(146.6,161.7)" stroke="none" fill="black" font-family="Helvetica" font-size="12.00"  text-anchor="end">
		<text><tspan font-family="Helvetica" >get_bench/sled</tspan></text>
	</g>
</g>
<g fill="none" color="black" stroke="currentColor" stroke-width="1.00" stroke-linecap="butt" stroke-linejoin="miter">
	<path stroke='black'  d='M154.9,88.7 L163.9,88.7  '/>	<g transform="translate(146.6,92.6)" stroke="none" fill="black" font-family="Helvetica" font-size="12.00"  text-anchor="end">
		<text><tspan font-family="Helvetica" >get_bench/kvs</tspan></text>
	</g>
</g>
<g fill="none" color="black" stroke="currentColor" stroke-width="1.00" stroke-linecap="butt" stroke-linejoin="miter">
</g>
<g fill="none" color="black" stroke="black" stroke-width="0.50" stroke-linecap="butt" stroke-linejoin="miter">
</g>
<g fill="none" color="gray" stroke="currentColor" stroke-width="0.50" stroke-linecap="butt" stroke-linejoin="miter">
	<path stroke='gray' stroke-dasharray='2,4' class="gridline"  d='M154.9,192.4 L154.9,54.1  '/></g>
<g fill="none" color="gray" stroke="gray" stroke-width="1.00" stroke-linecap="butt" stroke-linejoin="miter">
</g>
<g fill="none" color="black" stroke="currentColor" stroke-width="1.00" stroke-linecap="butt" stroke-linejoin="miter">
	<path stroke='black'  d='M154.9,192.4 L154.9,183.4  '/>	<g transform="translate(154.9,214.3)" stroke="none" fill="black" font-family="Helvetica" font-size="12.00"  text-anchor="middle">
		<text><tspan font-family="Helvetica" > 0</tspan></text>
	</g>
</g>
<g fill="none" color="black" stroke="currentColor" stroke-width="1.00" stroke-linecap="butt" stroke-linejoin="miter">
</g>
<g fill="none" color="black" stroke="black" stroke-width="0.50" stroke-linecap="butt" stroke-linejoin="miter">
</g>
<g fill="none" color="gray" stroke="currentColor" stroke-width="0.50" stroke-linecap="butt" stroke-linejoin="miter">
	<path stroke='gray' stroke-dasharray='2,4' class="gridline"  d='M312.1,192.4 L312.1,54.1  '/></g>
<g fill="none" color="gray" stroke="gray" stroke-width="1.00" stroke-linecap="butt" stroke-linejoin="miter">
</g>
<g fill="none" color="black" stroke="currentColor" stroke-width="1.00" stroke-linecap="butt" stroke-linejoin="miter">
	<path stroke='black'  d='M312.1,192.4 L312.1,183.4  '/>	<g transform="translate(312.1,214.3)" stroke="none" fill="black" font-family="Helvetica" font-size="12.00"  text-anchor="middle">
		<text><tspan font-family="Helvetica" > 50</tspan></text>
	</g>
</g>
<g fill="none" color="black" stroke="currentColor" stroke-width="1.00" stroke-linecap="butt" stroke-linejoin="miter">
</g>
<g fill="none" color="black" stroke="black" stroke-width="0.50" stroke-linecap="butt" stroke-linejoin="miter">
</g>
<g fill="none" color="gray" stroke="currentColor" stroke-width="0.50" stroke-linecap="butt" stroke-linejoin="miter">
	<path stroke='gray' stroke-dasharray='2,4' class="gridline"  d='M469.2,192.4 L469.2,54.1  '/></g>
<g fill="none" color="gray" stroke="gray" stroke-width="1.00" stroke-linecap="butt" stroke-linejoin="miter">
</g>
<g fill="none" color="black" stroke="currentColor" stroke-width="1.00" stroke-linecap="butt" stroke-linejoin="miter">
	<path stroke='black'  d='M469.2,192.4 L469.2,183.4  '/>	<g transform="translate(469.2,214.3)" stroke="none" fill="black" font-family="Helvetica" font-size="12.00"  text-anchor="middle">
		<text><tspan font-family="Helvetica" > 100</tspan></text>
	</g>
</g>
<g fill="none" color="black" stroke="currentColor" stroke-width="1.00" stroke-linecap="butt" stroke-linejoin="miter">
</g>
<g fill="none" color="black" stroke="black" stroke-width="0.50" stroke-linecap="butt" stroke-linejoin="miter">
</g>
<g fill="none" color="gray" stroke="currentColor" stroke-width="0.50" stroke-linecap="butt" stroke-linejoin="miter">
	<path stroke='gray' stroke-dasharray='2,4' class="gridline"  d='M626.4,192.4 L626.4,54.1  '/></g>
<g fill="none" color="gray" stroke="gray" stroke-width="1.00" stroke-linecap="butt" stroke-linejoin="miter">
</g>
<g fill="none" color="black" stroke="currentColor" stroke-width="1.00" stroke-linecap="butt" stroke-linejoin="miter">
	<path stroke='black'  d='M626.4,192.4 L626.4,183.4  '/>	<g transform="translate(626.4,214.3)" stroke="none" fill="black" font-family="Helvetica" font-size="12.00"  text-anchor="middle">
		<text><tspan font-family="Helvetica" > 150</tspan></text>
	</g>
</g>
<g fill="none" color="black" stroke="currentColor" stroke-width="1.00" stroke-linecap="butt" stroke-linejoin="miter">
</g>
<g fill="none" color="black" stroke="black" stroke-width="0.50" stroke-linecap="butt" stroke-linejoin="miter">
</g>
<g fill="none" color="gray" stroke="currentColor" stroke-width="0.50" stroke-linecap="butt" stroke-linejoin="miter">
	<path stroke='gray' stroke-dasharray='2,4' class="gridline"  d='M783.5,192.4 L783.5,54.1  '/></g>
<g fill="none" color="gray" stroke="gray" stroke-width="1.00" stroke-linecap="butt" stroke-linejoin="miter">
</g>
<g fill="none" color="black" stroke="currentColor" stroke-width="1.00" stroke-linecap="butt" stroke-linejoin="miter">
	<path stroke='black'  d='M783.5,192.4 L783.5,183.4  '/>	<g transform="translate(783.5,214.3)" stroke="none" fill="black" font-family="Helvetica" font-size="12.00"  text-anchor="middle">
		<text><tspan font-family="Helvetica" > 200</tspan></text>
	</g>
</g>
<g fill="none" color="black" stroke="currentColor" stroke-width="1.00" stroke-linecap="butt" stroke-linejoin="miter">
</g>
<g fill="none" color="black" stroke="black" stroke-width="0.50" stroke-linecap="butt" stroke-linejoin="miter">
</g>
<g fill="none" color="gray" stroke="currentColor" stroke-width="0.50" stroke-linecap="butt" stroke-linejoin="miter">
	<path stroke='gray' stroke-dasharray='2,4' class="gridline"  d='M940.7,192.4 L940.7,54.1  '/></g>
<g fill="none" color="gray" stroke="gray" stroke-width="1.00" stroke-linecap="butt" stroke-linejoin="miter">
</g>
<g fill="none" color="black" stroke="currentColor" stroke-width="1.00" stroke-linecap="butt" stroke-linejoin="miter">
	<path stroke='black'  d='M940.7,192.4 L940.7,183.4  '/>	<g transform="translate(940.7,214.3)" stroke="none" fill="black" font-family="Helvetica" font-size="12.00"  text-anchor="middle">
		<text><tspan font-family="Helvetica" > 250</tspan></text>
	</g>
</g>
<g fill="none" color="black" stroke="currentColor" stroke-width="1.00" stroke-linecap="butt" stroke-linejoin="miter">
</g>
<g fill="none" color="black" stroke="black" stroke-width="0.50" stroke-linecap="butt" stroke-linejoin="miter">
</g>
<g fill="none" color="gray" stroke="currentColor" stroke-width="0.50" stroke-linecap="butt" stroke-linejoin="miter">
	<path stroke='gray' stroke-dasharray='2,4' class="gridline"  d='M1097.8,192.4 L1097.8,54.1  '/></g>
<g fill="none" color="gray" stroke="gray" stroke-width="1.00" stroke-linecap="butt" stroke-linejoin="miter">
</g>
<g fill="none" color="black" stroke="currentColor" stroke-width="1.00" stroke-linecap="butt" stroke-linejoin="miter">
	<path stroke='black'  d='M1097.8,192.4 L1097.8,183.4  '/>	<g transform="translate(1097.8,214.3)" stroke="none" fill="black" font-family="Helvetica" font-size="12.00"  text-anchor="middle">
		<text><tspan font-family="Helvetica" > 300</tspan></text>
	</g>
</g>
<g fill="none" color="black" stroke="currentColor" stroke-width="1.00" stroke-linecap="butt" stroke-linejoin="miter">
</g>
<g fill="none" color="black" stroke="black" stroke-width="0.50" stroke-linecap="butt" stroke-linejoin="miter">
</g>
<g fill="none" color="gray" stroke="currentColor" stroke-width="0.50" stroke-linecap="butt" stroke-linejoin="miter">
	<path stroke='gray' stroke-dasharray='2,4' class="gridline"  d='M1255.0,192.4 L1255.0,54.1  '/></g>
<g fill="none" color="gray" stroke="gray" stroke-width="1.00" stroke-linecap="butt" stroke-linejoin="miter">
</g>
<g fill="none" color="black" stroke="currentColor" stroke-width="1.00" stroke-linecap="butt" stroke-linejoin="miter">
	<path stroke='black'  d='M1255.0,192.4 L1255.0,183.4  '/>	<g transform="translate(1255.0,214.3)" stroke="none" fill="black" font-family="Helvetica" font-size="12.00"  text-anchor="middle">
		<text><tspan font-family="Helvetica" > 350</tspan></text>
	</g>
</g>
<g fill="none" color="black" stroke="currentColor" stroke-width="1.00" stroke-linecap="butt" stroke-linejoin="miter">
</g>
<g fill="none" color="black" stroke="currentColor" stroke-width="1.00" stroke-linecap="butt" stroke-linejoin="miter">
	<path stroke='black'  d='M154.9,54.1 L154.9,192.4 L1255.0,192.4 L1255.0,54.1 L154.9,54.1 Z  '/></g>
<g fill="none" color="black" stroke="currentColor" stroke-width="1.00" stroke-linecap="butt" stroke-linejoin="miter">
	<g transform="translate(16.3,123.3) rotate(270)" stroke="none" fill="black" font-family="Helvetica" font-size="12.00"  text-anchor="middle">
		<text><tspan font-family="Helvetica" >Input</tspan></text>
	</g>
</g>
<g fill="none" color="black" stroke="currentColor" stroke-width="1.00" stroke-linecap="butt" stroke-linejoin="miter">
	<g transform="translate(704.9,241.3)" stroke="none" fill="black" font-family="Helvetica" font-size="12.00"  text-anchor="middle">
		<text><tspan font-family="Helvetica" >Average time (ms)</tspan></text>
	</g>
</g>
<g fill="none" color="black" stroke="currentColor" stroke-width="1.00" stroke-linecap="butt" stroke-linejoin="miter">
	<g transform="translate(704.9,31.0)" stroke="none" fill="black" font-family="Helvetica" font-size="12.00"  text-anchor="middle">
		<text><tspan font-family="Helvetica" >get_bench: Violin plot</tspan></text>
	</g>
</g>
	<g id="gnuplot_plot_1" ><title>PDF</title>
<g fill="none" color="black" stroke="currentColor" stroke-width="1.00" stroke-linecap="butt" stroke-linejoin="miter">
	<g transform="translate(1187.9,76.0)" stroke="none" fill="black" font-family="Helvetica" font-size="12.00"  text-anchor="end">
		<text><tspan font-family="Helvetica" >PDF</tspan></text>
	</g>
</g>
<g fill="none" color="black" stroke="currentColor" stroke-width="1.00" stroke-linecap="butt" stroke-linejoin="miter">
	<g stroke='none' shape-rendering='crispEdges'>
		<polygon fill = 'rgb( 31, 120, 180)' fill-opacity = '0.250000' points = '1196.2,76.6 1238.4,76.6 1238.4,67.6 1196.2,67.6 '/>
		<polygon fill = 'rgb( 31, 120, 180)' fill-opacity = '0.250000' points = '636.4,157.8 637.4,157.8 638.4,157.8 639.4,157.8 640.4,157.8 641.4,157.8 642.4,157.8 643.4,157.8 644.4,157.8 645.4,157.8 646.4,157.8 647.4,157.8 648.4,157.8 649.4,157.8 650.4,157.8 651.4,157.8
652.4,157.8 653.4,157.8 654.4,157.8 655.4,157.8 656.4,157.8 657.4,157.7 658.5,157.7 659.5,157.7 660.5,157.7 661.5,157.7 662.5,157.7 663.5,157.7 664.5,157.7 665.5,157.7 666.5,157.6 667.5,157.6
668.5,157.6 669.5,157.6 670.5,157.6 671.5,157.5 672.5,157.5 673.5,157.5 674.5,157.5 675.5,157.4 676.5,157.4 677.5,157.4 678.5,157.3 679.5,157.3 680.5,157.2 681.5,157.2 682.6,157.1 683.6,157.1
684.6,157.0 685.6,157.0 686.6,156.9 687.6,156.8 688.6,156.8 689.6,156.7 690.6,156.6 691.6,156.5 692.6,156.4 693.6,156.3 694.6,156.2 695.6,156.1 696.6,156.0 697.6,155.8 698.6,155.7 699.6,155.6
700.6,155.4 701.6,155.2 702.6,155.1 703.6,154.9 704.6,154.7 705.6,154.5 706.7,154.3 707.7,154.0 708.7,153.8 709.7,153.5 710.7,153.3 711.7,153.0 712.7,152.7 713.7,152.4 714.7,152.0 715.7,151.7
716.7,151.3 717.7,151.0 718.7,150.6 719.7,150.2 720.7,149.7 721.7,149.3 722.7,148.8 723.7,148.4 724.7,147.9 725.7,147.4 726.7,146.8 727.7,146.3 728.7,145.7 729.8,145.2 730.8,144.6 731.8,144.0
732.8,143.4 733.8,142.7 734.8,142.1 735.8,141.4 736.8,140.8 737.8,140.1 738.8,139.4 739.8,138.7 740.8,138.0 741.8,137.3 742.8,136.6 743.8,135.9 744.8,135.2 745.8,134.6 746.8,133.9 747.8,133.2
748.8,132.5 749.8,131.8 750.8,131.2 751.8,130.5 752.8,129.9 753.9,129.3 754.9,128.7 755.9,128.1 756.9,127.6 757.9,127.1 758.9,126.6 759.9,126.1 760.9,125.7 761.9,125.3 762.9,124.9 763.9,124.6
764.9,124.3 765.9,124.0 766.9,123.8 767.9,123.6 768.9,123.5 769.9,123.4 770.9,123.3 771.9,123.2 772.9,123.3 773.9,123.3 774.9,123.4 775.9,123.5 776.9,123.6 778.0,123.8 779.0,124.0 780.0,124.3
781.0,124.6 782.0,124.9 783.0,125.2 784.0,125.6 785.0,126.0 786.0,126.4 787.0,126.8 788.0,127.2 789.0,127.7 790.0,128.2 791.0,128.7 792.0,129.2 793.0,129.7 794.0,130.3 795.0,130.8 796.0,131.3
797.0,131.9 798.0,132.4 799.0,133.0 800.0,133.5 801.0,134.1 802.1,134.6 803.1,135.1 804.1,135.7 805.1,136.2 806.1,136.7 807.1,137.2 808.1,137.7 809.1,138.2 810.1,138.7 811.1,139.2 812.1,139.6
813.1,140.1 814.1,140.5 815.1,140.9 816.1,141.3 817.1,141.7 818.1,142.1 819.1,142.5 820.1,142.9 821.1,143.2 822.1,143.6 823.1,143.9 824.1,144.2 825.2,144.5 826.2,144.9 827.2,145.2 828.2,145.4
829.2,145.7 830.2,146.0 831.2,146.3 832.2,146.5 833.2,146.8 834.2,147.0 835.2,147.3 836.2,147.5 837.2,147.7 838.2,148.0 839.2,148.2 840.2,148.4 841.2,148.6 842.2,148.8 843.2,149.0 844.2,149.2
845.2,149.4 846.2,149.6 847.2,149.8 848.2,150.0 849.3,150.1 850.3,150.3 851.3,150.5 852.3,150.7 853.3,150.8 854.3,151.0 855.3,151.2 856.3,151.3 857.3,151.5 858.3,151.7 859.3,151.8 860.3,152.0
861.3,152.1 862.3,152.3 863.3,152.4 864.3,152.6 865.3,152.7 866.3,152.8 867.3,153.0 868.3,153.1 869.3,153.2 870.3,153.3 871.3,153.5 872.3,153.6 873.4,153.7 874.4,153.8 875.4,153.9 876.4,154.0
877.4,154.1 878.4,154.2 879.4,154.3 880.4,154.4 881.4,154.5 882.4,154.5 883.4,154.6 884.4,154.7 885.4,154.8 886.4,154.8 887.4,154.9 888.4,155.0 889.4,155.0 890.4,155.1 891.4,155.1 892.4,155.2
893.4,155.2 894.4,155.2 895.4,155.3 896.4,155.3 897.5,155.4 898.5,155.4 899.5,155.4 900.5,155.4 901.5,155.5 902.5,155.5 903.5,155.5 904.5,155.5 905.5,155.5 906.5,155.5 907.5,155.5 908.5,155.6
909.5,155.6 910.5,155.6 911.5,155.6 912.5,155.6 913.5,155.6 914.5,155.6 915.5,155.6 916.5,155.6 917.5,155.6 918.5,155.6 919.5,155.6 920.6,155.6 921.6,155.6 922.6,155.6 923.6,155.7 924.6,155.7
925.6,155.7 926.6,155.7 927.6,155.7 928.6,155.7 929.6,155.7 930.6,155.8 931.6,155.8 932.6,155.8 933.6,155.8 934.6,155.8 935.6,155.9 936.6,155.9 937.6,155.9 938.6,156.0 939.6,156.0 940.6,156.0
941.6,156.1 942.6,156.1 943.6,156.1 944.7,156.2 945.7,156.2 946.7,156.3 947.7,156.3 948.7,156.4 949.7,156.4 950.7,156.4 951.7,156.5 952.7,156.5 953.7,156.6 954.7,156.6 955.7,156.6 956.7,156.7
957.7,156.7 958.7,156.7 959.7,156.8 960.7,156.8 961.7,156.8 962.7,156.9 963.7,156.9 964.7,156.9 965.7,157.0 966.7,157.0 967.7,157.0 968.8,157.0 969.8,157.0 970.8,157.1 971.8,157.1 972.8,157.1
973.8,157.1 974.8,157.1 975.8,157.1 976.8,157.1 977.8,157.1 978.8,157.2 979.8,157.2 980.8,157.2 981.8,157.2 982.8,157.2 983.8,157.2 984.8,157.2 985.8,157.2 986.8,157.2 987.8,157.2 988.8,157.2
989.8,157.2 990.8,157.2 991.8,157.2 992.9,157.2 993.9,157.2 994.9,157.2 995.9,157.2 996.9,157.2 997.9,157.2 998.9,157.2 999.9,157.2 1000.9,157.2 1001.9,157.2 1002.9,157.3 1003.9,157.3 1004.9,157.3
1005.9,157.3 1006.9,157.3 1007.9,157.3 1008.9,157.3 1009.9,157.3 1010.9,157.3 1011.9,157.3 1012.9,157.3 1013.9,157.4 1014.9,157.4 1016.0,157.4 1017.0,157.4 1018.0,157.4 1019.0,157.4 1020.0,157.4 1021.0,157.4
1022.0,157.4 1023.0,157.4 1024.0,157.5 1025.0,157.5 1026.0,157.5 1027.0,157.5 1028.0,157.5 1029.0,157.5 1030.0,157.5 1031.0,157.5 1032.0,157.5 1033.0,157.5 1034.0,157.5 1035.0,157.5 1036.0,157.5 1037.0,157.5
1038.0,157.5 1039.0,157.5 1040.1,157.5 1041.1,157.4 1042.1,157.4 1043.1,157.4 1044.1,157.4 1045.1,157.4 1046.1,157.4 1047.1,157.4 1048.1,157.4 1049.1,157.4 1050.1,157.4 1051.1,157.4 1052.1,157.3 1053.1,157.3
1054.1,157.3 1055.1,157.3 1056.1,157.3 1057.1,157.3 1058.1,157.3 1059.1,157.3 1060.1,157.3 1061.1,157.3 1062.1,157.3 1063.1,157.3 1064.2,157.3 1065.2,157.3 1066.2,157.3 1067.2,157.3 1068.2,157.3 1069.2,157.3
1070.2,157.3 1071.2,157.3 1072.2,157.3 1073.2,157.3 1074.2,157.3 1075.2,157.3 1076.2,157.3 1077.2,157.3 1078.2,157.3 1079.2,157.3 1080.2,157.3 1081.2,157.3 1082.2,157.4 1083.2,157.4 1084.2,157.4 1085.2,157.4
1086.2,157.4 1087.2,157.4 1088.3,157.4 1089.3,157.5 1090.3,157.5 1091.3,157.5 1092.3,157.5 1093.3,157.5 1094.3,157.5 1095.3,157.5 1096.3,157.6 1097.3,157.6 1098.3,157.6 1099.3,157.6 1100.3,157.6 1101.3,157.6
1102.3,157.6 1103.3,157.6 1104.3,157.7 1105.3,157.7 1106.3,157.7 1107.3,157.7 1108.3,157.7 1109.3,157.7 1110.3,157.7 1111.4,157.7 1112.4,157.7 1113.4,157.7 1114.4,157.7 1115.4,157.8 1116.4,157.8 1117.4,157.8
1118.4,157.8 1119.4,157.8 1120.4,157.8 1121.4,157.8 1122.4,157.8 1123.4,157.8 1124.4,157.8 1125.4,157.8 1126.4,157.8 1127.4,157.8 1128.4,157.8 1129.4,157.8 1130.4,157.8 1131.4,157.8 1132.4,157.8 1133.4,157.8
1134.4,157.8 1135.5,157.8 1136.5,157.8 1137.5,157.8 1137.5,157.8 1136.5,157.8 1135.5,157.8 1134.4,157.8 1133.4,157.8 1132.4,157.8 1131.4,157.8 1130.4,157.8 1129.4,157.8 1128.4,157.8 1127.4,157.8 1126.4,157.8
1125.4,157.9 1124.4,157.9 1123.4,157.9 1122.4,157.9 1121.4,157.9 1120.4,157.9 1119.4,157.9 1118.4,157.9 1117.4,157.9 1116.4,157.9 1115.4,157.9 1114.4,157.9 1113.4,157.9 1112.4,157.9 1111.4,157.9 1110.3,157.9
1109.3,157.9 1108.3,157.9 1107.3,158.0 1106.3,158.0 1105.3,158.0 1104.3,158.0 1103.3,158.0 1102.3,158.0 1101.3,158.0 1100.3,158.0 1099.3,158.1 1098.3,158.1 1097.3,158.1 1096.3,158.1 1095.3,158.1 1094.3,158.1
1093.3,158.1 1092.3,158.2 1091.3,158.2 1090.3,158.2 1089.3,158.2 1088.3,158.2 1087.2,158.2 1086.2,158.2 1085.2,158.3 1084.2,158.3 1083.2,158.3 1082.2,158.3 1081.2,158.3 1080.2,158.3 1079.2,158.3 1078.2,158.3
1077.2,158.3 1076.2,158.4 1075.2,158.4 1074.2,158.4 1073.2,158.4 1072.2,158.4 1071.2,158.4 1070.2,158.4 1069.2,158.4 1068.2,158.4 1067.2,158.4 1066.2,158.4 1065.2,158.4 1064.2,158.4 1063.1,158.4 1062.1,158.4
1061.1,158.4 1060.1,158.4 1059.1,158.4 1058.1,158.4 1057.1,158.4 1056.1,158.3 1055.1,158.3 1054.1,158.3 1053.1,158.3 1052.1,158.3 1051.1,158.3 1050.1,158.3 1049.1,158.3 1048.1,158.3 1047.1,158.3 1046.1,158.2
1045.1,158.2 1044.1,158.2 1043.1,158.2 1042.1,158.2 1041.1,158.2 1040.1,158.2 1039.0,158.2 1038.0,158.2 1037.0,158.2 1036.0,158.2 1035.0,158.2 1034.0,158.2 1033.0,158.2 1032.0,158.2 1031.0,158.2 1030.0,158.2
1029.0,158.2 1028.0,158.2 1027.0,158.2 1026.0,158.2 1025.0,158.2 1024.0,158.2 1023.0,158.2 1022.0,158.2 1021.0,158.2 1020.0,158.2 1019.0,158.2 1018.0,158.2 1017.0,158.3 1016.0,158.3 1014.9,158.3 1013.9,158.3
1012.9,158.3 1011.9,158.3 1010.9,158.3 1009.9,158.3 1008.9,158.3 1007.9,158.4 1006.9,158.4 1005.9,158.4 1004.9,158.4 1003.9,158.4 1002.9,158.4 1001.9,158.4 1000.9,158.4 999.9,158.4 998.9,158.4 997.9,158.4
996.9,158.4 995.9,158.4 994.9,158.4 993.9,158.4 992.9,158.5 991.8,158.5 990.8,158.5 989.8,158.5 988.8,158.5 987.8,158.5 986.8,158.5 985.8,158.5 984.8,158.5 983.8,158.5 982.8,158.5 981.8,158.5
980.8,158.5 979.8,158.5 978.8,158.5 977.8,158.5 976.8,158.5 975.8,158.5 974.8,158.5 973.8,158.5 972.8,158.6 971.8,158.6 970.8,158.6 969.8,158.6 968.8,158.6 967.7,158.6 966.7,158.7 965.7,158.7
964.7,158.7 963.7,158.7 962.7,158.8 961.7,158.8 960.7,158.8 959.7,158.9 958.7,158.9 957.7,158.9 956.7,159.0 955.7,159.0 954.7,159.1 953.7,159.1 952.7,159.1 951.7,159.2 950.7,159.2 949.7,159.3
948.7,159.3 947.7,159.3 946.7,159.4 945.7,159.4 944.7,159.5 943.6,159.5 942.6,159.5 941.6,159.6 940.6,159.6 939.6,159.6 938.6,159.7 937.6,159.7 936.6,159.7 935.6,159.8 934.6,159.8 933.6,159.8
932.6,159.9 931.6,159.9 930.6,159.9 929.6,159.9 928.6,159.9 927.6,159.9 926.6,160.0 925.6,160.0 924.6,160.0 923.6,160.0 922.6,160.0 921.6,160.0 920.6,160.0 919.5,160.0 918.5,160.0 917.5,160.0
916.5,160.0 915.5,160.1 914.5,160.1 913.5,160.1 912.5,160.1 911.5,160.1 910.5,160.1 909.5,160.1 908.5,160.1 907.5,160.1 906.5,160.1 905.5,160.1 904.5,160.1 903.5,160.2 902.5,160.2 901.5,160.2
900.5,160.2 899.5,160.2 898.5,160.3 897.5,160.3 896.4,160.3 895.4,160.4 894.4,160.4 893.4,160.4 892.4,160.5 891.4,160.5 890.4,160.6 889.4,160.6 888.4,160.7 887.4,160.7 886.4,160.8 885.4,160.9
884.4,160.9 883.4,161.0 882.4,161.1 881.4,161.2 880.4,161.3 879.4,161.4 878.4,161.4 877.4,161.5 876.4,161.6 875.4,161.7 874.4,161.8 873.4,162.0 872.3,162.1 871.3,162.2 870.3,162.3 869.3,162.4
868.3,162.6 867.3,162.7 866.3,162.8 865.3,163.0 864.3,163.1 863.3,163.2 862.3,163.4 861.3,163.5 860.3,163.7 859.3,163.8 858.3,164.0 857.3,164.1 856.3,164.3 855.3,164.5 854.3,164.6 853.3,164.8
852.3,165.0 851.3,165.1 850.3,165.3 849.3,165.5 848.2,165.7 847.2,165.9 846.2,166.1 845.2,166.3 844.2,166.4 843.2,166.6 842.2,166.8 841.2,167.1 840.2,167.3 839.2,167.5 838.2,167.7 837.2,167.9
836.2,168.2 835.2,168.4 834.2,168.6 833.2,168.9 832.2,169.1 831.2,169.4 830.2,169.7 829.2,169.9 828.2,170.2 827.2,170.5 826.2,170.8 825.2,171.1 824.1,171.4 823.1,171.7 822.1,172.1 821.1,172.4
820.1,172.8 819.1,173.2 818.1,173.5 817.1,173.9 816.1,174.3 815.1,174.7 814.1,175.2 813.1,175.6 812.1,176.0 811.1,176.5 810.1,177.0 809.1,177.4 808.1,177.9 807.1,178.4 806.1,178.9 805.1,179.5
804.1,180.0 803.1,180.5 802.1,181.0 801.0,181.6 800.0,182.1 799.0,182.7 798.0,183.2 797.0,183.8 796.0,184.3 795.0,184.9 794.0,185.4 793.0,185.9 792.0,186.4 791.0,187.0 790.0,187.4 789.0,187.9
788.0,188.4 787.0,188.9 786.0,189.3 785.0,189.7 784.0,190.1 783.0,190.5 782.0,190.8 781.0,191.1 780.0,191.4 779.0,191.6 778.0,191.8 776.9,192.0 775.9,192.2 774.9,192.3 773.9,192.4 772.9,192.4
771.9,192.4 770.9,192.4 769.9,192.3 768.9,192.2 767.9,192.0 766.9,191.8 765.9,191.6 764.9,191.3 763.9,191.1 762.9,190.7 761.9,190.3 760.9,189.9 759.9,189.5 758.9,189.1 757.9,188.6 756.9,188.0
755.9,187.5 754.9,186.9 753.9,186.4 752.8,185.7 751.8,185.1 750.8,184.5 749.8,183.8 748.8,183.2 747.8,182.5 746.8,181.8 745.8,181.1 744.8,180.4 743.8,179.7 742.8,179.0 741.8,178.3 740.8,177.6
739.8,176.9 738.8,176.2 737.8,175.5 736.8,174.9 735.8,174.2 734.8,173.6 733.8,172.9 732.8,172.3 731.8,171.7 730.8,171.1 729.8,170.5 728.7,169.9 727.7,169.3 726.7,168.8 725.7,168.3 724.7,167.8
723.7,167.3 722.7,166.8 721.7,166.4 720.7,165.9 719.7,165.5 718.7,165.1 717.7,164.7 716.7,164.3 715.7,164.0 714.7,163.6 713.7,163.3 712.7,163.0 711.7,162.7 710.7,162.4 709.7,162.1 708.7,161.9
707.7,161.6 706.7,161.4 705.6,161.2 704.6,161.0 703.6,160.8 702.6,160.6 701.6,160.4 700.6,160.3 699.6,160.1 698.6,160.0 697.6,159.8 696.6,159.7 695.6,159.6 694.6,159.4 693.6,159.3 692.6,159.2
691.6,159.1 690.6,159.0 689.6,159.0 688.6,158.9 687.6,158.8 686.6,158.7 685.6,158.7 684.6,158.6 683.6,158.6 682.6,158.5 681.5,158.5 680.5,158.4 679.5,158.4 678.5,158.3 677.5,158.3 676.5,158.3
675.5,158.2 674.5,158.2 673.5,158.2 672.5,158.1 671.5,158.1 670.5,158.1 669.5,158.1 668.5,158.0 667.5,158.0 666.5,158.0 665.5,158.0 664.5,158.0 663.5,158.0 662.5,158.0 661.5,157.9 660.5,157.9
659.5,157.9 658.5,157.9 657.4,157.9 656.4,157.9 655.4,157.9 654.4,157.9 653.4,157.9 652.4,157.9 651.4,157.9 650.4,157.9 649.4,157.9 648.4,157.9 647.4,157.9 646.4,157.8 645.4,157.8 644.4,157.8
643.4,157.8 642.4,157.8 641.4,157.8 640.4,157.8 639.4,157.8 638.4,157.8 637.4,157.8 636.4,157.8 '/>
	</g>
</g>
	</g>
	<g id="gnuplot_plot_2" ><title>gnuplot_plot_2</title>
<g fill="none" color="black" stroke="currentColor" stroke-width="1.00" stroke-linecap="butt" stroke-linejoin="miter">
	<g stroke='none' shape-rendering='crispEdges'>
		<polygon fill = 'rgb( 31, 120, 180)' fill-opacity = '0.250000' points = '309.6,88.6 310.3,88.6 311.0,88.6 311.8,88.6 312.5,88.6 313.2,88.6 313.9,88.6 314.6,88.5 315.4,88.5 316.1,88.5 316.8,88.4 317.5,88.4 318.3,88.3 319.0,88.3 319.7,88.2 320.4,88.1
321.1,88.1 321.9,88.0 322.6,87.9 323.3,87.7 324.0,87.6 324.7,87.5 325.5,87.3 326.2,87.1 326.9,86.9 327.6,86.7 328.3,86.4 329.1,86.1 329.8,85.8 330.5,85.5 331.2,85.1 332.0,84.7
332.7,84.3 333.4,83.8 334.1,83.3 334.8,82.8 335.6,82.2 336.3,81.6 337.0,81.0 337.7,80.3 338.4,79.5 339.2,78.8 339.9,78.0 340.6,77.2 341.3,76.3 342.0,75.4 342.8,74.5 343.5,73.5
344.2,72.5 344.9,71.5 345.6,70.5 346.4,69.5 347.1,68.4 347.8,67.4 348.5,66.4 349.3,65.3 350.0,64.3 350.7,63.3 351.4,62.3 352.1,61.4 352.9,60.4 353.6,59.6 354.3,58.7 355.0,58.0
355.7,57.2 356.5,56.6 357.2,56.0 357.9,55.5 358.6,55.0 359.3,54.7 360.1,54.4 360.8,54.2 361.5,54.1 362.2,54.1 362.9,54.2 363.7,54.3 364.4,54.6 365.1,54.9 365.8,55.3 366.6,55.8
367.3,56.4 368.0,57.0 368.7,57.8 369.4,58.5 370.2,59.4 370.9,60.3 371.6,61.2 372.3,62.1 373.0,63.1 373.8,64.2 374.5,65.2 375.2,66.3 375.9,67.3 376.6,68.4 377.4,69.5 378.1,70.5
378.8,71.5 379.5,72.6 380.2,73.5 381.0,74.5 381.7,75.4 382.4,76.4 383.1,77.2 383.9,78.0 384.6,78.8 385.3,79.6 386.0,80.3 386.7,81.0 387.5,81.6 388.2,82.2 388.9,82.8 389.6,83.3
390.3,83.8 391.1,84.2 391.8,84.6 392.5,85.0 393.2,85.3 393.9,85.7 394.7,86.0 395.4,86.2 396.1,86.5 396.8,86.7 397.5,86.9 398.3,87.1 399.0,87.2 399.7,87.4 400.4,87.5 401.2,87.6
401.9,87.7 402.6,87.8 403.3,87.9 404.0,87.9 404.8,88.0 405.5,88.1 406.2,88.1 406.9,88.1 407.6,88.2 408.4,88.2 409.1,88.2 409.8,88.2 410.5,88.2 411.2,88.2 412.0,88.2 412.7,88.2
413.4,88.2 414.1,88.2 414.9,88.2 415.6,88.2 416.3,88.2 417.0,88.2 417.7,88.2 418.5,88.2 419.2,88.1 419.9,88.1 420.6,88.1 421.3,88.1 422.1,88.1 422.8,88.1 423.5,88.0 424.2,88.0
424.9,88.0 425.7,88.0 426.4,88.0 427.1,88.0 427.8,88.0 428.5,88.0 429.3,88.0 430.0,87.9 430.7,87.9 431.4,87.9 432.2,87.9 432.9,87.9 433.6,88.0 434.3,88.0 435.0,88.0 435.8,88.0
436.5,88.0 437.2,88.0 437.9,88.0 438.6,88.0 439.4,88.0 440.1,88.1 440.8,88.1 441.5,88.1 442.2,88.1 443.0,88.1 443.7,88.2 444.4,88.2 445.1,88.2 445.8,88.2 446.6,88.3 447.3,88.3
448.0,88.3 448.7,88.3 449.5,88.3 450.2,88.4 450.9,88.4 451.6,88.4 452.3,88.4 453.1,88.4 453.8,88.5 454.5,88.5 455.2,88.5 455.9,88.5 456.7,88.5 457.4,88.5 458.1,88.6 458.8,88.6
459.5,88.6 460.3,88.6 461.0,88.6 461.7,88.6 462.4,88.6 463.1,88.6 463.9,88.6 464.6,88.6 465.3,88.6 466.0,88.6 466.8,88.6 467.5,88.7 468.2,88.7 468.9,88.7 469.6,88.7 470.4,88.7
471.1,88.7 471.8,88.7 472.5,88.7 473.2,88.7 474.0,88.7 474.7,88.7 475.4,88.7 476.1,88.7 476.8,88.7 477.6,88.7 478.3,88.7 479.0,88.7 479.7,88.7 480.4,88.7 481.2,88.7 481.9,88.7
482.6,88.7 483.3,88.7 484.1,88.7 484.8,88.7 485.5,88.7 486.2,88.7 486.9,88.7 487.7,88.7 488.4,88.7 489.1,88.7 489.8,88.7 490.5,88.7 491.3,88.7 492.0,88.7 492.7,88.7 493.4,88.7
494.1,88.7 494.9,88.7 495.6,88.7 496.3,88.7 497.0,88.7 497.8,88.7 498.5,88.7 499.2,88.7 499.9,88.7 500.6,88.7 501.4,88.7 502.1,88.7 502.8,88.7 503.5,88.7 504.2,88.7 505.0,88.7
505.7,88.7 506.4,88.7 507.1,88.7 507.8,88.7 508.6,88.7 509.3,88.7 510.0,88.7 510.7,88.7 511.4,88.7 512.2,88.7 512.9,88.7 513.6,88.7 514.3,88.7 515.1,88.7 515.8,88.7 516.5,88.7
517.2,88.7 517.9,88.7 518.7,88.7 519.4,88.7 520.1,88.7 520.8,88.7 521.5,88.7 522.3,88.7 523.0,88.7 523.7,88.7 524.4,88.7 525.1,88.7 525.9,88.7 526.6,88.7 527.3,88.7 528.0,88.7
528.7,88.7 529.5,88.7 530.2,88.7 530.9,88.7 531.6,88.7 532.4,88.7 533.1,88.7 533.8,88.7 534.5,88.7 535.2,88.7 536.0,88.7 536.7,88.7 537.4,88.7 538.1,88.7 538.8,88.7 539.6,88.7
540.3,88.7 541.0,88.7 541.7,88.7 542.4,88.7 543.2,88.7 543.9,88.7 544.6,88.7 545.3,88.7 546.0,88.7 546.8,88.7 547.5,88.7 548.2,88.7 548.9,88.7 549.7,88.7 550.4,88.7 551.1,88.7
551.8,88.7 552.5,88.7 553.3,88.7 554.0,88.7 554.7,88.7 555.4,88.7 556.1,88.7 556.9,88.7 557.6,88.7 558.3,88.7 559.0,88.7 559.7,88.7 560.5,88.7 561.2,88.7 561.9,88.7 562.6,88.7
563.3,88.7 564.1,88.7 564.8,88.7 565.5,88.7 566.2,88.7 567.0,88.7 567.7,88.7 568.4,88.7 569.1,88.7 569.8,88.7 570.6,88.7 571.3,88.7 572.0,88.7 572.7,88.7 573.4,88.7 574.2,88.7
574.9,88.7 575.6,88.7 576.3,88.7 577.0,88.7 577.8,88.7 578.5,88.7 579.2,88.7 579.9,88.7 580.6,88.7 581.4,88.7 582.1,88.7 582.8,88.7 583.5,88.7 584.3,88.7 585.0,88.7 585.7,88.7
586.4,88.7 587.1,88.7 587.9,88.7 588.6,88.7 589.3,88.7 590.0,88.7 590.7,88.7 591.5,88.7 592.2,88.7 592.9,88.7 593.6,88.7 594.3,88.7 595.1,88.7 595.8,88.7 596.5,88.7 597.2,88.7
598.0,88.7 598.7,88.7 599.4,88.7 600.1,88.7 600.8,88.7 601.6,88.7 602.3,88.7 603.0,88.6 603.7,88.6 604.4,88.6 605.2,88.6 605.9,88.6 606.6,88.6 607.3,88.6 608.0,88.6 608.8,88.6
609.5,88.6 610.2,88.6 610.9,88.6 611.6,88.6 612.4,88.6 613.1,88.5 613.8,88.5 614.5,88.5 615.3,88.5 616.0,88.5 616.7,88.5 617.4,88.5 618.1,88.5 618.9,88.4 619.6,88.4 620.3,88.4
621.0,88.4 621.7,88.4 622.5,88.4 623.2,88.4 623.9,88.3 624.6,88.3 625.3,88.3 626.1,88.3 626.8,88.3 627.5,88.3 628.2,88.3 628.9,88.3 629.7,88.3 630.4,88.3 631.1,88.3 631.8,88.3
632.6,88.3 633.3,88.3 634.0,88.3 634.7,88.3 635.4,88.3 636.2,88.3 636.9,88.3 637.6,88.3 638.3,88.3 639.0,88.3 639.8,88.3 640.5,88.3 641.2,88.4 641.9,88.4 642.6,88.4 643.4,88.4
644.1,88.4 644.8,88.4 645.5,88.4 646.2,88.5 647.0,88.5 647.7,88.5 648.4,88.5 649.1,88.5 649.9,88.5 650.6,88.5 651.3,88.6 652.0,88.6 652.7,88.6 653.5,88.6 654.2,88.6 654.9,88.6
655.6,88.6 656.3,88.6 657.1,88.6 657.8,88.6 658.5,88.6 659.2,88.6 659.9,88.6 660.7,88.6 661.4,88.6 662.1,88.7 662.8,88.7 663.5,88.7 664.3,88.7 665.0,88.7 665.7,88.7 666.4,88.7
667.2,88.7 667.9,88.7 668.6,88.7 669.3,88.7 669.3,88.7 668.6,88.7 667.9,88.7 667.2,88.7 666.4,88.7 665.7,88.7 665.0,88.7 664.3,88.7 663.5,88.7 662.8,88.7 662.1,88.7 661.4,88.7
660.7,88.7 659.9,88.7 659.2,88.7 658.5,88.7 657.8,88.7 657.1,88.7 656.3,88.7 655.6,88.7 654.9,88.8 654.2,88.8 653.5,88.8 652.7,88.8 652.0,88.8 651.3,88.8 650.6,88.8 649.9,88.8
649.1,88.8 648.4,88.8 647.7,88.9 647.0,88.9 646.2,88.9 645.5,88.9 644.8,88.9 644.1,88.9 643.4,88.9 642.6,89.0 641.9,89.0 641.2,89.0 640.5,89.0 639.8,89.0 639.0,89.0 638.3,89.0
637.6,89.0 636.9,89.1 636.2,89.1 635.4,89.1 634.7,89.1 634.0,89.1 633.3,89.1 632.6,89.1 631.8,89.1 631.1,89.1 630.4,89.1 629.7,89.1 628.9,89.1 628.2,89.1 627.5,89.1 626.8,89.1
626.1,89.0 625.3,89.0 624.6,89.0 623.9,89.0 623.2,89.0 622.5,89.0 621.7,89.0 621.0,89.0 620.3,88.9 619.6,88.9 618.9,88.9 618.1,88.9 617.4,88.9 616.7,88.9 616.0,88.9 615.3,88.8
614.5,88.8 613.8,88.8 613.1,88.8 612.4,88.8 611.6,88.8 610.9,88.8 610.2,88.8 609.5,88.8 608.8,88.7 608.0,88.7 607.3,88.7 606.6,88.7 605.9,88.7 605.2,88.7 604.4,88.7 603.7,88.7
603.0,88.7 602.3,88.7 601.6,88.7 600.8,88.7 600.1,88.7 599.4,88.7 598.7,88.7 598.0,88.7 597.2,88.7 596.5,88.7 595.8,88.7 595.1,88.7 594.3,88.7 593.6,88.7 592.9,88.7 592.2,88.7
591.5,88.7 590.7,88.7 590.0,88.7 589.3,88.7 588.6,88.7 587.9,88.7 587.1,88.7 586.4,88.7 585.7,88.7 585.0,88.7 584.3,88.7 583.5,88.7 582.8,88.7 582.1,88.7 581.4,88.7 580.6,88.7
579.9,88.7 579.2,88.7 578.5,88.7 577.8,88.7 577.0,88.7 576.3,88.7 575.6,88.7 574.9,88.7 574.2,88.7 573.4,88.7 572.7,88.7 572.0,88.7 571.3,88.7 570.6,88.7 569.8,88.7 569.1,88.7
568.4,88.7 567.7,88.7 567.0,88.7 566.2,88.7 565.5,88.7 564.8,88.7 564.1,88.7 563.3,88.7 562.6,88.7 561.9,88.7 561.2,88.7 560.5,88.7 559.7,88.7 559.0,88.7 558.3,88.7 557.6,88.7
556.9,88.7 556.1,88.7 555.4,88.7 554.7,88.7 554.0,88.7 553.3,88.7 552.5,88.7 551.8,88.7 551.1,88.7 550.4,88.7 549.7,88.7 548.9,88.7 548.2,88.7 547.5,88.7 546.8,88.7 546.0,88.7
545.3,88.7 544.6,88.7 543.9,88.7 543.2,88.7 542.4,88.7 541.7,88.7 541.0,88.7 540.3,88.7 539.6,88.7 538.8,88.7 538.1,88.7 537.4,88.7 536.7,88.7 536.0,88.7 535.2,88.7 534.5,88.7
533.8,88.7 533.1,88.7 532.4,88.7 531.6,88.7 530.9,88.7 530.2,88.7 529.5,88.7 528.7,88.7 528.0,88.7 527.3,88.7 526.6,88.7 525.9,88.7 525.1,88.7 524.4,88.7 523.7,88.7 523.0,88.7
522.3,88.7 521.5,88.7 520.8,88.7 520.1,88.7 519.4,88.7 518.7,88.7 517.9,88.7 517.2,88.7 516.5,88.7 515.8,88.7 515.1,88.7 514.3,88.7 513.6,88.7 512.9,88.7 512.2,88.7 511.4,88.7
510.7,88.7 510.0,88.7 509.3,88.7 508.6,88.7 507.8,88.7 507.1,88.7 506.4,88.7 505.7,88.7 505.0,88.7 504.2,88.7 503.5,88.7 502.8,88.7 502.1,88.7 501.4,88.7 500.6,88.7 499.9,88.7
499.2,88.7 498.5,88.7 497.8,88.7 497.0,88.7 496.3,88.7 495.6,88.7 494.9,88.7 494.1,88.7 493.4,88.7 492.7,88.7 492.0,88.7 491.3,88.7 490.5,88.7 489.8,88.7 489.1,88.7 488.4,88.7
487.7,88.7 486.9,88.7 486.2,88.7 485.5,88.7 484.8,88.7 484.1,88.7 483.3,88.7 482.6,88.7 481.9,88.7 481.2,88.7 480.4,88.7 479.7,88.7 479.0,88.7 478.3,88.7 477.6,88.7 476.8,88.7
476.1,88.7 475.4,88.7 474.7,88.7 474.0,88.7 473.2,88.7 472.5,88.7 471.8,88.7 471.1,88.7 470.4,88.7 469.6,88.7 468.9,88.7 468.2,88.7 467.5,88.7 466.8,88.7 466.0,88.7 465.3,88.7
464.6,88.7 463.9,88.7 463.1,88.7 462.4,88.7 461.7,88.7 461.0,88.8 460.3,88.8 459.5,88.8 458.8,88.8 458.1,88.8 457.4,88.8 456.7,88.8 455.9,88.8 455.2,88.9 454.5,88.9 453.8,88.9
453.1,88.9 452.3,88.9 451.6,88.9 450.9,89.0 450.2,89.0 449.5,89.0 448.7,89.0 448.0,89.0 447.3,89.1 446.6,89.1 445.8,89.1 445.1,89.1 444.4,89.2 443.7,89.2 443.0,89.2 442.2,89.2
441.5,89.2 440.8,89.3 440.1,89.3 439.4,89.3 438.6,89.3 437.9,89.3 437.2,89.4 436.5,89.4 435.8,89.4 435.0,89.4 434.3,89.4 433.6,89.4 432.9,89.4 432.2,89.4 431.4,89.4 430.7,89.4
430.0,89.4 429.3,89.4 428.5,89.4 427.8,89.4 427.1,89.4 426.4,89.4 425.7,89.4 424.9,89.3 424.2,89.3 423.5,89.3 422.8,89.3 422.1,89.3 421.3,89.3 420.6,89.2 419.9,89.2 419.2,89.2
418.5,89.2 417.7,89.2 417.0,89.2 416.3,89.1 415.6,89.1 414.9,89.1 414.1,89.1 413.4,89.1 412.7,89.1 412.0,89.1 411.2,89.1 410.5,89.1 409.8,89.1 409.1,89.1 408.4,89.2 407.6,89.2
406.9,89.2 406.2,89.2 405.5,89.3 404.8,89.3 404.0,89.4 403.3,89.5 402.6,89.5 401.9,89.6 401.2,89.7 400.4,89.9 399.7,90.0 399.0,90.1 398.3,90.3 397.5,90.5 396.8,90.7 396.1,90.9
395.4,91.1 394.7,91.4 393.9,91.7 393.2,92.0 392.5,92.3 391.8,92.7 391.1,93.1 390.3,93.6 389.6,94.1 388.9,94.6 388.2,95.1 387.5,95.7 386.7,96.4 386.0,97.0 385.3,97.8 384.6,98.5
383.9,99.3 383.1,100.1 382.4,101.0 381.7,101.9 381.0,102.8 380.2,103.8 379.5,104.8 378.8,105.8 378.1,106.8 377.4,107.9 376.6,109.0 375.9,110.0 375.2,111.1 374.5,112.1 373.8,113.2 373.0,114.2
372.3,115.2 371.6,116.2 370.9,117.1 370.2,118.0 369.4,118.8 368.7,119.6 368.0,120.3 367.3,120.9 366.6,121.5 365.8,122.0 365.1,122.4 364.4,122.8 363.7,123.0 362.9,123.2 362.2,123.2 361.5,123.2
360.8,123.1 360.1,122.9 359.3,122.7 358.6,122.3 357.9,121.9 357.2,121.4 356.5,120.8 355.7,120.1 355.0,119.4 354.3,118.6 353.6,117.8 352.9,116.9 352.1,116.0 351.4,115.0 350.7,114.1 350.0,113.0
349.3,112.0 348.5,111.0 347.8,109.9 347.1,108.9 346.4,107.9 345.6,106.8 344.9,105.8 344.2,104.8 343.5,103.8 342.8,102.9 342.0,102.0 341.3,101.1 340.6,100.2 339.9,99.4 339.2,98.6 338.4,97.8
337.7,97.1 337.0,96.4 336.3,95.8 335.6,95.1 334.8,94.6 334.1,94.0 333.4,93.5 332.7,93.1 332.0,92.6 331.2,92.2 330.5,91.9 329.8,91.5 329.1,91.2 328.3,91.0 327.6,90.7 326.9,90.5
326.2,90.3 325.5,90.1 324.7,89.9 324.0,89.7 323.3,89.6 322.6,89.5 321.9,89.4 321.1,89.3 320.4,89.2 319.7,89.1 319.0,89.1 318.3,89.0 317.5,89.0 316.8,88.9 316.1,88.9 315.4,88.8
314.6,88.8 313.9,88.8 313.2,88.8 312.5,88.8 311.8,88.7 311.0,88.7 310.3,88.7 309.6,88.7 '/>
	</g>
</g>
	</g>
<g fill="none" color="white" stroke="rgb( 31, 120, 180)" stroke-width="2.00" stroke-linecap="butt" stroke-linejoin="miter">
</g>
<g fill="none" color="black" stroke="currentColor" stroke-width="2.00" stroke-linecap="butt" stroke-linejoin="miter">
</g>
<g fill="none" color="black" stroke="black" stroke-width="1.00" stroke-linecap="butt" stroke-linejoin="miter">
</g>
<g fill="none" color="black" stroke="currentColor" stroke-width="1.00" stroke-linecap="butt" stroke-linejoin="miter">
	<path stroke='black'  d='M154.9,54.1 L154.9,192.4 L1255.0,192.4 L1255.0,54.1 L154.9,54.1 Z  '/></g>
<g fill="none" color="black" stroke="currentColor" stroke-width="1.00" stroke-linecap="butt" stroke-linejoin="miter">
</g>
</g>
</svg>

